<?xml version="1.0" encoding="UTF-8"?>
<svg width="12px" height="8px" viewBox="0 0 12 8" version="1.1" xmlns="http://www.w3.org/2000/svg" xmlns:xlink="http://www.w3.org/1999/xlink">
    <!-- Generator: Sketch 51.1 (57501) - http://www.bohemiancoding.com/sketch -->
    <title>ic/expand_more</title>
    <desc>Created with Sketch.</desc>
    <defs>
        <polygon id="path-1" points="16.59 8.59 12 13.17 7.41 8.59 6 10 12 16 18 10"></polygon>
    </defs>
    <g id="Page-1" stroke="none" stroke-width="1" fill="none" fill-rule="evenodd">
        <g id="Desktop-HD" transform="translate(-658.000000, -2983.000000)">
            <g id="ic/expand_more" transform="translate(652.000000, 2975.000000)">
                <g id="ic_expand_more_24px">
                    <mask id="mask-2" fill="white">
                        <use xlink:href="#path-1"></use>
                    </mask>
                    <g id="Shape" fill-rule="nonzero"></g>
                    <g id="c/#000000/0.54" mask="url(#mask-2)" fill="#3686C4">
                        <rect id="Rectangle" x="0" y="0" width="24" height="24"></rect>
                    </g>
                </g>
            </g>
        </g>
    </g>
</svg>