<?xml version="1.0" encoding="UTF-8"?>
<svg width="545px" height="40px" viewBox="0 0 545 40" version="1.1" xmlns="http://www.w3.org/2000/svg" xmlns:xlink="http://www.w3.org/1999/xlink">
    <!-- Generator: Sketch 55.2 (78181) - https://sketchapp.com -->
    <title>story</title>
    <desc>Created with Sketch.</desc>
    <defs>
        <polygon id="path-1" points="0 39.6010213 544.581883 39.6010213 544.581883 0.000170212766 0 0.000170212766"></polygon>
    </defs>
    <g id="story" stroke="none" stroke-width="1" fill="none" fill-rule="evenodd">
        <g id="Group-17">
            <path d="M24.6204602,19.6068085 C25.7479289,19.8646809 26.8753977,20.1225532 28.003718,20.467234 C28.7079602,20.6817021 29.2716945,21.0689362 29.2716945,21.8 C29.2716945,22.7455319 28.6142883,23.4331915 27.5804914,23.4331915 C25.1373586,23.4331915 26.1711555,21.24 24.9959992,20.3370213 L24.3854289,19.8646809 L24.6204602,19.6068085 Z M20.8616633,17.4570213 L31.4806477,17.4570213 L31.4806477,15.7795745 L20.8616633,15.7795745 L20.8616633,17.4570213 Z M20.8616633,13.7591489 L31.4806477,13.7591489 L31.4806477,12.5114894 L20.8616633,12.5114894 L20.8616633,13.7591489 Z M20.8616633,10.6195745 L31.4806477,10.6195745 L31.4806477,9.07234043 L20.8616633,9.07234043 L20.8616633,10.6195745 Z M26.3116633,32.3770213 C27.7218508,31.4740426 28.8961555,30.6144681 30.0704602,29.4102128 L20.2979289,29.4102128 C22.0836555,30.6144681 24.1972336,31.6885106 26.3116633,32.3770213 L26.3116633,32.3770213 Z M23.6803352,20.5106383 C23.6803352,22.7029787 23.1642883,23.9497872 25.7947648,23.9497872 L27.6273273,23.9497872 C28.0973898,23.9497872 29.2716945,23.9497872 29.6480852,23.7353191 C30.8223898,23.132766 31.1987805,21.5412766 31.5743195,20.5106383 L32.3262492,20.5523404 C32.2794133,21.1123404 32.1380539,21.6706383 32.1380539,22.2289362 C32.1380539,23.5617021 34.0642883,23.7770213 34.0642883,24.2068085 C34.0642883,24.3795745 33.7824211,24.6808511 33.6419133,24.8085106 C33.2186867,25.1957447 32.7017883,25.5404255 32.091218,25.7557447 C31.151093,26.0561702 27.7218508,26.013617 26.4998586,26.013617 C24.9023273,26.013617 23.3047961,26.013617 21.7072648,25.8842553 C20.5797961,25.7974468 19.5928352,25.453617 19.5928352,24.293617 L19.5928352,20.5106383 L23.6803352,20.5106383 Z M17.7134367,20.5948936 C17.9953039,21.5838298 18.2771711,22.6161702 18.2771711,23.6485106 C18.2771711,24.8085106 17.2910617,25.9276596 16.0222336,25.9276596 C15.223468,25.9276596 13.860968,25.5829787 13.860968,24.7234043 C13.860968,23.6485106 15.4584992,23.1753191 16.2104289,22.4451064 C16.7264758,21.9285106 16.8678352,21.24 17.1028664,20.5523404 L17.7134367,20.5948936 Z M23.2111242,33.9676596 C21.3785617,32.6774468 20.2979289,31.7319149 18.8409055,30.0978723 C16.585968,31.9897872 14.0959992,33.0646809 11.3701477,34.3548936 L11.0882805,34.0110638 C13.7664445,31.5174468 15.5053352,29.7106383 16.6328039,26.2714894 L22.4123586,26.4 C22.1773273,26.7012766 21.8954602,27.0017021 21.613593,27.3038298 L31.2456164,27.3038298 L33.406882,25.6697872 L39.8906789,27.346383 C39.0450773,27.7761702 38.1994758,28.1634043 37.4007102,28.5940426 C37.3538742,28.6357447 35.8968508,29.9259574 35.6618195,30.1412766 C34.2056477,31.3446809 32.7486242,32.5489362 31.151093,33.6238298 C34.816218,34.1395745 38.481343,34.4408511 42.1933039,34.4408511 L42.2401398,34.9131915 C40.7831164,35.3438298 39.5151398,35.9021277 39.5151398,37.5361702 C39.5151398,38.0093617 39.6556477,38.4825532 39.797007,38.9131915 L39.5151398,39.213617 C35.1449211,38.5685106 30.728718,37.5795745 26.6880539,35.8595745 C21.2848898,37.7506383 16.7264758,38.2246809 10.9946086,38.6119149 L10.8532492,38.1378723 C15.5053352,37.106383 18.9354289,35.9455319 23.2111242,33.9676596 L23.2111242,33.9676596 Z M12.7334992,17.8008511 L12.874007,16.3387234 L13.4377414,16.2961702 C13.6727727,16.6825532 13.9078039,17.1123404 14.1428352,17.4570213 L14.5652102,17.4570213 L14.5652102,6.23489362 L20.2979289,6.23489362 C20.673468,5.71829787 21.0021711,5.20255319 21.2372023,4.64425532 L12.1689133,4.64425532 L12.1689133,3.86978723 C10.8532492,6.14893617 9.67894453,7.95489362 8.08141328,10.0178723 L10.2426789,10.0178723 L10.2426789,21.0689362 C11.135968,20.3370213 12.6389758,19.0042553 12.7334992,17.8008511 L12.7334992,17.8008511 Z M12.920843,2.14893617 L41.3945383,2.14893617 L41.3945383,4.64425532 L27.8623586,4.64425532 C26.641218,5.46042553 25.3723898,6.19148936 24.0567258,6.92255319 L31.104257,6.92255319 L33.0304914,5.15914894 L39.8906789,6.70723404 L37.7762492,8.3412766 L37.7762492,16.5540426 L38.7632102,15.9948936 L43.6026398,17.6723404 C42.8507102,18.0153191 42.0987805,18.3165957 41.3945383,18.6604255 C41.0658352,18.7897872 39.8906789,19.8221277 39.4683039,20.1225532 C38.434507,20.853617 37.2125148,21.412766 36.0850461,22.0144681 C38.5281789,22.1012766 40.9713117,23.0034043 40.9713117,24.8519149 C40.9713117,25.9276596 39.7024836,26.5293617 38.6695383,26.5293617 C36.7901398,26.5293617 36.6487805,25.3259574 36.4605852,23.9923404 C36.3669133,23.2612766 35.8500148,22.8740426 35.3331164,22.4017021 L34.2993195,22.96 L33.8769445,22.7455319 C34.4875148,21.627234 35.0512492,20.5523404 35.6149836,19.4348936 L15.1289445,19.4348936 C15.2703039,19.9931915 15.3639758,20.6382979 15.3639758,21.1974468 C15.3639758,22.5310638 13.4377414,23.6919149 12.0752414,23.6919149 C11.4178352,23.6919149 10.8064133,23.5617021 10.2426789,23.3480851 L10.2426789,38.8697872 L3.89938984,38.8697872 L3.89938984,13.4153191 C2.77192109,14.3182979 1.69128828,15.2638298 0.610655469,16.1668085 L8.515625e-05,15.7795745 C1.78581172,13.6306383 3.00695234,11.5234043 3.99391328,8.94297872 C4.46397578,7.73957447 4.93318672,6.4493617 5.21505391,5.15914894 C5.54460859,3.78297872 5.73195234,2.36510638 5.92014766,0.945531915 L13.3440695,1.03234043 C13.2972336,1.37617021 13.1090383,1.80595745 12.920843,2.14893617 L12.920843,2.14893617 Z" id="Fill-1" fill="#012547"></path>
            <path d="M84.8989078,39.2137021 C82.9726734,39.2137021 81.5633375,37.9234894 80.2476734,36.8051915 C79.0725172,35.8596596 77.8513766,34.9566809 76.6293844,34.0971064 C74.6094781,32.6775319 73.2461266,32.0758298 70.9443531,31.0868936 L71.2730562,30.6996596 C75.3605562,31.2588085 83.4427359,31.6885957 86.4496031,34.6988085 C86.9196656,35.2145532 87.8121031,36.5039149 87.8121031,37.1924255 C87.8121031,38.5685957 86.1677359,39.2137021 84.8989078,39.2137021 L84.8989078,39.2137021 Z M79.0725172,14.0596596 L79.0725172,9.20093617 L75.9719781,9.20093617 C75.8306187,9.67412766 75.6424234,10.104766 75.4073922,10.5771064 C74.6094781,12.1685957 70.61565,14.145617 68.9704312,14.9634894 L78.2269156,14.9634894 L79.4489078,14.0596596 L79.0725172,14.0596596 Z M58.775525,27.6468936 L78.368275,27.6468936 L78.368275,25.9702979 L58.775525,25.9702979 L58.775525,27.6468936 Z M58.775525,23.4332766 L78.368275,23.4332766 L78.368275,21.5413617 L58.775525,21.5413617 L58.775525,23.4332766 Z M58.775525,19.1337021 L78.368275,19.1337021 L78.368275,17.4996596 L58.775525,17.4996596 L58.775525,19.1337021 Z M59.620275,36.4188085 C56.2378687,38.1379574 51.4921109,39.0417872 47.6864781,39.5575319 L47.5919547,39.0843404 C52.0558453,36.8911489 55.0158766,35.1285957 58.257775,31.4741277 L66.5741344,32.0758298 C64.0373297,34.0971064 62.5811578,34.9132766 59.620275,36.4188085 L59.620275,36.4188085 Z M84.7107125,9.20093617 L84.7107125,14.0596596 L82.3144156,14.0596596 L86.7783062,14.8341277 L84.8989078,16.2528511 L84.8989078,31.3881702 L78.368275,31.3881702 L78.368275,30.3558298 L58.7746734,30.3558298 L58.7746734,30.8715745 L52.2440406,30.8715745 L52.2440406,14.7907234 C50.6933453,15.9090213 49.0958141,16.9839149 47.357775,17.8009362 L47.0282203,17.5864681 C47.4514469,16.9413617 47.8738219,16.2962553 48.2502125,15.6511489 C48.7671109,14.704766 49.14265,13.6298723 49.4245172,12.598383 C50.4114781,9.11582979 50.2701187,5.58987234 50.2701187,1.97795745 L56.2378687,1.97795745 L56.2378687,3.3532766 C60.0435016,2.45114894 61.0304625,2.06391489 64.5073922,0.472425532 L68.8767594,3.82646809 C64.4605562,4.60093617 60.7485953,4.81540426 56.2378687,4.85880851 L56.2378687,6.70731915 L68.5480562,6.70731915 L68.5480562,9.20093617 L64.8829312,9.20093617 L64.8829312,14.2315745 L59.2447359,14.2315745 L59.2447359,9.20093617 L56.2378687,9.20093617 C55.3445797,11.2213617 54.6871734,12.4690213 52.9482828,14.0596596 L58.7746734,14.0596596 L58.7746734,14.9634894 L67.1387203,14.9634894 C67.5610953,14.4460426 67.9843219,13.8877447 68.313025,13.3294468 C70.1924234,10.4051915 70.0042281,5.33114894 70.0042281,2.06391489 L75.9719781,2.06391489 L75.9719781,3.22476596 C77.9918844,2.57965957 80.7168844,1.80604255 82.5494469,0.817106383 L83.9587828,0.0434893617 L88.8927359,3.43923404 C84.7575484,4.30051064 80.1999859,4.51497872 75.9719781,4.55753191 L75.9719781,6.6213617 L88.8927359,6.6213617 L88.8927359,9.20093617 L84.7107125,9.20093617 Z" id="Fill-3" fill="#012547"></path>
            <path d="M127.040777,18.4457872 C127.040777,18.7470638 127.228973,19.1768511 127.651348,19.1768511 C128.027738,19.1768511 128.496949,18.9189787 128.87334,18.7470638 L128.87334,12.5113191 L127.040777,12.5113191 L127.040777,18.4457872 Z M122.201348,9.80408511 L122.201348,4.9453617 L120.697488,4.9453617 L120.650652,9.80408511 L122.201348,9.80408511 Z M113.884988,33.1938723 L128.87334,33.1938723 L128.87334,28.5504681 L113.884988,28.5504681 L113.884988,33.1938723 Z M115.858059,14.3606809 L115.858059,12.5113191 L113.884988,12.5113191 L113.884988,22.7462128 C115.34116,19.736 115.858059,17.628766 115.858059,14.3606809 L115.858059,14.3606809 Z M125.678277,23.0466383 C123.705207,23.0466383 122.201348,22.8313191 122.201348,20.6815319 L122.201348,12.5113191 L120.603816,12.5113191 C120.275113,19.0474894 119.945559,20.3377021 113.884988,23.9930213 L113.884988,25.8406809 L128.87334,25.8406809 L128.87334,22.4874894 C127.839543,22.9172766 126.805746,23.0466383 125.678277,23.0466383 L125.678277,23.0466383 Z M106.507902,2.23557447 L137.096027,2.23557447 L137.096027,4.9453617 L127.040777,4.9453617 L127.040777,9.80408511 L128.638309,9.80408511 L130.611379,8.17004255 L137.42473,9.50280851 L135.310301,11.1794043 L135.310301,39.1708936 L128.87334,39.1708936 L128.87334,35.9453617 L113.884988,35.9453617 L113.884988,38.9981277 L107.353504,38.9981277 L107.353504,8.64153191 L113.884988,8.64153191 L113.884988,9.80408511 L115.858059,9.80408511 L115.952582,4.9453617 L106.507902,4.9453617 L106.507902,2.23557447 Z M96.782207,1.89174468 C100.352809,2.23557447 106.085527,3.61174468 106.461066,6.32068085 C106.836605,8.77174468 104.393473,9.88919149 102.608598,9.11557447 C101.151574,8.51387234 100.634676,7.56748936 99.6954023,5.67557447 C98.9903086,4.21344681 97.8628398,3.18110638 96.5003398,2.19217021 L96.782207,1.89174468 Z M96.0302773,12.1683404 C98.3329023,12.5547234 103.971098,13.6304681 105.145402,15.5649362 C106.319707,17.5428085 104.863535,20.0798298 102.232207,19.6066383 C99.1785039,19.0474894 99.2253398,16.2534468 97.7683164,14.4040851 C97.204582,13.6738723 96.4058164,13.0713191 95.6547383,12.5113191 L96.0302773,12.1683404 Z M104.67534,21.2398298 L105.239074,21.4125957 C105.098566,28.4636596 103.876574,33.4525957 99.507207,39.3428085 L95.419707,33.1938723 C99.554043,29.6679149 102.185371,25.7981277 104.67534,21.2398298 L104.67534,21.2398298 Z" id="Fill-5" fill="#012547"></path>
            <mask id="mask-2" fill="white">
                <use xlink:href="#path-1"></use>
            </mask>
            <g id="Clip-8"></g>
            <path d="M171.578773,26.5720851 L176.70007,26.5720851 L176.70007,23.1320851 L171.578773,23.1320851 L171.578773,26.5720851 Z M171.578773,20.424 L176.70007,20.424 L176.70007,17.1993191 L171.578773,17.1993191 L171.578773,20.424 Z M171.578773,14.4461277 L176.70007,14.4461277 L176.70007,11.6954894 L171.578773,11.6954894 L171.578773,14.4461277 Z M165.000453,15.8231489 L165.564188,16.5108085 L165.564188,8.08357447 L170.403617,8.08357447 C171.061875,6.9227234 171.25007,6.06229787 171.48425,4.81548936 L165.893742,4.81548936 C163.544281,6.7933617 161.383016,7.78229787 158.563492,8.98570213 L164.67175,8.98570213 L164.67175,11.6954894 L158.563492,11.6954894 L158.563492,12.6844255 C160.161023,13.2001702 164.014344,14.6188936 165.000453,15.8231489 L165.000453,15.8231489 Z M145.314031,2.23591489 C147.287102,2.83761702 152.549758,4.21378723 152.549758,6.74995745 C152.549758,7.95421277 151.515961,8.59931915 150.293969,8.59931915 C147.240266,8.59931915 147.944508,5.76102128 146.253305,3.95591489 L144.984477,2.57974468 L145.314031,2.23591489 Z M144.32707,27.0878298 L144.32707,24.3363404 L150.857703,24.3363404 C150.904539,23.3908085 150.952227,22.4452766 150.999062,21.5414468 L156.919125,21.584 C156.777766,22.530383 156.73093,23.4333617 156.590422,24.3363404 L163.215578,24.3363404 L163.215578,27.0878298 L155.979,27.0878298 L155.791656,27.5184681 C158.46982,28.7652766 163.637953,31.3014468 163.637953,34.4835745 C163.637953,35.9022979 162.369125,36.676766 160.959789,36.676766 C157.389187,36.676766 157.999758,32.1193191 156.637258,30.2265532 L155.36843,28.5074043 C154.946055,29.2384681 154.522828,29.9261277 154.052766,30.6563404 C153.348523,31.7320851 152.032859,32.9354894 150.999062,33.7959149 C148.978305,35.5150638 145.501375,36.9780426 142.96457,37.9669787 L142.635867,37.5797447 C145.125836,35.730383 146.394664,34.5695319 148.085867,32.0759149 C148.696438,31.1737872 149.354695,30.1848511 149.730234,29.1525106 L150.482164,27.0878298 L144.32707,27.0878298 Z M152.925297,12.8554894 L152.925297,11.6954894 L144.843969,11.6954894 L144.843969,8.98570213 L152.925297,8.98570213 L152.925297,0.989106383 L158.563492,0.989106383 L158.563492,7.56697872 C159.83232,5.93378723 160.819281,4.42825532 161.711719,2.57974468 L165.893742,3.26825532 L165.893742,2.064 L183.842125,2.064 L183.842125,4.81548936 L177.310641,4.81548936 C176.371367,5.93378723 174.679312,7.86910638 173.316812,8.51421277 L172.330703,8.98570213 L176.606398,8.98570213 L178.344437,7.0946383 L184.734562,8.6852766 L182.666969,10.3627234 L182.666969,30.4852766 L177.310641,30.4852766 C179.284562,31.6027234 181.398992,32.7210213 182.666969,34.6129362 C183.137031,35.3005957 183.51257,36.117617 183.51257,36.9346383 C183.51257,38.3533617 182.338266,39.4282553 180.740734,39.4282553 C177.545672,39.4282553 177.639344,36.8052766 177.310641,34.6129362 C177.028773,32.5491064 176.793742,32.0759149 175.666273,30.2699574 L176.324531,29.9695319 L176.70007,30.2265532 L176.70007,29.2810213 L171.578773,29.2810213 L171.578773,29.9695319 L175.149375,30.0980426 C173.928234,31.904 172.377539,33.5380426 170.780008,35.0435745 C168.430547,37.1925106 165.000453,38.6120851 161.899914,39.557617 L161.476687,39.2137872 C163.215578,37.9235745 164.953617,36.4188936 166.081086,34.6988936 C166.692508,33.7959149 167.39675,32.8078298 167.773141,31.8180426 L168.383711,30.2265532 L165.564188,30.2265532 L165.564188,18.8759149 C165.000453,19.3048511 164.343047,19.6495319 163.637953,19.6495319 C161.101148,19.6495319 160.866117,16.9414468 159.597289,15.5652766 L158.563492,14.4461277 L158.563492,19.8648511 C160.161023,20.2937872 162.792352,20.8537872 162.792352,22.7457021 C162.792352,23.8205957 161.664883,24.250383 160.677922,24.250383 C157.999758,24.250383 158.704852,22.1865532 157.952922,21.3261277 L157.154156,20.424 L152.925297,20.424 L152.925297,14.1891064 C152.50207,14.7482553 152.079695,15.3074043 151.656469,15.8657021 C150.904539,16.8120851 149.91843,17.5865532 148.978305,18.2733617 C147.240266,19.6069787 144.562102,20.7244255 142.494508,21.4980426 L142.071281,21.0691064 C144.280234,19.2631489 146.300141,17.1125106 147.240266,14.4461277 L147.804,12.8554894 L152.925297,12.8554894 Z" id="Fill-7" fill="#012547" mask="url(#mask-2)"></path>
            <path d="M230.118586,35.6449362 C229.272984,35.6449362 228.567891,35.2142979 228.004156,34.6125957 C227.393586,33.9674894 227.487258,32.8925957 227.487258,32.0764255 C227.487258,29.9257872 226.876687,27.0874894 225.796055,25.1104681 L225.090961,23.8202553 L225.467352,23.3479149 C228.192352,24.8517447 230.447289,26.228766 231.762953,28.3777021 C232.18618,29.108766 233.078617,31.3445106 233.172289,32.9785532 C233.266812,34.7419574 231.951148,35.6449362 230.118586,35.6449362 L230.118586,35.6449362 Z M220.862102,28.8942979 C220.204695,28.8942979 219.359094,28.7215319 219.124062,28.0764255 C218.889031,27.388766 218.935867,26.616 218.935867,25.8840851 C218.889031,24.5079149 218.607164,22.228766 217.855234,21.068766 L217.103305,19.9079149 L217.761562,19.6066383 C219.170898,20.8534468 221.473523,22.0577021 222.412797,23.6057872 C222.976531,24.4653617 223.587953,25.7121702 223.728461,26.7011064 C223.916656,28.3777021 222.177766,28.8942979 220.862102,28.8942979 L220.862102,28.8942979 Z M225.607859,36.6338723 C223.587953,38.7836596 221.191656,38.869617 218.278461,38.869617 C215.975836,38.869617 212.45207,38.5257872 212.45207,35.7734468 L212.45207,22.3155745 L217.479695,22.3155745 L217.479695,34.0542979 C217.479695,35.043234 217.667039,35.3436596 218.795359,35.3436596 C219.734633,35.3436596 220.62707,35.2577021 221.191656,34.4406809 C222.272289,32.9351489 222.976531,30.2704681 223.540266,28.5504681 L224.339031,28.6789787 C224.339031,29.9691915 224.151687,30.0551489 224.151687,30.9572766 C224.151687,31.9036596 224.151687,33.322383 225.090961,34.0108936 C225.607859,34.3981277 226.312953,34.7419574 226.312953,35.429617 C226.312953,35.8594043 225.889727,36.3334468 225.607859,36.6338723 L225.607859,36.6338723 Z M208.786945,36.1181277 C207.847672,36.1181277 207.142578,35.7308936 206.532008,34.9998298 C206.343812,34.7419574 206.578844,33.1938723 207.00207,32.4636596 C207.518117,31.5172766 207.847672,30.5708936 208.270047,29.5819574 C209.115648,27.5615319 209.773906,25.4968511 209.820742,23.176 L210.384477,23.176 C210.995047,25.6270638 211.653305,28.7215319 211.653305,31.1734468 C211.653305,33.5377021 211.935172,36.1181277 208.786945,36.1181277 L208.786945,36.1181277 Z M229.554852,4.25685106 L229.554852,17.8006809 C229.554852,19.0040851 229.084789,19.9504681 227.815961,20.4236596 C226.312953,21.0253617 223.963492,21.5845106 222.319125,21.5845106 C219.499602,21.5845106 221.567195,20.123234 219.687797,18.9189787 C218.982703,18.4457872 217.479695,17.9300426 216.586406,17.7147234 L216.68093,17.4134468 C218.513492,17.2849362 219.359094,17.3700426 221.191656,17.3700426 C222.694664,17.3700426 223.728461,17.069617 223.728461,15.5215319 L223.728461,5.71812766 L221.097133,5.71812766 C220.674758,8.77174468 220.439727,10.7930213 219.170898,13.7589787 C218.325297,15.8228085 216.304539,17.242383 214.237797,18.2738723 C211.8415,19.5215319 209.35068,20.5947234 206.719352,21.4985532 L206.390648,21.1121702 C209.210172,19.1768511 211.8415,17.3700426 213.344508,14.3606809 C215.036562,10.9206809 215.130234,9.45940426 215.412102,5.71812766 L207.659477,5.71812766 L207.659477,2.96748936 L223.306086,2.96748936 L225.325992,1.03217021 L231.622445,2.45089362 L229.554852,4.25685106 Z M210.619508,15.2645106 C209.867578,15.6517447 209.210172,15.9947234 208.36457,15.9947234 C207.565805,15.9947234 206.108781,15.1777021 206.108781,14.2321702 C206.108781,12.7274894 208.551914,12.5981277 209.72707,10.5768511 C210.384477,9.45940426 210.572672,8.17004255 210.807703,6.92238298 L211.606469,6.92238298 C211.982008,8.29770213 212.217039,9.63131915 212.217039,11.0934468 C212.217039,12.6415319 212.123367,14.4040851 210.619508,15.2645106 L210.619508,15.2645106 Z M198.262484,33.709617 L200.940648,33.709617 L200.940648,26.7011064 L198.262484,26.7011064 L198.262484,33.709617 Z M205.826914,25.282383 L205.826914,38.5257872 L200.940648,38.5257872 L200.940648,36.3751489 L198.262484,36.3751489 L198.262484,38.869617 L192.999828,38.869617 L192.999828,23.3479149 L198.262484,23.3479149 L198.262484,23.9930213 L200.752453,23.9930213 L202.39682,22.4874894 L207.377609,23.9062128 L205.826914,25.282383 Z M192.906156,14.6619574 L205.357703,14.6619574 L205.357703,11.909617 L192.906156,11.909617 L192.906156,14.6619574 Z M192.811633,20.2934468 L205.826914,20.2934468 L205.826914,17.5428085 L192.811633,17.5428085 L192.811633,20.2934468 Z M191.449133,8.94280851 L191.449133,6.19217021 L198.215648,6.19217021 C197.886094,5.97685106 197.557391,5.76153191 197.369195,5.46025532 C196.711789,4.64408511 197.087328,2.88068085 195.866187,2.02110638 L195.067422,1.46195745 L195.020586,0.902808511 C197.369195,-0.000170212766 202.866883,1.29004255 203.14875,3.31131915 C203.195586,3.69770213 203.14875,3.69770213 203.14875,4.08408511 C203.14875,4.64408511 202.773211,5.59046809 202.114953,6.19217021 L206.813875,6.19217021 L206.813875,8.94280851 L191.449133,8.94280851 Z" id="Fill-9" fill="#012547" mask="url(#mask-2)"></path>
            <path d="M262.252297,25.4537872 L269.629383,25.4537872 L269.629383,22.6597447 L262.252297,22.6597447 L262.252297,25.4537872 Z M259.057234,30.0546383 C260.372898,30.2699574 264.601758,30.4852766 264.930461,32.0325106 C265.024984,32.4631489 265.07182,32.8920851 265.07182,33.3227234 C265.07182,34.6554894 263.944352,35.2571915 262.628688,35.2571915 C261.594891,35.2571915 260.514258,35.0001702 259.997359,34.0971915 C259.668656,33.5380426 259.762328,32.8495319 259.762328,32.2469787 C259.762328,30.957617 259.715492,31.130383 258.728531,30.3125106 L259.057234,30.0546383 Z M255.956695,19.1337872 L262.252297,19.1337872 L262.252297,19.9933617 L269.112484,19.9933617 L271.320586,18.0588936 L277.804383,19.5635745 L276.207703,21.1116596 L276.207703,29.6248511 L269.629383,29.6248511 L269.629383,28.1635745 L262.252297,28.1635745 L262.252297,29.5397447 L255.956695,29.5397447 L255.956695,19.1337872 Z M267.93818,35.3874043 C268.689258,33.5380426 269.252992,31.6452766 269.676219,29.7108085 L275.455773,30.571234 C274.562484,31.6027234 272.918117,33.5380426 271.790648,34.3116596 L270.239953,35.3874043 L277.47568,35.3874043 L277.47568,38.0946383 L255.298438,38.0946383 L255.298438,35.3874043 L267.93818,35.3874043 Z M245.385398,33.1082553 L248.956,33.1082553 L248.956,25.8410213 L245.385398,25.8410213 L245.385398,33.1082553 Z M239.699516,14.3184681 L252.761633,14.3184681 L252.761633,11.6086809 L239.699516,11.6086809 L239.699516,14.3184681 Z M245.384547,22.2291064 L245.384547,23.2614468 L248.814641,23.2614468 L250.647203,21.3695319 L255.862172,22.7882553 L254.312328,24.3797447 L254.312328,37.1925106 L248.956,37.1925106 L248.956,35.730383 L245.384547,35.730383 L245.384547,37.7082553 L239.605844,37.7082553 L239.605844,22.2291064 L245.384547,22.2291064 Z M253.090336,17.1125106 C254.922898,15.264 256.567266,13.3295319 257.88293,11.1363404 L257.647898,11.1363404 C255.909859,11.1363404 255.7685,10.5346383 255.486633,9.11591489 C255.298438,8.16953191 254.781539,7.26655319 254.217805,6.49293617 L254.406,6.19165957 C255.204766,6.3627234 258.117961,6.9227234 258.588023,7.43846809 L259.24543,8.21208511 C259.668656,7.00782979 259.997359,5.84782979 260.232391,4.60102128 L254.312328,4.60102128 L254.312328,1.9346383 L260.936633,1.9346383 L262.769195,0.000170212766 L268.783781,1.67676596 L266.951219,2.96697872 L267.703148,4.77208511 C269.817578,3.5252766 271.602453,2.10655319 273.38818,0.515914894 L278.509477,3.09548936 C275.267578,4.42825532 271.743812,5.2027234 268.220047,5.80442553 C268.830617,6.74995745 269.394352,7.5252766 270.146281,8.34144681 C271.837484,7.39506383 273.341344,6.27761702 274.938875,5.2027234 L279.120047,7.5252766 C276.583242,8.55591489 273.99875,9.07251064 271.27375,9.54570213 C274.233781,11.9533617 275.878148,12.770383 279.684633,13.7159149 L279.684633,14.1457021 C278.368969,14.5329362 277.757547,14.7482553 277.006469,15.8657021 C276.771438,16.210383 276.536406,16.6401702 276.536406,17.0691064 C276.536406,17.6291064 276.771438,18.2733617 276.911945,18.8333617 L276.48957,19.0044255 C274.515648,17.8444255 272.589414,16.597617 270.803687,15.1346383 C267.749984,12.5550638 266.716188,9.41634043 265.635555,5.84782979 C263.991187,9.93208511 262.910555,11.3942128 259.574133,14.4895319 L270.286789,14.4895319 L270.286789,17.1993191 L258.869891,17.1993191 L258.869891,15.0486809 C257.131,16.3388936 255.15793,17.4137872 253.090336,18.1882553 L253.090336,19.7788936 L239.605844,19.7788936 L239.605844,17.1125106 L253.090336,17.1125106 Z M245.995117,6.19165957 C244.585781,5.33123404 244.727141,4.90229787 244.210242,3.31080851 C243.833852,2.23591489 243.458313,2.02144681 242.612711,1.16102128 L242.800906,0.902297872 C244.538945,0.859744681 246.982078,0.0861276596 248.579609,0.859744681 C249.895273,1.504 250.882234,3.09548936 250.882234,3.99931915 C250.882234,5.28953191 250.083469,5.67591489 249.049672,6.19165957 L253.889102,6.19165957 L253.889102,8.90059574 L238.242492,8.90059574 L238.242492,6.19165957 L245.995117,6.19165957 Z" id="Fill-10" fill="#012547" mask="url(#mask-2)"></path>
            <path d="M323.70556,37.8373617 C320.886037,37.8373617 320.933724,35.9454468 320.416826,33.8390638 C320.040435,32.2475745 318.959802,30.8297021 317.785498,29.5820426 L318.207873,29.3241702 C320.181795,30.0118298 323.70556,31.3011915 325.114896,32.720766 C325.81999,33.4092766 326.759263,34.440766 326.759263,35.4297021 C326.759263,36.8918298 325.20942,37.8373617 323.70556,37.8373617 L323.70556,37.8373617 Z M317.690974,15.3071489 L319.711732,15.3071489 L319.711732,11.0935319 L317.690974,11.0935319 L317.690974,15.3071489 Z M311.348537,15.3071489 L313.509802,15.3071489 L313.509802,11.0935319 L311.348537,11.0935319 L311.348537,15.3071489 Z M311.348537,8.38374468 L313.509802,8.38374468 L313.509802,4.98714894 L311.348537,4.98714894 L311.348537,8.38374468 Z M305.09892,15.3071489 L306.978318,15.3071489 L306.978318,11.0935319 L305.09892,11.0935319 L305.09892,15.3071489 Z M300.964584,23.0475745 L323.376857,23.0475745 L323.376857,20.3377872 L300.964584,20.3377872 L300.964584,23.0475745 Z M315.76474,27.7326809 L315.76474,35.0858723 C315.76474,37.1062979 315.436037,38.5258723 312.992904,38.8262979 C311.912271,38.9556596 310.831638,39.041617 309.797841,39.041617 C307.307873,39.041617 308.717209,38.2245957 307.824771,36.8918298 C307.307873,36.0748085 305.052084,35.6884255 304.11281,35.4731064 L304.206482,34.9565106 C305.240279,34.9999149 306.274076,35.0433191 307.307873,35.1709787 C307.58974,35.214383 307.918443,35.214383 308.20031,35.214383 C309.187271,35.214383 309.751005,34.9131064 309.751005,33.9241702 L309.751005,27.7326809 L298.89699,27.7326809 L298.89699,25.0245957 L327.088818,25.0245957 L327.088818,27.7326809 L315.76474,27.7326809 Z M297.769521,38.0526809 L297.299459,37.7088511 C300.25949,34.9131064 301.01142,32.935234 302.138888,29.280766 L308.575849,29.4960851 C305.992209,34.2254468 302.843982,35.9888511 297.769521,38.0526809 L297.769521,38.0526809 Z M325.256255,9.8892766 L325.256255,18.9190638 L319.711732,18.9190638 L319.711732,18.015234 L305.09892,18.015234 L305.09892,18.9190638 L301.481482,18.9190638 C300.964584,19.7786383 300.494521,20.0799149 299.413888,20.0799149 C297.158951,20.0799149 297.393982,18.6603404 297.158951,17.0271489 C297.064427,16.1667234 296.877084,15.7360851 296.500693,14.9633191 L296.500693,39.3428936 L290.486959,39.3428936 L290.486959,23.9497021 C289.124459,26.0986383 287.714271,27.9488511 285.741201,29.6671489 L285.13063,29.5394894 C285.50617,28.6356596 285.834873,27.7326809 286.211263,26.8297021 C287.385568,23.8203404 287.996138,17.6722553 287.996138,14.360766 C287.996138,13.3292766 287.949302,12.2535319 287.949302,11.2220426 L290.486959,11.2220426 L290.486959,8.94289362 L285.881709,8.94289362 L285.881709,6.23480851 L290.486959,6.23480851 L290.486959,0.859489362 L296.500693,0.859489362 L296.500693,6.23480851 L299.602084,6.23480851 L299.602084,8.94289362 L296.500693,8.94289362 L296.500693,13.1139574 C297.675849,13.8450213 298.850154,14.5760851 299.883951,15.521617 L299.883951,7.39480851 L305.09892,7.39480851 L305.09892,8.38459574 L306.978318,8.38459574 L306.978318,4.98714894 L299.225693,4.98714894 L299.225693,2.27906383 L326.759263,2.27906383 L326.759263,4.98714894 L317.691826,4.98714894 L317.691826,8.38459574 L319.523537,8.38459574 L321.121068,6.79310638 L327.229326,8.25523404 L325.256255,9.8892766 Z" id="Fill-11" fill="#012547" mask="url(#mask-2)"></path>
            <path d="M372.002694,34.7846809 C369.700069,34.7846809 369.371366,32.8502128 369.371366,31.2161702 C369.371366,29.0655319 368.760795,26.1855319 367.680163,24.2502128 L366.975069,22.96 L367.351459,22.4876596 C370.076459,23.9923404 372.378233,25.3685106 373.647061,27.5182979 C374.117123,28.2493617 374.962725,30.4851064 375.056397,32.1191489 C375.15092,33.8808511 373.835256,34.7846809 372.002694,34.7846809 L372.002694,34.7846809 Z M363.216272,28.8944681 C361.00817,28.8944681 361.336873,27.3889362 361.290038,25.8842553 C361.243202,24.5080851 360.961334,22.2289362 360.209405,21.0689362 L359.457475,19.9080851 L360.3976,19.8221277 C361.806936,21.0689362 363.826842,22.0578723 364.766967,23.6051064 C365.330702,24.4655319 365.941272,25.7123404 366.082631,26.7012766 C366.270827,28.3778723 364.531936,28.8944681 363.216272,28.8944681 L363.216272,28.8944681 Z M368.901303,36.6340426 C366.881397,38.7829787 363.544975,38.8697872 360.63178,38.8697872 C358.330006,38.8697872 354.806241,38.5259574 354.806241,35.773617 L354.806241,22.3157447 L359.833014,22.3157447 L359.833014,34.0544681 C359.833014,35.0434043 360.021209,35.3438298 361.148678,35.3438298 C362.088803,35.3438298 363.921366,35.2578723 364.4851,34.4408511 C365.565733,32.9353191 366.270827,30.2697872 366.834561,28.5506383 L367.633327,28.6791489 C367.633327,29.9693617 367.445131,30.0544681 367.445131,30.9574468 C367.445131,31.9038298 367.445131,33.3225532 368.384405,34.0110638 C368.901303,34.3982979 369.606397,34.7421277 369.606397,35.4297872 C369.606397,35.8595745 369.18317,36.332766 368.901303,36.6340426 L368.901303,36.6340426 Z M351.141116,36.1174468 C348.603459,36.1174468 348.416116,34.1829787 349.355389,32.4629787 C349.872288,31.5174468 350.200991,30.5710638 350.624217,29.5821277 C351.469819,27.5617021 352.128077,25.4970213 352.174913,23.1753191 L352.738647,23.1753191 C353.349217,25.626383 354.007475,28.7217021 354.007475,31.173617 C354.007475,33.5378723 354.289342,36.1174468 351.141116,36.1174468 L351.141116,36.1174468 Z M348.791655,19.5208511 L348.791655,16.8119149 L357.766272,16.8119149 L357.766272,10.0612766 L350.060483,10.0612766 L350.060483,7.35234043 L357.766272,7.35234043 L357.766272,1.07574468 L363.73317,1.07574468 L363.73317,7.35234043 L371.579467,7.35234043 L371.579467,10.0612766 L363.73317,10.0612766 L363.73317,16.8119149 L373.647061,16.8119149 L373.647061,19.5208511 L348.791655,19.5208511 Z M340.616655,33.7097872 L343.294819,33.7097872 L343.294819,26.7012766 L340.616655,26.7012766 L340.616655,33.7097872 Z M348.181084,25.2825532 L348.181084,38.7395745 L343.294819,38.7395745 L343.294819,36.3753191 L340.616655,36.3753191 L340.616655,38.8697872 L335.353998,38.8697872 L335.353998,23.3480851 L340.616655,23.3480851 L340.616655,23.9923404 L343.106623,23.9923404 L344.750991,22.4876596 L349.73178,23.906383 L348.181084,25.2825532 Z M335.260327,14.6621277 L347.711873,14.6621277 L347.711873,11.9097872 L335.260327,11.9097872 L335.260327,14.6621277 Z M335.165803,20.293617 L348.181084,20.293617 L348.181084,17.5429787 L335.165803,17.5429787 L335.165803,20.293617 Z M333.803303,8.94297872 L333.803303,6.19148936 L340.568967,6.19148936 C340.240264,5.97617021 339.911561,5.76085106 339.723366,5.46042553 C339.065959,4.64425532 339.253303,3.48255319 338.032163,2.62297872 L337.233397,2.06382979 L337.186561,1.50468085 C339.536022,0.601702128 345.221053,1.29021277 345.50292,3.31148936 C345.643428,4.34212766 345.267889,5.46042553 344.469123,6.19148936 L349.168045,6.19148936 L349.168045,8.94297872 L333.803303,8.94297872 Z" id="Fill-12" fill="#012547" mask="url(#mask-2)"></path>
            <path d="M413.580403,32.5914043 L413.533567,7.86885106 L409.680247,7.86885106 L409.680247,32.5914043 L413.580403,32.5914043 Z M403.19645,3.35395745 L409.680247,3.35395745 L409.680247,4.94544681 L413.345372,4.94544681 L415.22477,3.1386383 L421.943598,4.428 L419.876856,6.14885106 L419.923692,37.8373617 L413.580403,37.8373617 L413.580403,35.601617 L409.680247,35.5582128 L409.680247,37.8373617 L403.243286,37.8373617 L403.19645,3.35395745 Z M401.83395,7.86885106 L396.195755,7.86885106 L396.195755,15.9522553 L402.115817,15.9522553 L402.115817,18.8765106 L395.960723,18.8765106 C395.63202,21.4126809 395.350153,23.9062979 394.504552,26.3573617 C397.041356,27.9054468 402.115817,29.6254468 401.975309,34.2688511 C401.927622,36.6773617 399.10895,38.268 396.947684,36.935234 C395.443825,36.0322553 395.25563,31.9462979 394.833255,30.3556596 C394.598223,29.5394894 394.222684,28.9803404 393.752622,28.2492766 C392.953856,29.5394894 392.108255,30.7862979 391.214966,31.9897021 C389.241895,34.6560851 384.120598,37.9667234 380.972372,39.600766 L380.502309,39.2994894 C381.207403,38.6118298 381.912497,37.8373617 382.569903,37.1062979 C384.590661,34.8705532 387.409333,29.6671489 388.019903,26.8297021 C388.583638,24.2501277 389.0537,21.5420426 389.100536,18.8765106 L380.220442,18.8765106 L380.220442,15.9522553 L389.335567,15.9522553 L389.382403,7.86885106 L388.30177,7.86885106 C385.953161,11.0501277 384.402466,12.5114043 381.066044,14.7905532 L380.502309,14.5760851 C383.039966,10.3624681 383.321833,5.46034043 383.838731,0.773531915 L391.16813,0.773531915 C390.698067,2.14885106 390.228856,3.56842553 389.852466,4.94544681 L401.83395,4.94544681 L401.83395,7.86885106 Z" id="Fill-13" fill="#012547" mask="url(#mask-2)"></path>
            <path d="M451.869463,6.62144681 L441.48551,6.62144681 C440.358041,7.5252766 439.183737,8.34144681 438.00858,9.15846809 C438.76051,9.11591489 439.51244,9.11591489 440.26437,9.11591489 C441.109971,9.11591489 441.908737,9.11591489 442.707502,9.20102128 C444.305034,9.37293617 445.479338,9.71761702 445.479338,11.3942128 C447.828799,10.0614468 449.990065,8.42740426 451.869463,6.62144681 M446.466299,15.2205957 L456.755729,15.2205957 C455.863291,16.2529362 454.87633,17.1993191 453.842534,18.1448511 L459.763448,18.1448511 L461.689682,16.210383 L469.489143,17.5431489 L466.857815,19.4350638 C466.105885,21.4980426 465.119776,23.4333617 464.085979,25.411234 C462.770315,27.8188936 460.84408,29.7108085 458.447784,31.2154894 C452.621393,34.8699574 445.808041,37.4929362 438.807346,38.3533617 C435.518612,38.7831489 432.229877,39.1269787 428.940291,39.3422979 L428.940291,38.9559149 C431.759815,38.2682553 434.625323,37.5363404 437.351174,36.5908085 C442.660666,34.6988936 448.909432,32.290383 452.809588,28.464 C455.393229,25.970383 456.708893,24.1210213 458.35326,21.0257021 L449.755034,21.0257021 C446.419463,23.1320851 443.741299,24.3363404 439.887979,25.5397447 C442.425635,25.7550638 445.479338,26.0988936 447.640604,27.4316596 C448.533893,27.9908085 449.42633,28.6793191 449.42633,29.796766 C449.42633,31.3014468 447.828799,32.1627234 446.32494,32.1627234 C444.35187,32.1627234 443.788135,31.2588936 442.84801,29.8835745 C442.331112,29.1950638 441.814213,28.5074043 441.203643,27.9057021 C440.451713,27.131234 439.465604,26.5295319 438.525479,25.9278298 C435.236745,26.916766 431.853487,27.6469787 428.423393,28.2495319 L428.282885,27.9491064 C435.565448,24.3363404 441.438674,21.584 446.466299,15.2205957 M444.305034,3.91251064 L454.406268,3.91251064 L456.802565,1.59080851 L465.824018,3.31080851 C464.978416,3.95591489 464.085979,4.55761702 463.19269,5.15931915 C461.971549,6.06229787 460.749557,7.26655319 459.622088,8.25548936 C457.883198,9.76017021 455.956963,11.0069787 453.937057,12.1252766 C449.473166,14.5763404 443.928643,16.0801702 438.901018,17.2418723 C435.65912,18.0154894 432.276713,18.4886809 428.940291,18.8759149 L428.799784,18.4886809 C433.215987,17.0691064 437.586205,15.4784681 441.720541,13.4580426 C441.48551,13.4146383 441.203643,13.4146383 440.968612,13.3295319 C440.404877,13.156766 438.76051,11.8665532 438.00858,11.4801702 C437.256651,11.0937872 436.411049,10.7925106 435.612284,10.491234 C433.262823,11.6086809 430.81969,12.597617 428.376557,13.5005957 L428.047854,13.2427234 C428.84662,12.4691064 429.739057,11.7388936 430.490987,10.9210213 C433.262823,7.99676596 435.424088,4.47165957 436.78744,0.817191489 L446.748166,0.817191489 C445.996237,1.89123404 445.150635,2.92357447 444.305034,3.91251064" id="Fill-14" fill="#012547" mask="url(#mask-2)"></path>
            <path d="M490.017675,26.9597447 C486.540745,26.9597447 488.420144,25.7120851 486.916284,23.8627234 C486.305714,23.1325106 483.205175,22.6159149 482.26505,22.4448511 L482.406409,21.8005957 C484.943214,21.9716596 487.48087,22.1435745 490.017675,22.1435745 C491.427011,22.1435745 492.789511,22.0142128 492.789511,20.3810213 L492.789511,0.601446809 L499.649698,0.601446809 C499.649698,7.91123404 499.74337,14.404 499.74337,21.4984681 C499.74337,22.4022979 499.791058,23.8210213 499.367831,24.8091064 C498.662738,26.5725106 492.132105,26.9597447 490.017675,26.9597447 M489.125238,10.2754894 C487.10448,15.6082553 481.559956,21.4125106 476.955558,25.0669787 L476.391823,24.8091064 C478.976316,20.510383 480.385652,15.7793191 481.278089,10.964 C481.65448,9.02953191 481.748152,7.13761702 481.841823,5.15974468 L490.581409,6.14868085 C490.111347,7.52485106 489.642136,8.90017021 489.125238,10.2754894 M514.684886,16.0380426 C514.262511,16.124 513.792448,16.2099574 513.369222,16.296766 C512.148081,20.0363404 511.30248,22.5308085 509.046691,25.884 C506.69723,29.3665532 502.469222,32.5486809 498.38087,34.2252766 C491.333339,37.0635745 483.815745,38.9129362 476.06312,39.256766 L475.968597,38.7401702 C484.614511,36.8482553 494.246534,33.537617 500.401628,27.4746383 C501.764128,26.1852766 502.938433,24.6805957 503.502167,22.9605957 C504.442292,20.2516596 504.959191,17.6286809 505.194222,14.8337872 L510.127323,15.0916596 C506.791753,12.7274043 506.086659,8.98612766 502.844761,5.11634043 L503.2203,4.68655319 C506.086659,5.50357447 508.999855,6.44910638 511.678019,7.61080851 C513.557417,8.38442553 516.705644,9.97506383 516.893839,12.1682553 C516.987511,13.6737872 516.61112,15.6082553 514.684886,16.0380426" id="Fill-15" fill="#012547" mask="url(#mask-2)"></path>
            <path d="M537.738471,25.9499574 L534.924909,25.4027234 L536.556502,3.73208511 L544.581627,5.29208511 L537.738471,25.9499574 Z M535.085854,36.3857021 C533.799995,36.3550638 532.56608,35.8078298 531.761354,34.7754894 C530.910643,33.7346383 530.709674,32.556766 531.047745,31.3082553 C531.337276,30.3125106 532.016823,29.5252766 533.025073,29.0197447 C534.132955,28.491234 535.38901,28.4291064 536.601635,28.8401702 C537.676307,29.2231489 538.597698,30.1474043 539.032846,31.1082553 C539.295127,31.7286809 539.410088,32.3644255 539.341963,32.9635745 C539.281502,33.5210213 539.082237,34.0529362 538.798666,34.5227234 C538.074838,35.7848511 536.611002,36.4197447 535.085854,36.3857021 L535.085854,36.3857021 Z" id="Fill-16" fill="#012547" mask="url(#mask-2)"></path>
        </g>
    </g>
</svg>