<?xml version="1.0" encoding="UTF-8"?>
<svg width="320px" height="92px" viewBox="0 0 320 92" version="1.1" xmlns="http://www.w3.org/2000/svg" xmlns:xlink="http://www.w3.org/1999/xlink">
    <!-- Generator: Sketch 55.2 (78181) - https://sketchapp.com -->
    <title>takeprize</title>
    <desc>Created with Sketch.</desc>
    <defs>
        <polygon id="path-1" points="0.3864 -0.000400000004 59.3864 -0.000400000004 59.3864 39.8416 0.3864 39.8416"></polygon>
        <polygon id="path-3" points="0 0.985 56.5316937 0.985 56.5316937 40.8255 0 40.8255"></polygon>
        <polygon id="path-5" points="0 0 241 0 241 43 0 43"></polygon>
        <polygon id="path-7" points="0 0.3639 35.3285 0.3639 35.3285 32.9999 0 32.9999"></polygon>
        <polygon id="path-9" points="0 33.709 194.025 33.709 194.025 1 0 1"></polygon>
    </defs>
    <g id="takeprize" stroke="none" stroke-width="1" fill="none" fill-rule="evenodd">
        <g id="Group" transform="translate(0.000000, -5.382933)">
            <g id="gift" transform="translate(153.806377, 51.563491) rotate(-11.000000) translate(-153.806377, -51.563491) translate(129.306377, 28.063491)" fill-rule="nonzero">
                <path d="M44.3026178,21.4290079 L3.83732685,21.4290079 C3.41342862,21.4290079 3.0700198,21.7679579 3.0700198,22.1859339 L3.0700198,45.6720818 C3.0700198,46.0901514 3.41342862,46.4290079 3.83732685,46.4290079 L44.3027127,46.4290079 C44.726611,46.4290079 45.0700198,46.0900578 45.0700198,45.6720818 L45.0700198,22.1860275 C45.0700198,21.7678643 44.7264211,21.4290079 44.3026178,21.4290079 Z" id="Path" fill="#F7434C"></path>
                <path d="M44.3428579,21.2403044 L3.87756693,21.2403044 C3.4536687,21.2403044 3.11025988,21.5985341 3.11025988,22.0402846 L3.11025988,25.2403044 L45.1102599,25.2403044 L45.1102599,22.0402846 C45.1102599,21.5984351 44.7666612,21.2403044 44.3428579,21.2403044 Z" id="Path" fill="#DB2E37"></path>
                <path d="M28.3241831,21.5244123 L20.7974837,21.5244123 C20.3905217,21.5244123 20.0608334,21.8633624 20.0608334,22.2813384 L20.0608334,45.7674863 C20.0608334,46.1855559 20.3905217,46.5244123 20.7974837,46.5244123 L28.3241831,46.5244123 C28.7310539,46.5244123 29.0608334,46.1854623 29.0608334,45.7674863 L29.0608334,22.281432 C29.0608334,21.8632688 28.7309628,21.5244123 28.3241831,21.5244123 Z" id="Path" fill="#FFDB57"></path>
                <path d="M28.3644232,21.3357089 L20.8377237,21.3357089 C20.4307618,21.3357089 20.1010735,21.6954784 20.1010735,22.1391277 L20.1010735,25.3357089 L29.1010735,25.3357089 L29.1010735,22.1391277 C29.1010735,21.695379 28.7712029,21.3357089 28.3644232,21.3357089 Z" id="Path" fill="#F5BA3D"></path>
                <path d="M42.4222619,6.80983387 C41.6737953,4.83960135 40.4928854,2.91533235 39.2632549,1.66220687 C38.8120221,1.20247642 38.2044299,0.969416628 37.5128041,0.984388145 C35.2210439,1.03826653 31.4865475,3.94321756 26.4130822,9.61847131 C26.2863707,9.76008088 26.2162167,9.944221 26.2162167,10.1351317 L26.2162167,14.2128197 C26.2162167,14.638602 26.5578279,14.9837098 26.9795073,14.9837098 L38.7209069,14.9837098 C41.3370939,14.9837098 42.41688,13.6982573 42.8618811,12.6198313 C43.4555935,11.1822796 43.2993285,9.11878503 42.4222619,6.80983387 Z" id="Path" fill="#FFDB57"></path>
                <path d="M42.2537048,8.52016446 C42.23229,8.44259258 42.1984622,8.36885256 42.1534532,8.30184167 C40.9967703,6.57684862 38.497399,7.22228407 36.6044642,8.06744374 C31.1049377,10.5228275 28.8338329,13.905055 28.7398353,14.0477686 C28.5868048,14.2802038 28.5750551,14.5763789 28.7091344,14.8198424 C28.843119,15.063306 29.101423,15.2148048 29.382279,15.2148048 L38.1009411,15.2148048 C39.771579,15.2148048 41.0105099,14.7089988 41.7833374,13.7114991 C42.7014255,12.5264251 42.8640263,10.7312435 42.2537048,8.52016446 Z" id="Path" fill="#EF9325"></path>
                <path d="M21.6421307,9.53793545 C16.5686055,3.86272366 12.8340648,0.957794112 10.5422775,0.903916123 C9.84884949,0.888849358 9.24294973,1.12200278 8.79180605,1.58172984 C7.56225537,2.83475069 6.38123711,4.75910083 5.63285602,6.72931877 C4.75577906,9.03825286 4.59951225,11.1016368 5.19285401,12.5393686 C5.63795475,13.6177866 6.71765925,14.9032296 9.33397161,14.9032296 L21.0755101,14.9032296 C21.4971945,14.9032296 21.8388098,14.558029 21.8388098,14.1323452 L21.8388098,10.054592 C21.8388098,9.86368273 21.7689382,9.67954397 21.6421307,9.53793545 Z" id="Path" fill="#FFDB57"></path>
                <path d="M19.1520353,13.5857359 C19.0580377,13.443019 16.7869347,10.060617 11.2874127,7.60526799 C9.39428995,6.76008809 6.89501545,6.11491759 5.73833347,7.83957807 C5.6934193,7.90668403 5.65959154,7.98033235 5.63817677,8.05799955 C5.02766624,10.2691315 5.19045641,12.064356 6.10854372,13.249365 C6.88127588,14.2468885 8.12020575,14.7527067 9.79093702,14.7527067 L18.5095921,14.7527067 C18.7904478,14.7527067 19.0487516,14.6012042 19.1827361,14.3577348 C19.3167205,14.1143589 19.3049708,13.8181768 19.1520353,13.5857359 Z" id="Path" fill="#EF9325"></path>
                <path d="M26.6759454,7.97456934 L21.0250454,7.97456934 C20.6523907,7.97456934 20.3504954,8.35322476 20.3504954,8.82016339 L20.3504954,14.1289753 C20.3504954,14.5960185 20.6523907,14.9745693 21.0250454,14.9745693 L26.6759454,14.9745693 C27.0486,14.9745693 27.3504954,14.5959139 27.3504954,14.1289753 L27.3504954,8.82016339 C27.3504954,8.35312016 27.0486,7.97456934 26.6759454,7.97456934 Z" id="Path" fill="#F5BA3D"></path>
                <path d="M47.4202072,13.1505459 L0.935957172,13.1505459 C0.517269672,13.1505459 0.178082172,13.4901296 0.178082172,13.908887 L0.178082172,21.3922049 C0.178082172,21.811056 0.517269672,22.1505459 0.935957172,22.1505459 L47.4202072,22.1505459 C47.8388947,22.1505459 48.1780822,21.8109622 48.1780822,21.3922049 L48.1780822,13.908887 C48.1780822,13.4900358 47.8388947,13.1505459 47.4202072,13.1505459 Z" id="Path" fill="#F7434C"></path>
                <rect id="Rectangle" fill="#FFDB57" x="18.1780822" y="13.1505459" width="12" height="9"></rect>
            </g>
            <g id="gift-copy" transform="translate(212.841744, 35.000000) rotate(19.000000) translate(-212.841744, -35.000000) translate(184.841744, 8.000000)" fill-rule="nonzero">
                <path d="M50.4420029,24.2444902 L4.19595603,24.2444902 C3.71150091,24.2444902 3.31903368,24.6376723 3.31903368,25.1225244 L3.31903368,52.366456 C3.31903368,52.8514168 3.71150091,53.2444902 4.19595603,53.2444902 L50.4421113,53.2444902 C50.9265665,53.2444902 51.3190337,52.8513082 51.3190337,52.366456 L51.3190337,25.122633 C51.3190337,24.6375636 50.9263495,24.2444902 50.4420029,24.2444902 Z" id="Path" fill="#F7434C"></path>
                <path d="M50.6428275,24.5415133 L4.39678063,24.5415133 C3.91232551,24.5415133 3.51985829,24.9893003 3.51985829,25.5414885 L3.51985829,29.5415133 L51.5198583,29.5415133 L51.5198583,25.5414885 C51.5198583,24.9891766 51.1271741,24.5415133 50.6428275,24.5415133 Z" id="Path" fill="#DB2E37"></path>
                <path d="M31.5005334,24.2444902 L23.137534,24.2444902 C22.6853541,24.2444902 22.3190337,24.6376723 22.3190337,25.1225244 L22.3190337,52.366456 C22.3190337,52.8514168 22.6853541,53.2444902 23.137534,53.2444902 L31.5005334,53.2444902 C31.952612,53.2444902 32.3190337,52.8513082 32.3190337,52.366456 L32.3190337,25.122633 C32.3190337,24.6375636 31.9525108,24.2444902 31.5005334,24.2444902 Z" id="Path" fill="#FFDB57"></path>
                <path d="M32.6468766,24.2159451 L24.2838772,24.2159451 C23.8316973,24.2159451 23.4653769,24.6656569 23.4653769,25.2202186 L23.4653769,29.2159451 L33.4653769,29.2159451 L33.4653769,25.2202186 C33.4653769,24.6655327 33.098854,24.2159451 32.6468766,24.2159451 Z" id="Path" fill="#F5BA3D"></path>
                <path d="M49.2294207,6.91242916 C48.3928991,4.66073486 47.0730587,2.46157029 45.6987657,1.02942688 C45.1944467,0.504020648 44.5153731,0.237666605 43.7423795,0.25477691 C41.1810005,0.31635221 37.0071515,3.63629624 31.336808,10.1223005 C31.1951893,10.28414 31.1167819,10.4945859 31.1167819,10.7127695 L31.1167819,15.3729844 C31.1167819,15.8595928 31.4985827,16.2540016 31.9698713,16.2540016 L45.0926121,16.2540016 C48.0165858,16.2540016 49.2234056,14.7849131 49.7207597,13.5524262 C50.3843206,11.90951 50.2096716,9.55123049 49.2294207,6.91242916 Z" id="Path" fill="#FFDB57"></path>
                <path d="M49.3575482,9.77607814 C49.3330742,9.67911329 49.2944139,9.58693827 49.2429751,9.50317465 C47.9210517,7.34693334 45.0646274,8.15372765 42.9012734,9.21017724 C36.6161002,12.2794069 34.0205519,16.5071913 33.913126,16.6855833 C33.738234,16.9761274 33.7248058,17.3463462 33.8780393,17.6506756 C34.0311645,17.9550051 34.3263691,18.1443786 34.6473473,18.1443786 L44.6115327,18.1443786 C46.5208331,18.1443786 47.9367541,17.512121 48.8199856,16.2652465 C49.8692291,14.7839039 50.0550585,12.5399269 49.3575482,9.77607814 Z" id="Path" fill="#EF9325"></path>
                <path d="M24.9255411,11.3172426 C19.2551305,4.83128622 15.0812322,1.51136674 12.5198229,1.4497919 C11.744815,1.43257274 11.0676329,1.69903379 10.5634135,2.22443614 C9.18920984,3.65645998 7.86924825,5.85571728 7.03282232,8.10739493 C6.05255984,10.7461767 5.8779087,13.1043298 6.54105538,14.7474519 C7.03852091,15.9799296 8.24524946,17.4490073 11.1693633,17.4490073 L24.2922593,17.4490073 C24.7635535,17.4490073 25.145359,17.0544924 25.145359,16.5679966 L25.145359,11.9077072 C25.145359,11.6895252 25.0672671,11.4790809 24.9255411,11.3172426 Z" id="Path" fill="#FFDB57"></path>
                <path d="M22.1170853,16.64077 C22.0096594,16.4623738 19.4141132,12.2343714 13.1289452,9.16518509 C10.9653763,8.10871021 8.10906262,7.30224708 6.78714035,9.45807268 C6.73580987,9.54195513 6.69714958,9.63401553 6.67267555,9.73109953 C5.97494924,12.4950145 6.16099515,14.7390451 7.21023778,16.2203063 C8.09336025,17.4672107 9.5092801,18.0994834 11.4186873,18.0994834 L21.3828645,18.0994834 C21.7038424,18.0994834 21.9990468,17.9101054 22.1521719,17.6057686 C22.305297,17.3015487 22.2918688,16.9313211 22.1170853,16.64077 Z" id="Path" fill="#EF9325"></path>
                <path d="M31.3378114,9.75747437 L24.0723685,9.75747437 C23.5932411,9.75747437 23.2050899,10.1902234 23.2050899,10.7238676 L23.2050899,16.7910812 C23.2050899,17.3248449 23.5932411,17.7574744 24.0723685,17.7574744 L31.3378114,17.7574744 C31.8169388,17.7574744 32.2050899,17.3247253 32.2050899,16.7910812 L32.2050899,10.7238676 C32.2050899,10.1901039 31.8169388,9.75747437 31.3378114,9.75747437 Z" id="Path" fill="#F5BA3D"></path>
                <path d="M54.3990633,15.0817221 L1.13586016,15.0817221 C0.656114066,15.0817221 0.267461722,15.4590374 0.267461722,15.9243233 L0.267461722,24.239121 C0.267461722,24.7045111 0.656114066,25.0817221 1.13586016,25.0817221 L54.3990633,25.0817221 C54.8788094,25.0817221 55.2674617,24.7044069 55.2674617,24.239121 L55.2674617,15.9243233 C55.2674617,15.4589331 54.8788094,15.0817221 54.3990633,15.0817221 Z" id="Path" fill="#F7434C"></path>
                <rect id="Rectangle" fill="#FFDB57" x="20.2947024" y="15.2445062" width="14" height="10"></rect>
            </g>
            <g id="gift-copy-2" transform="translate(104.545937, 44.739378) rotate(-20.000000) translate(-104.545937, -44.739378) translate(76.545937, 17.739378)" fill-rule="nonzero">
                <path d="M50.4420029,24.2444902 L4.19595603,24.2444902 C3.71150091,24.2444902 3.31903368,24.6376723 3.31903368,25.1225244 L3.31903368,52.366456 C3.31903368,52.8514168 3.71150091,53.2444902 4.19595603,53.2444902 L50.4421113,53.2444902 C50.9265665,53.2444902 51.3190337,52.8513082 51.3190337,52.366456 L51.3190337,25.122633 C51.3190337,24.6375636 50.9263495,24.2444902 50.4420029,24.2444902 Z" id="Path" fill="#F7434C"></path>
                <path d="M50.6428275,24.5415133 L4.39678063,24.5415133 C3.91232551,24.5415133 3.51985829,24.9893003 3.51985829,25.5414885 L3.51985829,29.5415133 L51.5198583,29.5415133 L51.5198583,25.5414885 C51.5198583,24.9891766 51.1271741,24.5415133 50.6428275,24.5415133 Z" id="Path" fill="#DB2E37"></path>
                <path d="M31.5005334,24.2444902 L23.137534,24.2444902 C22.6853541,24.2444902 22.3190337,24.6376723 22.3190337,25.1225244 L22.3190337,52.366456 C22.3190337,52.8514168 22.6853541,53.2444902 23.137534,53.2444902 L31.5005334,53.2444902 C31.952612,53.2444902 32.3190337,52.8513082 32.3190337,52.366456 L32.3190337,25.122633 C32.3190337,24.6375636 31.9525108,24.2444902 31.5005334,24.2444902 Z" id="Path" fill="#FFDB57"></path>
                <path d="M32.6468766,24.2159451 L24.2838772,24.2159451 C23.8316973,24.2159451 23.4653769,24.6656569 23.4653769,25.2202186 L23.4653769,29.2159451 L33.4653769,29.2159451 L33.4653769,25.2202186 C33.4653769,24.6655327 33.098854,24.2159451 32.6468766,24.2159451 Z" id="Path" fill="#F5BA3D"></path>
                <path d="M49.2294207,6.91242916 C48.3928991,4.66073486 47.0730587,2.46157029 45.6987657,1.02942688 C45.1944467,0.504020648 44.5153731,0.237666605 43.7423795,0.25477691 C41.1810005,0.31635221 37.0071515,3.63629624 31.336808,10.1223005 C31.1951893,10.28414 31.1167819,10.4945859 31.1167819,10.7127695 L31.1167819,15.3729844 C31.1167819,15.8595928 31.4985827,16.2540016 31.9698713,16.2540016 L45.0926121,16.2540016 C48.0165858,16.2540016 49.2234056,14.7849131 49.7207597,13.5524262 C50.3843206,11.90951 50.2096716,9.55123049 49.2294207,6.91242916 Z" id="Path" fill="#FFDB57"></path>
                <path d="M49.3575482,9.77607814 C49.3330742,9.67911329 49.2944139,9.58693827 49.2429751,9.50317465 C47.9210517,7.34693334 45.0646274,8.15372765 42.9012734,9.21017724 C36.6161002,12.2794069 34.0205519,16.5071913 33.913126,16.6855833 C33.738234,16.9761274 33.7248058,17.3463462 33.8780393,17.6506756 C34.0311645,17.9550051 34.3263691,18.1443786 34.6473473,18.1443786 L44.6115327,18.1443786 C46.5208331,18.1443786 47.9367541,17.512121 48.8199856,16.2652465 C49.8692291,14.7839039 50.0550585,12.5399269 49.3575482,9.77607814 Z" id="Path" fill="#EF9325"></path>
                <path d="M24.9255411,11.3172426 C19.2551305,4.83128622 15.0812322,1.51136674 12.5198229,1.4497919 C11.744815,1.43257274 11.0676329,1.69903379 10.5634135,2.22443614 C9.18920984,3.65645998 7.86924825,5.85571728 7.03282232,8.10739493 C6.05255984,10.7461767 5.8779087,13.1043298 6.54105538,14.7474519 C7.03852091,15.9799296 8.24524946,17.4490073 11.1693633,17.4490073 L24.2922593,17.4490073 C24.7635535,17.4490073 25.145359,17.0544924 25.145359,16.5679966 L25.145359,11.9077072 C25.145359,11.6895252 25.0672671,11.4790809 24.9255411,11.3172426 Z" id="Path" fill="#FFDB57"></path>
                <path d="M22.1170853,16.64077 C22.0096594,16.4623738 19.4141132,12.2343714 13.1289452,9.16518509 C10.9653763,8.10871021 8.10906262,7.30224708 6.78714035,9.45807268 C6.73580987,9.54195513 6.69714958,9.63401553 6.67267555,9.73109953 C5.97494924,12.4950145 6.16099515,14.7390451 7.21023778,16.2203063 C8.09336025,17.4672107 9.5092801,18.0994834 11.4186873,18.0994834 L21.3828645,18.0994834 C21.7038424,18.0994834 21.9990468,17.9101054 22.1521719,17.6057686 C22.305297,17.3015487 22.2918688,16.9313211 22.1170853,16.64077 Z" id="Path" fill="#EF9325"></path>
                <path d="M31.3378114,9.75747437 L24.0723685,9.75747437 C23.5932411,9.75747437 23.2050899,10.1902234 23.2050899,10.7238676 L23.2050899,16.7910812 C23.2050899,17.3248449 23.5932411,17.7574744 24.0723685,17.7574744 L31.3378114,17.7574744 C31.8169388,17.7574744 32.2050899,17.3247253 32.2050899,16.7910812 L32.2050899,10.7238676 C32.2050899,10.1901039 31.8169388,9.75747437 31.3378114,9.75747437 Z" id="Path" fill="#F5BA3D"></path>
                <path d="M54.3990633,15.0817221 L1.13586016,15.0817221 C0.656114066,15.0817221 0.267461722,15.4590374 0.267461722,15.9243233 L0.267461722,24.239121 C0.267461722,24.7045111 0.656114066,25.0817221 1.13586016,25.0817221 L54.3990633,25.0817221 C54.8788094,25.0817221 55.2674617,24.7044069 55.2674617,24.239121 L55.2674617,15.9243233 C55.2674617,15.4589331 54.8788094,15.0817221 54.3990633,15.0817221 Z" id="Path" fill="#F7434C"></path>
                <rect id="Rectangle" fill="#FFDB57" x="20.2947024" y="15.2445062" width="14" height="10"></rect>
            </g>
            <g id="Group-18" transform="translate(0.000000, 43.382933)">
                <path d="M269.001348,7.66701186 C265.687332,7.66701186 262.175636,6.56517164 262.176977,4.5406 L262.176977,8.18055831 L262.176977,15 L275.001348,15 C278.307278,15 280.986523,13.3658445 281,11.3474863 L281,11.3184899 C280.986523,9.30116739 278.308625,7.66701186 275.002695,7.66701186 L269.001348,7.66701186 Z" id="Fill-1" fill="#A84113"></path>
                <g id="Group-5" transform="translate(260.000000, 1.000000)">
                    <mask id="mask-2" fill="white">
                        <use xlink:href="#path-1"></use>
                    </mask>
                    <g id="Clip-4"></g>
                    <path d="M59.3873178,0.0026 L43.9699622,0.0016 L34.1104067,0.0016 L19.6881844,0.000599999996 L8.01405111,-0.000400000004 C4.79002889,-0.000400000004 2.17698395,1.5846 2.17698395,3.5406 C2.17567333,5.4956 4.78871778,7.0806 8.01274,7.0806 L13.8524289,7.0806 C17.0685844,7.0806 19.6737622,8.6586 19.6868733,10.6076 C19.6868733,10.6126 19.6894956,10.6166 19.6894956,10.6216 C19.6894956,10.6266 19.6868733,10.6306 19.6868733,10.6356 L19.6816289,39.8386 L34.1038511,39.8396 L59.3807622,39.8416 L45.3741622,19.9216 L59.3873178,0.0026 Z" id="Fill-3" fill="#F05E1C" mask="url(#mask-2)"></path>
                </g>
                <path d="M44.9986523,7.66632144 L51,7.66632144 C54.3126685,7.66632144 57,6.02579795 57,4 L57,7.66632144 L56.9986523,15 L44.9973046,15 C41.6913747,15 39.0121294,13.3646549 39,11.3461068 L39,11.3181433 C39.0134771,9.29959514 41.6913747,7.66632144 44.9986523,7.66632144" id="Fill-6" fill="#A84113"></path>
                <g id="Group-10">
                    <mask id="mask-4" fill="white">
                        <use xlink:href="#path-3"></use>
                    </mask>
                    <g id="Clip-9"></g>
                    <path d="M50.7643295,0.9875 L39.2308977,0.9875 L24.9808977,0.9865 L15.2390795,0.9855 L0.00582954545,0.9845 L13.8464659,20.9045 L-0.000647727273,40.8235 L24.9757159,40.8255 L39.2244205,40.8255 L39.2296023,11.6215 C39.2296023,11.6165 39.2270114,11.6125 39.2270114,11.6075 C39.2270114,11.6035 39.2296023,11.5985 39.2296023,11.5935 C39.2412614,9.6455 41.816625,8.0675 44.9956705,8.0685 L50.7643295,8.0685 C53.9485568,8.0685 56.5316937,6.4835 56.5316937,4.5285 C56.5329886,2.5725 53.9498523,0.9875 50.7643295,0.9875" id="Fill-8" fill="#F05E1C" mask="url(#mask-4)"></path>
                </g>
                <path d="M280.547116,1 L268.849477,1 C265.6186,0.998996434 263,2.59040182 263,4.55430651 C262.998687,6.51720717 265.617286,8.10861255 268.848163,8.10861255 L274.698953,8.1096166 C277.921946,8.1096166 280.532663,9.69298965 280.545802,11.6498661 C280.545802,11.6548863 280.54843,11.6589024 280.54843,11.6639226 L280.54843,11.6639226 C280.54843,11.6679388 280.545802,11.672959 280.545802,11.6779792 L280.540546,40.998996 L294.993431,41 L289.672141,18.731369 L295,1.00100452 L280.547116,1 Z" id="Fill-11" fill="#C04B16"></path>
                <path d="M39.4557658,1 L51.1514841,1.00100407 C54.3818301,1.00100407 57,2.59244942 57,4.55539937 L57,4.55640343 C57,6.51935338 54.3805164,8.11079873 51.1501704,8.10979467 L45.3016544,8.10979467 C42.0778768,8.10979467 39.4662753,9.69320749 39.4544522,11.650133 C39.4544522,11.6551534 39.4518248,11.6591696 39.4518248,11.66419 C39.4518248,11.6692103 39.4544522,11.6732266 39.4544522,11.6772428 L39.4491974,41 L25,41 L31.0245494,19.7489332 L25.0052547,1 L39.4557658,1 Z" id="Fill-13" fill="#C04B16"></path>
                <g id="Group-17" transform="translate(39.000000, 11.000000)">
                    <mask id="mask-6" fill="white">
                        <use xlink:href="#path-5"></use>
                    </mask>
                    <g id="Clip-16"></g>
                    <path d="M235.169207,3.50907121 L5.82948307,3.49618479 C2.6160624,3.49618479 0.0117899658,1.93197169 0,0 L0.0157199543,38.3549413 C0.0170299505,40.9133913 3.46362994,42.9871136 7.71587759,42.9871136 L233.271022,43 C237.52327,43 240.97118,40.9262777 240.97249,38.368819 L241,0.0138776827 C240.9869,1.94584937 238.382628,3.50907121 235.169207,3.50907121" id="Fill-15" fill="#F05E1C" mask="url(#mask-6)"></path>
                </g>
            </g>
            <g id="Group-9" transform="translate(63.000000, 61.382933)">
                <g id="Group-3" transform="translate(0.000000, 0.709000)">
                    <mask id="mask-8" fill="white">
                        <use xlink:href="#path-7"></use>
                    </mask>
                    <g id="Clip-2"></g>
                    <path d="M26.2595,1.5549 C28.2705,1.8439 30.9125,1.9879 32.4895,3.2869 C33.1205,3.8289 33.7115,4.5149 33.7115,5.3459 C33.7115,6.6089 32.7255,7.6199 31.4645,7.6199 C30.9515,7.6199 30.2815,7.5119 29.8475,7.2589 C27.8755,6.1759 28.3095,4.3699 27.7575,3.5039 C27.4025,2.8909 26.6535,2.2409 26.0625,1.7359 L26.2595,1.5549 Z M0.1185,8.5589 L8.6345,8.5589 L8.6345,4.5149 C5.6775,4.4429 3.7855,4.2259 0.8675,3.7209 L0.8675,3.3959 C3.4695,3.0349 6.6245,2.4929 9.0685,1.7719 C10.4485,1.3739 11.7895,0.8319 13.1295,0.3639 L18.9255,2.7459 C17.3885,3.2869 15.9295,3.6489 14.3125,4.0459 L14.3125,8.5589 L19.6745,8.5589 C19.6355,8.0169 19.6355,7.4399 19.6355,6.8619 C19.6355,4.7319 19.7535,2.6019 19.8325,0.5079 L25.7075,0.5079 C25.5495,3.1789 25.5495,5.8869 25.4705,8.5589 L35.3285,8.5589 L35.3285,10.8689 L25.3925,10.8689 C25.3525,11.7359 25.3525,12.6379 25.3525,13.5039 C25.3525,14.9849 25.5105,16.4649 25.6285,17.9089 C26.6535,16.3569 27.3245,14.9119 27.9945,13.1799 L33.9085,13.6849 C33.2775,14.9849 32.7255,16.3209 32.0165,17.6199 C30.8335,19.8589 28.7045,21.6999 26.7715,23.3969 C27.0085,24.8409 27.4025,25.8159 28.4285,26.9349 C28.7045,27.2239 29.3745,27.9819 29.8475,27.9819 C30.2025,27.9819 30.4785,27.7289 30.7145,27.4759 C31.6215,26.5739 32.7655,24.8769 33.4355,23.8299 L33.9485,23.9379 C33.5535,24.9859 33.0015,26.0329 33.0015,27.1519 C33.0015,28.4509 34.8155,28.4149 34.8155,28.8479 C34.8155,29.0649 34.6185,29.4259 34.4995,29.6069 C33.3955,31.5559 31.7405,32.8559 29.2565,32.8559 C27.9555,32.8559 26.8115,32.5669 25.8255,31.7729 C24.9585,31.0859 24.0905,30.3279 23.4205,29.4979 C22.5925,28.4879 22.1195,27.4039 21.6065,26.2839 C19.4385,27.1879 17.1905,27.8729 14.9045,28.4149 L14.5095,28.1619 C15.6535,27.4039 16.7965,26.6819 17.9005,25.8879 C18.9255,25.1649 19.8325,24.2629 20.7785,23.4329 C20.5025,22.1329 20.2665,20.7969 20.0695,19.4969 C19.6745,16.6099 19.6745,13.7569 19.6745,10.8689 L14.3125,10.8689 L14.3125,16.0319 C15.9295,15.6349 17.5455,15.0569 19.1235,14.5519 L19.3205,14.8759 C17.8215,16.5369 16.2445,17.6199 14.3125,18.8839 L14.3125,29.3899 C14.3125,30.3649 13.9185,31.0139 13.2875,31.7369 C12.5775,32.4939 9.9365,32.7839 8.9505,32.8559 C8.1225,32.9279 7.3335,32.9999 6.5455,32.9999 C6.2295,32.9999 5.0465,32.9999 4.8495,32.6749 C4.7315,32.5309 4.7705,32.2419 4.7705,32.0609 C4.7705,30.1479 2.1685,29.6779 0.5915,29.2819 L0.7095,28.8839 C2.6815,28.9919 4.7315,29.1729 6.7025,29.1729 C7.6495,29.1729 8.6345,29.0289 8.6345,27.9819 L8.6345,21.1589 C6.2695,21.9889 3.8635,22.7099 1.4585,23.3609 L-0.0005,18.7399 C2.9175,18.4509 5.7955,17.9819 8.6345,17.3679 L8.6345,10.8689 L0.1185,10.8689 L0.1185,8.5589 Z" id="Fill-1" fill="#FFFFFF" mask="url(#mask-8)"></path>
                </g>
                <mask id="mask-10" fill="white">
                    <use xlink:href="#path-9"></use>
                </mask>
                <g id="Clip-5"></g>
                <path d="M63.953,13.744 L66.634,13.744 L66.634,9.7 L63.953,9.7 L63.953,13.744 Z M56.185,13.744 L58.945,13.744 L58.945,9.7 L56.185,9.7 L56.185,13.744 Z M56.185,7.245 L58.945,7.245 L58.945,4.502 L56.185,4.502 L56.185,7.245 Z M57.959,25.766 C59.576,24.322 60.01,23.78 61.311,22.084 L55.436,22.084 C54.766,22.589 54.174,23.167 53.504,23.708 C52.952,24.178 52.36,24.611 51.809,25.044 C53.859,25.225 55.909,25.514 57.959,25.766 L57.959,25.766 Z M48.338,13.744 L50.98,13.744 L50.98,9.7 L48.338,9.7 L48.338,13.744 Z M40.926,2.119 L73.731,2.083 L73.731,4.502 L63.953,4.502 L63.953,7.245 L66.515,7.245 L67.856,5.838 L73.889,6.849 L72.43,8.257 L72.43,17.174 L66.634,17.174 L66.634,16.236 L48.339,16.236 L48.339,17.282 L42.306,17.282 L42.306,6.343 L48.339,6.343 L48.339,7.245 L50.98,7.245 L50.98,4.502 L40.926,4.502 L40.926,2.119 Z M57.999,19.521 L74.598,19.521 L74.598,22.084 L68.014,22.084 C66.752,23.853 65.411,25.478 63.755,26.957 C65.648,27.427 73.376,29.448 73.376,31.614 C73.376,32.626 72.39,33.42 71.326,33.42 C69.709,33.42 66.515,31.904 65.214,31.363 C63.558,30.676 61.823,30.027 60.128,29.448 C58.63,30.243 57.092,30.965 55.475,31.471 C50.902,32.95 45.579,33.239 40.769,33.456 L40.689,33.095 C45.776,32.12 50.705,30.423 55.121,27.897 C51.848,27.03 48.615,26.272 45.224,25.838 C46.683,24.719 47.984,23.419 49.206,22.084 L39.94,22.084 L39.94,19.521 L51.454,19.521 C52.045,18.87 52.518,18.113 52.952,17.355 L59.773,17.355 C59.26,18.113 58.63,18.834 57.999,19.521 L57.999,19.521 Z" id="Fill-4" fill="#FFFFFF" mask="url(#mask-10)"></path>
                <path d="M103.696,6.7404 C101.251,5.5494 99.792,4.6104 97.861,2.7324 C95.495,4.3934 93.523,5.5124 90.842,6.7404 L103.696,6.7404 Z M89.541,14.5744 L104.366,14.5744 L104.366,12.8424 L89.541,12.8424 L89.541,14.5744 Z M89.541,9.7724 L89.541,10.4594 L104.248,10.4594 L105.746,9.0874 L111.818,10.1704 L110.281,11.5424 L110.281,17.4274 L104.366,17.4274 L104.366,16.7764 L89.541,16.7764 L89.541,17.8234 L83.509,17.8234 L83.509,9.7724 L89.541,9.7724 Z M94.036,25.8384 L94.036,24.4304 L82.207,24.4304 L82.247,22.1924 L94.036,22.1924 L94.036,21.2174 C89.699,21.0734 85.401,20.7124 81.103,19.9894 L81.182,19.5564 C89.186,19.5564 97.466,18.9424 105.312,17.5714 L112.804,19.7734 C108.782,20.7484 104.445,21.0014 100.305,21.1804 L100.305,22.1924 L111.306,22.1924 L111.306,24.4304 L100.305,24.4304 L100.305,25.8384 L114.421,25.8384 L114.421,28.1124 L100.305,28.1124 C100.305,28.8714 100.502,31.5424 99.911,32.2284 C98.807,33.5284 94.352,33.6364 92.774,33.6364 L92.419,33.6364 C91.276,33.6364 91.749,32.9864 91.355,32.1564 C90.763,30.8564 88.792,30.6764 87.491,30.5314 L87.609,29.9184 C88.95,29.9904 90.29,30.0264 91.631,30.0264 C94.115,30.0264 94.036,30.2434 94.036,28.1124 L79.802,28.1124 L79.802,25.8384 L94.036,25.8384 Z M91.158,1.0364 L99.832,1.0364 L99.162,1.6854 C103.893,3.8154 109.886,4.7554 115.091,5.0434 L115.13,5.4404 C112.922,5.9464 111.542,7.2814 113.12,9.1954 L112.765,9.5204 C110.005,8.9064 107.363,8.1844 104.721,7.1744 L104.721,8.9424 L88.95,8.9424 L88.95,7.3534 C85.717,8.5814 82.956,9.3404 79.526,10.0254 L79.29,9.6644 C84.376,7.2454 87.373,5.0074 91.158,1.0364 L91.158,1.0364 Z" id="Fill-6" fill="#FFFFFF" mask="url(#mask-10)"></path>
                <path d="M133.3061,8.9426 C133.3461,8.3296 133.4241,7.7146 133.4241,7.1016 C133.4241,5.1156 133.3461,3.1306 133.3061,1.1086 L139.6931,1.1086 C139.5751,3.7446 139.4171,6.3426 139.3391,8.9426 L153.3751,8.9426 L153.3751,11.3976 L139.7721,11.3976 C141.3101,16.5956 144.9771,21.4336 149.0381,25.2606 C150.5761,26.7416 152.5471,27.8606 154.5581,28.6906 L154.3611,29.1966 C152.9411,29.3766 151.7191,29.6656 151.1671,31.0376 C151.0881,31.2546 151.0491,31.4706 151.0491,31.6866 C151.0491,32.2286 151.3251,32.7696 151.5221,33.2396 L151.0491,33.4926 C150.3391,33.2036 149.6291,32.8786 148.9591,32.5176 C148.0921,32.0476 147.3031,31.3986 146.5141,30.8206 C142.6511,27.8246 140.1671,23.5276 139.0631,19.0146 L138.0371,14.7916 C137.6041,16.0186 137.1311,17.2106 136.6581,18.4376 C134.8831,23.0226 130.9011,26.7416 126.6421,29.4846 C124.3561,30.9286 121.7141,31.9756 119.1911,32.9866 L118.7171,32.5896 C123.2121,29.5926 126.4061,26.4166 129.0081,21.8676 C131.0191,18.3656 132.1231,15.2966 132.7541,11.3976 L119.6641,11.3976 L119.6641,8.9426 L133.3061,8.9426 Z" id="Fill-7" fill="#FFFFFF" mask="url(#mask-10)"></path>
                <path d="M178.1753,4.2492 L177.7413,4.4662 C178.9243,4.5742 182.6303,4.7552 182.9853,6.0912 L183.1433,6.7042 C184.4843,5.9462 185.3903,5.2602 186.5733,4.2492 L178.1753,4.2492 Z M189.9253,13.2382 L189.9253,17.1022 C189.9253,18.7982 189.6493,19.2682 187.9533,19.8102 C187.0073,20.1342 185.9423,20.2782 184.9573,20.2782 C183.3803,20.2782 184.7593,19.1592 183.4583,18.3292 C182.9853,18.0402 180.8173,17.6072 180.2253,17.4992 L180.2253,17.2462 C179.7913,17.3182 179.3583,17.4272 178.8843,17.3912 C177.7413,17.2822 177.1503,16.5232 176.9533,15.2612 C176.8343,14.5742 176.3613,14.2492 175.8093,13.7082 L176.0063,13.4192 C177.2293,13.5632 181.3293,13.5632 181.2903,15.5492 C181.2903,16.4162 181.2113,16.4162 180.5413,17.0292 C181.7633,17.1022 182.9853,17.1742 184.2073,17.1742 C184.9173,17.1742 185.0753,16.8122 185.0753,16.1992 L185.0753,13.2382 L173.7983,13.2382 L173.7983,11.1082 L185.0753,11.1082 L185.0753,9.1592 L189.9253,9.1592 L189.9253,11.1082 L192.6853,11.1082 L192.6853,13.2382 L189.9253,13.2382 Z M178.7273,6.3432 C178.4113,5.7292 177.5443,5.1872 176.9133,4.8272 C175.6913,5.2602 174.4683,5.6932 173.2463,6.0912 C174.2323,6.1982 177.9383,6.5962 177.9383,7.8952 C177.9383,8.6172 177.9383,8.5812 177.5443,9.1592 C178.5693,8.8342 179.5553,8.4732 180.5413,8.0042 C179.2793,7.6792 179.3183,7.4262 178.7273,6.3432 L178.7273,6.3432 Z M173.8383,7.8952 C173.5223,7.4262 173.0893,7.0652 172.6553,6.7402 L172.6553,10.4232 C173.7193,10.1702 174.7453,9.9172 175.7703,9.6282 C174.5483,9.3042 174.5083,8.9062 173.8383,7.8952 L173.8383,7.8952 Z M192.1333,4.3942 L191.2263,5.0792 C189.8063,6.1262 188.3083,7.1742 186.7703,8.0402 C182.5513,10.3872 177.4653,10.7472 172.6553,11.1082 L172.6553,18.2212 L178.0173,18.1852 C177.8603,19.0512 177.7023,21.2172 177.4653,22.0482 L180.7773,22.0482 C179.9883,21.6142 179.5553,21.2532 179.3973,20.2062 C179.2793,19.5202 178.8063,19.1952 178.2543,18.6542 L178.4513,18.3652 C179.0033,18.4372 180.1073,18.4742 181.2113,18.6542 C182.3943,19.1232 183.3803,19.7012 183.6953,20.7122 C183.8533,21.2532 183.6953,21.7232 183.3803,22.0482 L192.7243,22.0482 L192.7243,24.3582 L178.7273,24.3582 C182.6703,28.1482 187.7563,28.3652 193.1973,28.6182 L193.1973,29.0162 C190.9503,30.0992 190.7533,31.6862 192.3303,33.3842 L192.0543,33.7092 C186.7313,32.3732 182.3943,31.1822 178.5303,27.3182 C177.5443,26.3442 177.0313,26.0192 176.2433,24.8632 C174.1933,27.9332 172.5373,29.0522 168.9093,30.7122 C165.8343,32.1202 161.1423,32.9502 157.7513,33.4922 L157.5543,33.1312 C161.8123,31.5422 165.2823,30.0622 168.3973,26.8502 C169.4223,25.8022 169.8553,25.6222 170.6053,24.3582 L159.6433,24.3582 L159.6433,22.0482 L171.5903,22.0482 C171.7873,21.3972 171.9063,20.2422 172.0243,19.5932 L168.0423,19.5932 L168.0423,12.9862 L166.4253,12.9862 C166.2283,13.6002 165.9913,14.2132 165.7163,14.8272 C164.5323,17.5352 161.6943,18.8702 159.0123,20.1342 L158.6183,19.8822 C160.9053,17.3912 161.4183,16.2712 161.9303,12.9862 L159.4463,12.9862 L159.4463,10.8552 L168.0423,10.8552 L168.0423,8.1852 L164.8483,8.1852 L163.5863,9.3042 L159.4463,7.5342 L160.5903,6.5602 L160.5903,2.3722 L165.3213,2.3722 L165.3213,6.0192 L168.0423,6.0192 L168.0423,1.0002 L172.6553,1.0002 L172.6553,5.2242 C173.4443,4.6102 175.1783,3.1662 175.6123,2.4082 L176.4013,1.0002 L183.4983,1.0002 C182.8673,1.5052 182.1963,1.9752 181.5263,2.4082 L187.7173,2.4082 L189.0573,1.2532 L194.0253,3.7442 C193.3943,3.9602 192.7243,4.1772 192.1333,4.3942 L192.1333,4.3942 Z" id="Fill-8" fill="#FFFFFF" mask="url(#mask-10)"></path>
            </g>
        </g>
    </g>
</svg>