<?xml version="1.0" encoding="UTF-8"?>
<svg width="122px" height="166px" viewBox="0 0 122 166" version="1.1" xmlns="http://www.w3.org/2000/svg" xmlns:xlink="http://www.w3.org/1999/xlink">
    <!-- Generator: Sketch 51.3 (57544) - http://www.bohemiancoding.com/sketch -->
    <title>balloon</title>
    <desc>Created with Sketch.</desc>
    <defs>
        <polygon id="path-1" points="0 0.9711 67.0495 0.9711 67.0495 126.4401 0 126.4401"></polygon>
        <polygon id="path-3" points="0.3829 0.7761 59.773 0.7761 59.773 122.9491 0.3829 122.9491"></polygon>
        <polygon id="path-5" points="0.751854617 0.695 55.876348 0.695 55.876348 124.9823 0.751854617 124.9823"></polygon>
        <polygon id="path-7" points="0.5858 0.2877 29.0077324 0.2877 29.0077324 22 0.5858 22"></polygon>
    </defs>
    <g id="balloon" stroke="none" stroke-width="1" fill="none" fill-rule="evenodd">
        <g id="Group-35-Copy">
            <g id="Group-3" transform="translate(0.000000, 6.305000)">
                <mask id="mask-2" fill="white">
                    <use xlink:href="#path-1"></use>
                </mask>
                <g id="Clip-2"></g>
                <path d="M29.5295,4.0741 C30.5635,2.8661 32.2325,1.7781 33.6865,0.9711 C10.3945,13.5301 -6.0345,43.7121 2.1155,70.9621 C12.9895,107.3171 56.6075,123.1311 67.0495,126.4401 C-26.6285,61.7241 29.5295,4.0741 29.5295,4.0741" id="Fill-1" fill="#DF314A" mask="url(#mask-2)"></path>
            </g>
            <path d="M71.7751,131.6242 L77.8991,129.7572 C28.0581,51.7282 40.5671,4.7602 40.5671,4.7602 C40.9811,4.3602 41.4001,4.0222 41.8181,3.7332 C39.5521,4.4992 37.3271,5.4272 35.1561,6.5132 C35.9931,6.1062 36.5691,5.8702 36.5691,5.8702 C1.7181,56.0392 66.0691,125.6242 71.7751,131.6242" id="Fill-4" fill="#DF314A"></path>
            <path d="M86.4812,127.1487 L92.5902,125.2877 C94.2642,116.8687 111.3162,24.0647 54.7532,1.3087 C54.7532,1.3087 54.7082,1.2317 55.1592,1.1347 C52.5622,1.3097 50.0032,1.6617 47.5142,2.1827 C47.5822,2.1947 47.6472,2.2027 47.6472,2.2027 C78.6112,33.4437 86.0702,121.9997 86.4812,127.1487" id="Fill-6" fill="#DF314A"></path>
            <g id="Group-10" transform="translate(62.000000, 0.305000)">
                <mask id="mask-4" fill="white">
                    <use xlink:href="#path-3"></use>
                </mask>
                <g id="Clip-9"></g>
                <path d="M35.3059,122.9491 C42.2119,113.4091 67.1239,75.8321 57.6519,41.8071 C50.8249,17.2751 24.8689,1.9961 0.3829,0.7761 C9.6159,3.3251 74.7439,25.0951 35.3059,122.9491" id="Fill-8" fill="#DF314A" mask="url(#mask-4)"></path>
            </g>
            <path d="M71.7751,131.6242 C66.0691,125.6242 1.7181,56.0392 36.5691,5.8702 C36.5691,5.8702 35.9931,6.1062 35.1561,6.5132 C34.6631,6.7592 34.1741,7.0152 33.6871,7.2762 C32.2321,8.0832 30.5631,9.1712 29.5291,10.3792 C29.5291,10.3792 -26.6289,68.0292 67.0491,132.7452 C67.2341,132.8062 67.3951,132.8572 67.5581,132.9062 L71.7751,131.6242 Z" id="Fill-11" fill="#F1F2F2"></path>
            <g id="Group-15" transform="translate(54.000000, 0.305000)">
                <mask id="mask-6" fill="white">
                    <use xlink:href="#path-5"></use>
                </mask>
                <g id="Clip-14"></g>
                <path d="M0.7531,1.0033 C57.3161,23.7593 40.2641,116.5643 38.5901,124.9823 L42.6221,123.7583 L42.6061,123.9053 C42.8141,123.6283 43.0461,123.3053 43.3061,122.9493 C82.7441,25.0953 17.6161,3.3253 8.3821,0.7753 C5.9501,0.6533 3.5431,0.6683 1.1591,0.8303 C0.7081,0.9263 0.7531,1.0033 0.7531,1.0033" id="Fill-13" fill="#F1F2F2" mask="url(#mask-6)"></path>
            </g>
            <path d="M77.8991,129.7571 L86.4811,127.1491 C86.0701,121.9991 78.6111,33.4441 47.6471,2.2031 C47.6471,2.2031 47.5821,2.1941 47.5141,2.1831 C46.1361,2.4721 44.7731,2.7991 43.4401,3.1971 C42.8951,3.3601 42.3581,3.5531 41.8181,3.7341 C41.3991,4.0221 40.9811,4.3601 40.5671,4.7601 C40.5671,4.7601 28.0581,51.7291 77.8991,129.7571" id="Fill-16" fill="#F1F2F2"></path>
            <polygon id="Fill-18" fill="#414042" points="76.1101 151.1584 69.7191 136.1544 70.2631 135.9244 72.0491 140.1184 72.8491 135.8164 73.4291 135.9234 72.4661 141.0964 76.6541 150.9294"></polygon>
            <polygon id="Fill-20" fill="#414042" points="87.3342 147.7717 84.3922 137.6937 79.4712 134.2237 79.8112 133.7417 84.1262 136.7837 82.4372 130.9947 83.0022 130.8277 84.6602 136.5077 86.2092 131.7467 86.7712 131.9277 84.9532 137.5107 87.8992 147.6047"></polygon>
            <polygon id="Fill-22" fill="#414042" points="99.029 144.0432 97.125 133.8392 92.841 129.8212 93.246 129.3912 96.942 132.8582 96.081 128.2462 96.661 128.1382 99.61 143.9352"></polygon>
            <polygon id="Fill-24" fill="#F7941E" points="96.739 129.1633 70.158 137.1133 60.882 130.6813 100.526 118.8233"></polygon>
            <path d="M63.532,132.5188 L62.2,131.5948 L99.988,120.2928 L99.444,121.7778 L63.532,132.5188 Z M69.026,136.3288 L67.694,135.4058 L97.745,126.4168 L97.201,127.9008 L69.026,136.3288 Z" id="Fill-26" fill="#CAEBF3"></path>
            <g id="Group-30" transform="translate(75.000000, 143.305000)">
                <mask id="mask-8" fill="white">
                    <use xlink:href="#path-7"></use>
                </mask>
                <g id="Clip-29"></g>
                <path d="M28.9738,14.0497 C29.4448,9.5717 24.8568,0.2877 24.8568,0.2877 L0.5858,7.5477 C0.5858,7.5477 1.8498,17.8247 4.7018,21.3097 C7.0048,24.1227 28.5948,17.6657 28.9738,14.0497" id="Fill-28" fill="#726658" mask="url(#mask-8)"></path>
            </g>
            <path d="M103.9826,156.008 C103.6396,151.247 99.8576,143.593 99.8576,143.593 L75.5866,150.853 C75.5866,150.853 76.6286,159.326 78.9556,163.493 C84.8296,163.529 99.0926,159.264 103.9826,156.008" id="Fill-31" fill="#414042"></path>
            <polygon id="Fill-33" fill="#414042" points="75.1867 151.9944 101.2067 144.2124 100.7897 142.8164 74.7687 150.5984"></polygon>
        </g>
    </g>
</svg>