<?xml version="1.0" encoding="UTF-8"?>
<svg width="280px" height="73px" viewBox="0 0 280 73" version="1.1" xmlns="http://www.w3.org/2000/svg" xmlns:xlink="http://www.w3.org/1999/xlink">
    <!-- Generator: Sketch 51.3 (57544) - http://www.bohemiancoding.com/sketch -->
    <title>story_phone</title>
    <desc>Created with Sketch.</desc>
    <defs></defs>
    <g id="story_phone" stroke="none" stroke-width="1" fill="none" fill-rule="evenodd">
        <g id="Group-29" transform="translate(0.000000, 1.000000)" fill="#4A4A4A">
            <path d="M8.77641806,24.9279574 L20.8656321,24.9279574 L20.8656321,16.7366809 L8.77641806,16.7366809 L8.77641806,24.9279574 Z M8.77641806,13.4794468 L8.77641806,14.7049787 L20.6893244,14.7049787 L22.3457224,13.2215745 L27.7742107,14.2211489 L26.0820401,15.7371064 L26.0820401,29.4100851 L20.8656321,29.4100851 L20.8656321,27.0241277 L8.77641806,27.0241277 L8.77641806,29.4745532 L3.52487625,29.4745532 L3.52487625,13.4794468 L8.77641806,13.4794468 Z M16.49499,0.806042553 C15.8255318,1.51582979 15.120301,2.16051064 14.415709,2.83774468 C12.0189465,5.09540426 7.01397993,7.28795745 3.77145151,8.41646809 C5.95677258,8.41646809 8.14209365,8.41646809 10.2916421,8.38455319 C14.5568829,8.32008511 18.7863512,8.12668085 23.0158194,8.02965957 C21.5708629,5.67561702 19.7375184,3.93434043 17.3056221,2.41838298 L17.6933712,2.16051064 C21.0770736,3.25710638 24.0027592,3.12817021 27.3155552,5.74008511 C28.3376288,6.54625532 29.8534916,8.70689362 29.8534916,9.99689362 C29.8534916,11.4158298 28.4436689,12.0930638 27.0338462,12.0930638 C26.5049231,12.0930638 25.3774482,11.7707234 25.0599666,11.3194468 C24.6370836,10.7066809 24.2493344,10.0939149 23.8615853,9.44859574 L23.4387023,8.7713617 C21.3945552,9.41668085 19.3146355,9.96434043 17.2002207,10.4162553 C11.9129064,11.5766809 6.16821405,11.9315745 0.775498328,12.4154043 L0,8.32008511 C0.458016722,8.28753191 0.916672241,8.22306383 1.33955518,8.12668085 C2.07928094,7.9326383 3.27766221,6.93306383 3.80658528,6.48178723 C5.88586622,4.74051064 7.64830435,3.09561702 9.02299331,0.806042553 L16.49499,0.806042553 Z" id="Fill-1"></path>
            <path d="M64.2504836,16.188383 C64.0039084,16.188383 63.7215605,16.1564681 63.4749853,16.0275319 C62.8055271,15.7045532 62.8757946,15.2532766 62.8406609,14.6079574 C62.8055271,14.1566809 62.7346207,13.7054043 62.5589518,13.2860426 C62.3826441,12.834766 62.1354301,12.3834894 61.8537211,11.9960426 L62.2063365,11.8026383 C63.0872361,12.3509362 63.9687746,12.9637021 64.7794067,13.608383 C65.2374234,13.9632766 65.6954401,14.4471064 65.6954401,15.0273191 C65.6954401,15.8660426 65.0962495,16.188383 64.2504836,16.188383 Z M60.6553398,15.9624255 C59.9149753,15.9624255 59.386691,15.5437021 59.386691,14.8664681 C59.386691,14.4145532 59.4569585,13.9307234 59.4569585,13.4475319 C59.4569585,12.7377447 59.2806508,12.4798723 58.963808,11.8026383 L59.386691,11.6737021 C60.3378582,12.4154043 62.0300288,13.608383 62.0300288,14.8339149 C62.0300288,15.6081702 61.4659719,15.9624255 60.6553398,15.9624255 Z M60.6904736,7.57838298 L58.012002,9.67455319 L61.8537211,9.06178723 C61.4308381,8.25561702 61.3957043,8.22306383 60.6904736,7.57838298 Z M63.7924669,11.4802979 C62.5231793,11.4802979 62.5231793,10.8994468 62.1354301,9.89987234 C60.3736308,10.6096596 58.5409251,11.1579574 56.7433532,11.8026383 L55.3686642,9.99689362 C57.1304635,9.25519149 58.2234435,8.02965957 59.3157846,6.6107234 L55.8969485,7.41689362 L55.4389318,5.51412766 C55.685507,5.38519149 55.8969485,5.22434043 56.1441625,5.06285106 C57.2365037,4.22412766 58.1883097,1.67668085 58.6463264,0.451787234 L61.994895,1.00008511 C61.1842629,1.96710638 60.1973231,3.22455319 59.1752495,4.0313617 L57.3425438,5.48221277 L60.1264167,5.28880851 C60.6904736,4.45008511 60.8667813,4.09519149 61.2896642,3.12817021 L64.6382328,3.6113617 C63.5101191,4.96582979 62.5589518,5.96604255 61.2896642,7.22348936 C62.4880455,7.70731915 65.2725572,8.70689362 65.2725572,10.158383 C65.2725572,10.8675319 64.5679652,11.4802979 63.7924669,11.4802979 Z M51.3506375,14.2217872 L53.0421692,14.2217872 L53.0421692,12.3509362 L51.3506375,12.3509362 L51.3506375,14.2217872 Z M48.9187411,6.86859574 L55.0869552,6.86859574 L55.0869552,5.51412766 L48.9187411,5.51412766 L48.9187411,6.86859574 Z M48.8478348,9.38412766 L55.1565839,9.38412766 L55.1565839,8.02965957 L48.8478348,8.02965957 L48.8478348,9.38412766 Z M47.7203599,4.25668085 L47.7203599,2.80582979 L50.9980221,2.80582979 C50.0813498,1.9026383 50.9277545,1.64476596 49.5179318,0.483702128 L49.8347746,0.193276596 C51.0331559,0.128808511 53.7474,0.225829787 53.7116274,1.9026383 C53.7116274,2.25753191 53.4299184,2.57987234 53.1833431,2.80582979 L55.7564134,2.80582979 L55.7564134,4.25668085 L47.7203599,4.25668085 Z M59.1752495,22.0575319 L59.1752495,21.444766 L46.8388214,21.444766 L46.486206,22.8637021 L60.3027244,22.8637021 L61.572012,22.0575319 L59.1752495,22.0575319 Z M44.6535003,16.6722128 C44.0894435,16.6722128 43.8077344,16.4788085 43.8077344,15.9305106 C43.8077344,15.2532766 44.1954836,14.6405106 44.1954836,13.9632766 C44.1954836,13.3505106 44.0894435,12.7377447 44.0543097,12.1249787 L44.4771926,12.0605106 C45.3587311,12.9962553 46.3808047,14.0277447 46.3808047,15.3502979 C46.3808047,16.3173191 45.6404401,16.6722128 44.6535003,16.6722128 Z M45.3587311,8.38455319 L43.4902528,9.86795745 L45.9579217,9.48114894 C45.781614,9.06178723 45.6404401,8.7713617 45.3587311,8.38455319 Z M64.7436341,24.089234 C64.5321926,25.2822128 64.3916575,26.4758298 64.0390421,27.6043404 C63.5101191,29.1841277 61.9239886,29.4745532 60.3736308,29.6034894 C59.8095739,29.6679574 59.2455171,29.7005106 58.6814602,29.7005106 C57.6242528,29.7005106 58.3997512,28.9588085 57.4830789,28.2171064 C57.0250622,27.8302979 55.0160488,27.5398723 54.4168582,27.4754043 L54.5222595,26.9915745 C55.7915472,27.0885957 57.060196,27.2175319 58.3288448,27.2175319 C59.1752495,27.2175319 59.9507478,27.1205106 60.1264167,26.2173191 C60.2675906,25.5726383 60.3736308,24.9273191 60.4790321,24.3145532 L46.0633231,24.3145532 L44.5832328,25.5726383 L41.0941291,24.089234 L42.5742194,23.0896596 L43.2788114,19.542 L47.2617043,19.6390213 L47.1211692,19.9939149 L59.1752495,19.9939149 L59.1752495,18.6394468 L43.1031425,18.6394468 L43.1031425,17.0915745 L59.0340756,17.0915745 L60.4438983,16.1564681 L64.7436341,16.8011489 L63.2635438,17.8977447 L63.2635438,22.0575319 L62.0651625,22.0575319 L66.0480555,23.1541277 L64.7436341,24.089234 Z M56.7433532,16.2528511 C56.355604,16.2528511 56.0029886,16.1239149 55.7564134,15.8334894 L55.7564134,16.4788085 L53.0421692,16.4788085 L53.0421692,15.5437021 L51.3506375,15.5437021 L51.3506375,16.4788085 L48.6012595,16.4788085 L48.6012595,15.8334894 C48.2837779,15.9949787 47.860895,16.188383 47.5089184,16.188383 C47.2265706,16.188383 47.0853967,16.092 47.0151291,15.8660426 C46.6976475,15.1243404 46.7334201,14.2862553 46.5922462,13.4794468 C46.486206,12.8666809 46.3105371,12.5443404 46.0281893,11.9641277 L46.4159385,11.8026383 C47.1914368,12.3834894 48.0020689,13.0281702 48.6012595,13.7698723 L48.6012595,11.1898723 C48.2135104,11.3194468 47.7906274,11.4477447 47.3677445,11.4477447 C46.6625137,11.4477447 46.3808047,10.932 46.2396308,10.3837021 C44.7595405,10.932 43.3145839,11.609234 41.8338548,12.1894468 L40.5300722,10.2866809 C42.3979117,9.54561702 42.8910622,8.80391489 43.9840421,7.28795745 L41.517012,8.28753191 L40.2125906,6.44987234 C40.4591659,6.32093617 40.7063799,6.15944681 40.9178214,5.96604255 C41.3407043,5.61114894 42.7856609,2.83774468 42.9619686,2.19306383 L43.2436776,1.22540426 L46.9799953,1.70923404 C45.7113465,3.38604255 44.1252161,4.77242553 42.5039518,6.15944681 L44.9709819,5.67561702 C45.2878247,5.22434043 45.4641324,4.80497872 45.7113465,4.32114894 L48.812701,4.9013617 L45.8870154,7.86817021 C47.2265706,8.48093617 48.7775672,9.02923404 48.9890087,10.5451915 L51.3506375,10.5451915 L51.3506375,11.0609362 L52.9367679,11.0609362 L53.8879351,10.3837021 L56.3907378,11.544766 L55.7564134,11.9315745 L55.7564134,14.898383 C56.6724468,13.8668936 57.0250622,13.2215745 57.3067712,11.8671064 L57.7296542,11.8671064 C58.0822696,12.7377447 58.4348849,13.7054043 58.4348849,14.6405106 C58.4348849,15.5437021 57.8005605,16.2528511 56.7433532,16.2528511 Z M39.2607846,5.99795745 C37.6746542,5.99795745 37.2875438,5.44965957 37.005196,4.12774468 C36.8640221,3.57944681 36.6174468,3.06370213 36.300604,2.57987234 C35.8770823,1.93455319 35.2427579,1.38689362 34.6435672,0.870510638 L34.9961826,0.548170213 C36.6174468,0.90306383 41.4109719,1.61221277 41.3055706,4.0313617 C41.269798,5.12731915 40.4949385,5.99795745 39.2607846,5.99795745 Z M38.0624033,12.5768936 C37.2875438,12.5768936 36.4060054,12.1894468 36.1945639,11.4477447 C35.9479886,10.4807234 36.0182562,9.31965957 35.4899719,8.41646809 C35.2427579,7.96519149 34.7144736,7.44944681 34.2915906,7.09455319 L34.7144736,6.77221277 C35.9128548,7.12710638 38.3798849,8.02965957 39.4370923,8.73944681 C40.0362829,9.15817021 40.4949385,10.2228511 40.4949385,10.8349787 C40.4949385,11.9641277 39.1202495,12.5768936 38.0624033,12.5768936 Z M41.2346642,17.639234 C40.8820488,17.639234 40.5300722,17.5109362 40.2125906,17.382 C40.2125906,19.6715745 40.0714167,21.8960426 39.7545739,24.1537021 C39.6134,25.0568936 39.5431324,26.0239149 39.2256508,26.9271064 L38.6264602,28.7009362 L33.7978013,24.9598723 C36.4060054,21.8960426 38.2035773,18.1875319 39.2607846,14.4145532 L39.8248415,14.4471064 L40.1071893,16.0275319 C41.517012,14.8664681 42.221604,13.8988085 42.6796207,12.1575319 L43.1031425,12.1575319 C43.2788114,12.9962553 43.4902528,13.8024255 43.4902528,14.6724255 C43.4902528,15.9305106 42.9268348,17.639234 41.2346642,17.639234 Z" id="Fill-3"></path>
            <path d="M93.5720498,13.8988723 C93.5720498,14.1248298 93.7132237,14.4471702 94.0300666,14.4471702 C94.3124144,14.4471702 94.664391,14.253766 94.9467388,14.1248298 L94.9467388,9.44865957 L93.5720498,9.44865957 L93.5720498,13.8988723 Z M89.9417722,7.41695745 L89.9417722,3.77291489 L88.8136585,3.77291489 L88.7785247,7.41695745 L89.9417722,7.41695745 Z M83.7032906,24.9605745 L94.9467388,24.9605745 L94.9467388,21.477383 L83.7032906,21.477383 L83.7032906,24.9605745 Z M85.1833809,10.8350426 L85.1833809,9.44865957 L83.7032906,9.44865957 L83.7032906,17.1235532 C84.7956318,14.8665319 85.1833809,13.2861064 85.1833809,10.8350426 Z M92.5499763,17.3495106 C91.069886,17.3495106 89.9417722,17.1880213 89.9417722,15.5756809 L89.9417722,9.44865957 L88.743391,9.44865957 C88.4968157,14.3507872 88.2496017,15.3178085 83.7032906,18.0586596 L83.7032906,19.4456809 L94.9467388,19.4456809 L94.9467388,16.9301489 C94.1712405,17.2524894 93.3957421,17.3495106 92.5499763,17.3495106 Z M78.169401,1.74121277 L101.114953,1.74121277 L101.114953,3.77291489 L93.5720498,3.77291489 L93.5720498,7.41695745 L94.7704311,7.41695745 L96.2505214,6.19142553 L101.361528,7.1916383 L99.7753977,8.44908511 L99.7753977,29.4427021 L94.9467388,29.4427021 L94.9467388,27.0235532 L83.7032906,27.0235532 L83.7032906,29.3131277 L78.8037254,29.3131277 L78.8037254,6.54631915 L83.7032906,6.54631915 L83.7032906,7.41695745 L85.1833809,7.41695745 L85.2542873,3.77291489 L78.169401,3.77291489 L78.169401,1.74121277 Z M70.873712,1.48334043 C73.5521836,1.74121277 77.8525582,2.77334043 78.1342672,4.80504255 C78.4159763,6.64334043 76.5832706,7.48142553 75.2443542,6.90121277 C74.1513742,6.44993617 73.7636251,5.74014894 73.0590331,4.32121277 C72.53011,3.22461702 71.6843441,2.451 70.6622706,1.70929787 L70.873712,1.48334043 Z M70.3096552,9.19078723 C72.0369595,9.48121277 76.2664278,10.2867447 77.1473274,11.738234 C78.0282271,13.2216383 76.935886,15.1244043 74.9620064,14.7695106 C72.6712839,14.3507872 72.7064177,12.2539787 71.6134378,10.8675957 C71.1905548,10.3192979 70.5913642,9.86802128 70.0279462,9.44865957 L70.3096552,9.19078723 Z M76.794712,15.9950426 L77.217595,16.1239787 C77.1121936,21.4122766 76.1955214,25.1533404 72.9178592,29.5716383 L69.8516385,24.9599362 C72.952993,22.3154681 74.9268726,19.4131277 76.794712,15.9950426 Z" id="Fill-4"></path>
            <path d="M127.016916,25.0568936 L129.942602,25.0568936 L129.942602,16.6722128 L127.016916,16.6722128 L127.016916,25.0568936 Z M127.017555,13.8024255 L127.017555,14.6405106 L129.802067,14.6405106 L131.388197,13.1571064 L136.533699,14.124766 L134.947569,15.6726383 L134.947569,29.345617 L129.942602,29.345617 L129.942602,27.1530638 L127.017555,27.1530638 L127.017555,29.4100851 L121.942321,29.4100851 L121.942321,13.8024255 L127.017555,13.8024255 Z M115.21005,9.15817021 L126.065749,9.15817021 L126.065749,3.70838298 L115.21005,3.70838298 L115.21005,9.15817021 Z M111.26293,25.0888085 L114.329151,25.0888085 L114.329151,16.7366809 L111.26293,16.7366809 L111.26293,25.0888085 Z M115.21005,0.677106383 L115.21005,1.64476596 L125.924575,1.64476596 L127.687013,0.290297872 L133.256037,1.22540426 L131.528732,2.70880851 L131.528732,12.0930638 L126.065749,12.0930638 L126.065749,11.2224255 L115.21005,11.2224255 L115.21005,12.1894468 L109.852468,12.1894468 L109.852468,0.677106383 L115.21005,0.677106383 Z M111.262291,13.8024255 L111.262291,14.7049787 L114.22311,14.7049787 L115.668067,13.3505106 L120.779074,14.3507234 L119.192943,15.7690213 L119.192943,29.3781702 L114.329151,29.3781702 L114.329151,27.282 L111.262291,27.282 L111.262291,29.4426383 L106.363365,29.4426383 L106.363365,13.8024255 L111.262291,13.8024255 Z" id="Fill-5"></path>
            <path d="M157.396137,9.1907234 L163.176602,9.1907234 L163.176602,7.64285106 L157.396137,7.64285106 L157.396137,9.1907234 Z M157.396137,5.64370213 L163.176602,5.64370213 L163.176602,3.96689362 L157.396137,3.96689362 L157.396137,5.64370213 Z M165.643632,19.6715745 C165.291017,20.3162553 164.93904,20.9615745 164.586425,21.5737021 C163.916967,22.7028511 162.788853,23.7024255 161.731645,24.5405106 C158.629652,26.9915745 156.550371,27.8622128 152.708652,29.0551915 L152.497211,28.7328511 C154.188742,27.8302979 156.197756,26.604766 157.396137,25.1213617 C158.277037,24.024766 159.863167,21.8960426 160.250916,20.6060426 L160.533264,19.6715745 L165.643632,19.6715745 Z M157.396137,1.96710638 L163.070562,1.96710638 L164.621559,0.257744681 L169.97914,1.4513617 L168.28697,2.93476596 L168.28697,12.1894468 L163.176602,12.1894468 L163.176602,11.1898723 L157.396137,11.1898723 L157.396137,12.1894468 L152.285769,12.1894468 L152.285769,0.934978723 L157.396137,0.934978723 L157.396137,1.96710638 Z M150.91108,15.2207234 L171.318696,15.2207234 L171.318696,13.1571064 L150.91108,13.1571064 L150.91108,15.2207234 Z M144.249077,14.5434894 L144.249077,8.15859574 L140.724839,8.15859574 L140.724839,6.06242553 L144.249077,6.06242553 L144.249077,0.709021277 L149.148642,0.709021277 L149.148642,6.06242553 L151.545405,6.06242553 L151.545405,8.15859574 L149.148642,8.15859574 L149.148642,12.7702979 C149.994408,12.318383 150.875308,11.8671064 151.756846,11.4158298 L152.144595,11.7381702 C151.157656,12.834766 150.135582,13.8988085 149.148642,15.0273191 L149.148642,21.0260426 C150.946214,19.3811489 152.320903,17.6073191 153.131535,15.414766 L158.664786,15.414766 C158.312809,15.8979574 157.960194,16.3817872 157.537311,16.8337021 L165.855074,16.8337021 L167.40607,15.3822128 L172.587344,16.769234 L170.824906,18.252 C170.754639,20.154766 170.754639,22.0575319 170.683732,23.9928511 L170.613465,26.0239149 C170.543197,27.7977447 170.225716,28.8617872 168.146435,29.1841277 C167.159495,29.3130638 166.101649,29.4426383 165.115348,29.4426383 C164.93904,29.4426383 164.516157,29.4426383 164.374983,29.345617 C163.987234,28.9907234 164.445251,27.8622128 163.704886,27.378383 C163.070562,26.9590213 161.449298,26.7337021 160.744706,26.604766 L160.814973,26.1528511 C161.943087,26.1854043 163.141468,26.2498723 164.268943,26.2498723 C165.185615,26.2498723 165.608498,25.992 165.608498,25.1213617 C165.608498,24.702 165.678766,24.2500851 165.678766,23.8313617 L165.749672,18.929234 L155.210816,18.8973191 C153.236936,20.2837021 151.510271,20.9290213 149.148642,21.6062553 L149.148642,26.0564681 C151.933154,24.4760426 153.342977,22.4443404 154.576492,19.7034894 L159.616592,19.7034894 C157.502177,23.2505106 153.342977,25.5726383 149.148642,26.5077447 C149.148642,26.9590213 149.148642,27.4109362 149.042602,27.8622128 C148.725759,29.4100851 146.082421,29.7005106 144.707732,29.7005106 C142.028622,29.7005106 143.333043,29.2485957 142.80412,28.2171064 C142.663585,27.9585957 142.487278,27.7658298 142.240064,27.6368936 C141.923221,27.4754043 140.125649,27.1530638 139.7379,27.0560426 L139.7379,26.5722128 C140.830241,26.5722128 141.888087,26.7011489 142.945294,26.7011489 C143.614753,26.7011489 144.249077,26.6366809 144.249077,25.8949787 L144.249077,18.8328511 C143.403311,19.3485957 142.592679,19.8968936 141.676645,20.3162553 L139.843301,15.479234 C141.32403,15.1888085 142.80412,14.8664681 144.249077,14.5434894 Z" id="Fill-6"></path>
            <path d="M186.928953,25.2502979 L199.969973,25.2502979 L199.969973,17.6073191 L186.928953,17.6073191 L186.928953,25.2502979 Z M189.537157,9.06178723 C189.854639,9.31965957 190.277522,9.67455319 190.277522,10.0939149 L190.277522,11.1254043 C193.484916,9.2226383 195.916813,7.61093617 198.137268,4.74051064 L187.775358,4.74051064 C186.541843,5.99795745 185.554903,6.86859574 184.03904,7.83625532 C185.625171,7.96519149 188.268508,8.12668085 189.537157,9.06178723 Z M177.271635,11.1579574 L176.919659,10.932 C179.104341,8.93285106 180.901913,7.0626383 182.311736,4.51455319 C183.016967,3.25710638 183.54589,2.09604255 183.897866,0.741574468 L190.277522,0.741574468 C189.960679,1.38689362 189.643197,1.99902128 189.290582,2.61178723 L199.441689,2.61178723 L201.309528,1.16093617 L207.266301,2.322 C206.56107,2.83774468 205.856478,3.32157447 205.151247,3.83731915 L204.728365,4.45008511 C204.411522,4.93391489 204.023773,5.38519149 203.636023,5.83710638 C203.001699,6.6432766 202.226201,7.38434043 201.450702,8.09412766 C197.221234,11.9641277 192.568883,13.7054043 187.034993,15.3822128 L199.899706,15.3822128 L201.239261,13.8343404 L206.948819,15.0273191 L205.292421,16.4788085 L205.292421,29.4745532 L199.969973,29.4745532 L199.969973,27.5398723 L186.928953,27.5398723 L186.928953,29.5071064 L181.712545,29.5071064 L181.712545,16.5107234 C179.98588,16.769234 178.223441,17.0264681 176.461003,17.2205106 L176.320468,16.865617 C180.338495,15.8015745 184.180214,14.1566809 187.880759,12.3509362 C185.307689,12.318383 186.01292,10.8994468 184.955712,9.48114894 C184.603097,9.02923404 183.933,8.57795745 183.439849,8.25561702 C181.430836,9.31965957 179.386689,10.2228511 177.271635,11.1579574 Z" id="Fill-7"></path>
            <path d="M222.030793,16.9945532 L223.793231,16.9945532 L223.793231,12.1249787 L222.030793,12.1249787 L222.030793,16.9945532 Z M222.031431,9.48114894 L222.031431,10.319234 L223.652696,10.319234 L224.568729,9.38412766 L227.952431,10.2228511 L227.141799,11.1579574 L227.141799,19.8649787 L223.793231,19.8649787 L223.793231,18.768383 L222.031431,18.768383 L222.031431,19.8324255 L218.612595,19.8324255 L218.612595,9.48114894 L222.031431,9.48114894 Z M229.045411,20.8645532 L229.256853,20.9615745 L229.573696,20.4777447 C228.305047,16.3498723 228.058472,12.4154043 227.952431,8.15859574 L217.449348,8.15859574 L217.449348,6.35285106 L227.84703,6.35285106 L227.84703,3.99880851 L230.842983,3.99880851 L230.842983,6.35285106 L232.816224,6.35285106 C232.111632,5.96604255 232.076498,5.86902128 231.900191,5.15987234 C231.829923,4.99838298 231.759017,4.64348936 231.653615,4.51455319 L231.19496,3.96689362 L231.371268,3.80540426 C232.499381,3.96689362 234.050378,4.0632766 234.75497,4.99838298 C234.86101,5.15987234 234.931278,5.3207234 234.931278,5.48221277 C234.931278,5.7726383 234.402355,6.15944681 234.190913,6.35285106 L235.74191,6.35285106 L235.74191,8.15859574 L231.018652,8.15859574 C231.018652,11.0609362 231.265866,13.608383 231.547575,16.5432766 C232.428475,13.9951915 232.569649,12.8666809 232.957398,10.1258298 L236.23506,10.1258298 C235.600736,13.8988085 234.790104,16.4143404 232.464247,19.6390213 C232.675689,20.058383 233.415415,21.444766 233.979472,21.444766 C234.332087,21.444766 235.600736,18.3490213 235.74191,18.0911489 L236.164793,18.1230638 C235.953351,19.2196596 235.565602,20.3488085 235.565602,21.4773191 C235.565602,22.7028511 236.305967,22.799234 236.305967,23.315617 C236.305967,24.024766 235.530468,25.379234 234.613796,25.379234 C233.415415,25.379234 231.124692,22.734766 230.525502,21.9285957 C229.080545,23.315617 228.234779,23.9928511 226.437207,24.9598723 L226.084592,24.702 C227.212067,23.6698723 228.058472,22.7028511 228.939371,21.4773191 C225.873151,22.799234 222.665756,23.7668936 219.458361,24.702 L217.131866,22.1545532 C221.114759,21.9285957 225.132786,21.5417872 229.045411,20.8645532 Z M216.955559,26.3143404 L236.587676,26.3143404 L236.587676,3.51497872 L216.955559,3.51497872 L216.955559,26.3143404 Z M216.955559,0.77412766 L216.955559,1.70923404 L236.411368,1.70923404 L237.962365,0.290297872 L242.791023,1.32178723 L241.310933,2.57987234 L241.310933,29.6360426 L236.587676,29.6360426 L236.587676,28.1200851 L216.955559,28.1200851 L216.955559,29.6679574 L212.23294,29.6679574 L212.23294,0.77412766 L216.955559,0.77412766 Z" id="Fill-8"></path>
            <path d="M275.355374,27.7656383 C274.509608,27.7656383 273.804377,27.4432979 273.522668,26.6690426 C272.958611,25.1211702 272.888343,23.4443617 272.183113,21.8639362 C271.795364,20.9932979 271.513655,20.7998936 270.844196,20.1226596 L271.196173,19.8967021 C272.782303,20.6709574 275.884297,22.1224468 277.011772,23.3473404 C277.540695,23.8956383 278.033845,24.8632979 278.033845,25.5724468 C278.033845,26.7979787 276.553755,27.7656383 275.355374,27.7656383 Z M269.539775,4.19202128 C269.997792,5.77244681 270.491581,6.83648936 271.583922,8.15904255 C271.830497,7.41734043 272.183113,6.675 272.394554,5.93329787 C272.570862,5.35308511 272.74717,4.77287234 272.923477,4.19202128 L269.539775,4.19202128 Z M268.235354,6.54606383 C266.578956,9.57734043 265.275173,11.0932979 262.490661,13.3184043 L272.35942,13.3184043 C270.174099,10.9318085 269.328333,9.51287234 268.235354,6.54606383 Z M262.525795,4.19202128 C262.208313,4.67585106 261.891471,5.12776596 261.538855,5.61159574 C262.244086,5.70797872 263.477601,6.09478723 263.794444,6.70755319 L264.076792,7.25585106 C264.288233,6.90095745 264.534808,6.54606383 264.675982,6.15925532 C264.922558,5.51457447 265.169133,4.83734043 265.486614,4.19202128 L262.525795,4.19202128 Z M262.631835,8.70734043 C261.573989,8.70734043 261.503721,8.15904255 261.115972,7.38478723 C261.009932,7.15882979 260.904531,6.93351064 260.798491,6.70755319 C260.30534,7.35287234 259.776417,7.99755319 259.21236,8.61031915 C260.763357,8.93265957 261.680029,9.48095745 261.821203,10.7064894 C262.384621,10.0611702 262.843277,9.38393617 263.301293,8.64287234 C263.089852,8.67478723 262.843277,8.70734043 262.631835,8.70734043 Z M270.068698,19.0267021 L270.068698,27.1203191 C270.068698,28.9260638 268.30626,29.3460638 266.684996,29.571383 C266.33238,29.6032979 265.979765,29.667766 265.627149,29.667766 C263.124986,29.667766 265.133999,28.3458511 263.089852,27.4107447 C262.27922,27.0239362 261.362547,26.8305319 260.481648,26.6690426 L260.516782,26.3467021 C261.538855,26.4111702 262.525795,26.4430851 263.512735,26.4430851 C264.393634,26.4430851 265.133999,26.3141489 265.133999,25.3790426 L265.133999,19.0267021 L257.873444,19.0267021 L257.873444,16.9943617 L277.646096,16.9943617 L277.646096,19.0267021 L270.068698,19.0267021 Z M260.129032,11.7705319 C259.036691,11.7705319 258.965785,11.0288298 258.965785,10.2226596 C258.965785,9.6743617 258.930651,9.70691489 258.684076,9.19053191 C257.873444,9.93223404 256.956772,10.5775532 255.934698,11.0932979 C257.062812,12.9315957 256.816236,13.4154255 256.816236,15.7043617 C258.472634,14.511383 259.917591,13.1894681 261.18624,11.6415957 C260.834263,11.7060638 260.481648,11.7705319 260.129032,11.7705319 Z M255.546949,28.3458511 L255.300374,28.1205319 C258.014618,25.3790426 258.789477,23.7992553 259.952725,20.2841489 L264.605076,20.2841489 C262.596063,24.4120213 259.882457,26.4111702 255.546949,28.3458511 Z M251.599828,3.99861702 L251.599828,21.6060638 L252.057845,21.6060638 L252.30442,21.6060638 C253.18532,21.6060638 253.573069,21.5096809 253.573069,20.6384043 L253.573069,17.672234 L253.573069,14.8018085 C253.573069,13.5118085 253.714243,11.738617 252.868477,10.5775532 L252.057845,9.44840426 C253.326494,7.41734043 253.643976,6.35265957 253.820283,3.99861702 L251.599828,3.99861702 Z M279.514574,12.9315957 C278.492501,13.0605319 276.835464,13.5762766 276.835464,14.7373404 C276.835464,15.2856383 277.258347,15.8984043 277.505561,16.382234 L277.011772,16.6075532 C275.81339,15.8658511 274.579875,15.0596809 273.4524,14.1890426 L273.4524,15.3826596 L261.18624,15.3826596 L261.18624,14.1890426 C259.776417,15.092234 258.366594,15.801383 256.85137,16.5111702 C256.816236,17.1884043 256.816236,17.8330851 256.816236,18.5103191 C256.816236,19.4454255 256.886504,20.3805319 256.886504,21.3162766 C256.886504,22.8635106 256.217046,23.4762766 254.666049,23.8956383 C254.243166,23.9926596 253.749377,24.1215957 253.29136,24.1215957 C252.445594,24.1215957 252.515862,23.9926596 252.515862,23.3798936 C252.515862,22.7990426 252.163246,22.5411702 251.599828,22.4447872 L251.599828,29.5069149 L247.440628,29.5069149 L247.440628,0.77393617 L251.599828,0.77393617 L251.599828,1.96755319 L253.784511,1.96755319 L254.877491,0.77393617 L258.684076,1.61202128 L257.520828,2.70861702 C257.133079,4.67585106 256.604156,6.99797872 254.982892,8.44882979 L253.960818,9.35202128 C254.524875,9.77138298 255.088932,10.2226596 255.617855,10.7064894 C258.190287,7.57819149 258.930651,4.45053191 259.741283,0.709468085 L264.182193,0.709468085 C263.900484,1.16074468 263.653909,1.64457447 263.442467,2.12840426 L265.698056,2.12840426 L267.178146,0.999893617 L269.610042,2.12840426 L272.923477,2.12840426 L274.192126,0.870957447 L279.055919,1.70904255 L277.329253,3.03159574 C276.024832,5.57904255 274.756183,7.19138298 272.500594,9.12606383 C275.425641,11.3830851 275.884297,11.7060638 279.549708,12.5441489 L279.514574,12.9315957 Z" id="Fill-9"></path>
        </g>
        <g id="Group-19" transform="translate(15.000000, 41.000000)" fill="#4A4A4A">
            <path d="M23.7913177,10.747025 L25.8354649,10.747025 L25.8354649,9.39255692 L23.7913177,9.39255692 L23.7913177,10.747025 Z M26.0820401,21.6791527 L21.2885151,21.6791527 C20.9358997,21.9689399 20.5481505,22.2274505 20.1252676,22.453408 C21.006806,23.4848973 21.5702241,23.904259 22.7686054,24.613408 C24.1081605,23.6138335 24.9539264,22.8721314 26.0820401,21.6791527 Z M17.6575987,19.8083016 L21.7816656,19.8083016 L21.7816656,18.6153229 L17.6575987,18.6153229 L17.6575987,19.8083016 Z M17.6575987,16.777025 L21.7816656,16.777025 L21.7816656,15.5195782 L17.6575987,15.5195782 L17.6575987,16.777025 Z M20.5832843,25.9678761 C19.8786923,25.0008548 19.3497692,24.0976633 18.8566187,23.0655356 C18.1865217,23.3878761 17.4819298,23.6783016 16.776699,23.9361739 L16.776699,26.6776633 L20.5832843,25.9678761 Z M13.8516522,10.747025 L16.1072408,10.747025 L16.1072408,9.39255692 L13.8516522,9.39255692 L13.8516522,10.747025 Z M21.993107,2.94319522 C21.9579732,3.78128033 21.711398,4.07170586 21.1122074,4.62000373 L29.9940268,4.62000373 L29.9940268,6.39319522 L10.4679498,6.39319522 L10.4679498,4.62000373 L18.1865217,4.62000373 C17.9750803,4.49042926 17.728505,4.36213139 17.6231037,4.16872713 C17.2353545,3.71681224 17.4819298,2.13638671 16.7415652,1.68511011 L16.1423746,1.3302165 L16.2132809,1.07234416 C17.6231037,0.878939901 22.0640134,0.943407986 21.993107,2.94319522 Z M20.3718428,7.7476633 L20.3718428,7.20000373 L23.7906789,7.20000373 L23.7906789,7.7802165 L25.694291,7.7802165 L26.7163645,6.9095782 L30.1703344,7.7802165 L29.0428595,8.6183016 L29.0428595,12.4238335 L20.3718428,12.4238335 L20.3718428,7.94170586 L19.2092341,8.55383352 L19.2092341,12.4557484 L10.3976823,12.4557484 L10.3976823,7.20000373 L13.8516522,7.20000373 L13.8516522,7.7802165 L16.0018395,7.7802165 L17.1644482,6.78064203 L20.3718428,7.7476633 Z M4.37000334,26.0968122 L6.13244147,26.0968122 L6.13244147,20.6151101 L4.37000334,20.6151101 L4.37000334,26.0968122 Z M0.809993311,15.7455356 L9.33983612,15.7455356 L9.33983612,13.7783016 L0.809993311,13.7783016 L0.809993311,15.7455356 Z M0.809993311,11.3917059 L9.33983612,11.3917059 L9.33983612,9.39255692 L0.809993311,9.39255692 L0.809993311,11.3917059 Z M6.02704013,18.6153229 L7.33082274,17.4868122 L10.7496589,18.679791 L9.69245151,19.4859612 L9.69245151,24.9363867 C12.0540803,23.9361739 13.3936355,23.1625569 15.4729164,21.6791527 L10.2565084,21.6791527 L10.2565084,19.8083016 L13.3578629,19.8083016 L13.3578629,18.6153229 L10.855699,18.6153229 L10.855699,16.777025 L13.3578629,16.777025 L13.3578629,15.5195782 L10.8205652,15.5195782 L10.8205652,13.7783016 L13.3578629,13.7783016 L13.3578629,12.7787271 L17.6582375,12.7787271 L17.6582375,13.7783016 L21.7816656,13.7783016 L21.7816656,12.7787271 L26.1171739,12.7787271 L26.1171739,13.7783016 L29.6420502,13.7783016 L29.6420502,15.5195782 L26.1171739,15.5195782 L26.1171739,16.777025 L29.5008763,16.777025 L29.5008763,18.6153229 L26.1171739,18.6153229 L26.1171739,19.8083016 L30.3817759,19.8083016 L30.3817759,21.6791527 L26.5400569,21.6791527 L30.3115084,23.227025 C28.1261873,24.1946846 26.1523077,24.613408 23.7906789,25.1936208 C26.3286154,26.1612803 28.1261873,26.6131952 30.8755652,26.9029825 L30.8755652,27.1289399 C30.0649331,27.4512803 29.1482609,28.0321314 29.1482609,28.9346846 C29.1482609,29.3214931 29.3245686,29.773408 29.4306087,30.1276633 L29.2185284,30.3217059 C25.976,29.5800037 23.7906789,28.6123442 21.2533813,26.580642 C18.6100435,28.1285144 16.2484147,29.4185144 13.3578629,30.5795782 L11.6663311,27.4512803 C12.1594816,27.3548973 12.4769632,27.2259612 12.4769632,26.7095782 L12.4769632,25.1936208 C11.560291,25.3876633 10.6442575,25.5810676 9.69245151,25.7100037 L9.69245151,29.7089399 L6.13244147,29.7089399 L6.13244147,28.0640463 L4.37064214,28.0640463 L4.37064214,29.6119186 L0.634324415,29.6119186 L0.634324415,17.6802165 L4.37064214,17.6802165 L4.37064214,18.6153229 L6.02704013,18.6153229 Z M3.87685284,4.87787607 C3.4539699,4.45851437 3.80658528,2.6202165 3.20739465,2.04000373 L2.74873913,1.58872713 L2.92504682,1.36276969 C4.29973579,1.36276969 5.921,1.16936543 7.47199666,2.45936543 C7.93001338,2.84617394 8.03605351,3.36191862 7.93001338,3.94276969 C7.85974582,4.42596118 7.75370569,4.7489399 7.15451505,5.26468458 L9.90389298,5.26468458 L9.90389298,7.20000373 L0,7.20000373 L0,5.26468458 L4.37064214,5.26468458 C4.19433445,5.1676633 4.01802676,5.03872713 3.87685284,4.87787607 Z" id="Fill-11"></path>
            <path d="M52.1293144,19.0261702 L56.3236488,19.0261702 L56.3236488,10.9644681 L52.1293144,10.9644681 L52.1293144,19.0261702 Z M38.1364883,8.80382979 L38.1364883,2.38638298 L43.0711873,2.38638298 L43.0711873,8.80382979 L47.2655217,8.80382979 L47.2655217,1 L52.1293144,1 L52.1293144,8.80382979 L56.3236488,8.80382979 L56.3236488,1.03191489 L61.2583478,1.03191489 L61.2583478,8.80382979 L66.0870067,8.80382979 L66.0870067,10.9644681 L61.2583478,10.9644681 L61.2583478,23.3474468 L56.3236488,23.3474468 L56.3236488,21.1223404 L52.1293144,21.1223404 L52.1293144,23.3155319 L47.2655217,23.3155319 L47.2655217,10.9644681 L43.0711873,10.9644681 L43.0711873,26.572766 L64.1482609,26.572766 L64.1482609,28.636383 L42.9651472,28.636383 L41.6262308,29.7004255 L36.3740502,28.2814894 L38.1364883,26.8951064 L38.1364883,10.9644681 L35,10.9644681 L35,8.80382979 L38.1364883,8.80382979 Z" id="Fill-12"></path>
            <path d="M88.3628294,12.3514894 L93.7555452,12.3514894 L93.7555452,9.22319149 L88.3628294,9.22319149 L88.3628294,12.3514894 Z M88.3628294,7.28787234 L93.7555452,7.28787234 L93.7555452,4.09574468 L88.3628294,4.09574468 L88.3628294,7.28787234 Z M78.2826288,12.3514894 L83.4990368,12.3514894 L83.4990368,9.22319149 L78.2826288,9.22319149 L78.2826288,12.3514894 Z M78.2826288,7.28787234 L83.4990368,7.28787234 L83.4990368,4.09574468 L78.2826288,4.09574468 L78.2826288,7.28787234 Z M78.2826288,14.2542553 L78.2826288,15.3182979 L73.4539699,15.3182979 L73.4539699,1.51574468 L78.2826288,1.51574468 L78.2826288,2.16106383 L93.6501438,2.16106383 L95.0599666,1 L100.311508,1.96765957 L98.6551104,3.1606383 L98.6551104,15.3502128 L93.7555452,15.3502128 L93.7555452,14.2542553 L88.2574281,14.2542553 C89.0329264,14.7055319 89.8435585,15.1242553 90.6541906,15.543617 C93.1563545,16.8017021 98.7253779,17.1240426 101.615291,17.1565957 L101.721331,17.5108511 C101.439622,17.6397872 101.192408,17.8012766 100.945833,17.9946809 C100.311508,18.4465957 99.8177191,19.5751064 99.8177191,20.3168085 C99.8177191,20.6065957 99.958893,20.8970213 100.064933,21.1548936 L99.7474515,21.4134043 C98.0201472,21.0259574 96.2934816,20.5421277 94.601311,19.9619149 L94.601311,30.0553191 L89.6321171,30.0553191 L89.6321171,18.8008511 L91.6762642,18.8008511 C89.4558094,17.7042553 88.4337358,17.0270213 86.9178729,15.1893617 C84.2042676,16.8661702 81.6663311,17.9946809 78.4940702,18.8653191 L82.2655217,18.9297872 C82.0540803,20.0908511 81.9129064,21.2519149 81.5251572,22.4123404 C80.8908328,24.2831915 79.6221839,25.6695745 78.1063211,27.0240426 C76.591097,28.4104255 72.9959532,29.4751064 70.9869398,30.0553191 L70.704592,29.7648936 C73.7005452,27.9917021 76.0621739,25.9919149 76.5553244,22.5738298 C76.7316321,21.5097872 76.7316321,20.4457447 76.7667659,19.3491489 C74.5820836,19.7685106 72.36099,20.1234043 70.1405351,20.2842553 L70,19.9293617 C72.5021639,19.2202128 75.0752341,18.3495745 77.2605552,16.9951064 C78.6001104,16.1889362 80.0099331,15.3182979 81.1725418,14.2542553 L78.2826288,14.2542553 Z" id="Fill-13"></path>
            <path d="M116.538856,26.7342553 L127.64113,26.7342553 L127.64113,25.2182979 L116.538856,25.2182979 L116.538856,26.7342553 Z M116.538856,23.2185106 L127.64113,23.2185106 L127.64113,21.7351064 L116.538856,21.7351064 L116.538856,23.2185106 Z M116.538856,19.7034043 L127.64113,19.7034043 L127.64113,18.1874468 L116.538856,18.1874468 L116.538856,19.7034043 Z M106,20.7355319 C107.692171,19.8004255 109.806585,18.0910638 111.111007,16.7691489 C111.639291,16.2208511 112.13308,15.64 112.626231,15.0597872 C113.155154,14.4470213 113.684077,13.8023404 114.10696,13.1251064 L106.211441,13.1251064 L106.211441,11.1253191 L115.445876,11.1253191 C116.045067,10.3517021 116.397682,9.48106383 116.820565,8.64234043 L108.819645,8.67489362 L108.819645,6.64319149 L117.702104,6.64319149 C117.878411,6.03042553 118.089853,5.41765957 118.230388,4.80489362 C114.846686,4.67595745 111.392716,4.51510638 108.044786,3.96680851 L108.044786,3.5793617 C113.296328,3.45042553 118.512736,2.80574468 123.658237,2.03148936 C125.491582,1.74106383 127.288515,1.4512766 129.050953,1 L134.232227,3.77276596 C130.883659,4.54702128 127.324288,4.74042553 123.905452,4.83680851 C123.729144,5.44957447 123.517702,6.03042553 123.270488,6.64319149 L134.197094,6.64319149 L134.197094,8.67489362 L122.389589,8.64234043 C121.896438,9.48106383 121.472916,10.3191489 120.944632,11.1253191 L137.122779,11.1253191 L137.122779,13.1251064 L119.393635,13.1251064 C118.512736,14.1565957 117.596064,14.9953191 116.538856,15.8659574 L116.538856,16.1882979 L127.500595,16.1882979 L128.804378,14.962766 L134.373401,15.8334043 L133.104114,17.0270213 L133.104114,29.9908511 L127.64113,29.9908511 L127.64113,28.6682979 L116.538856,28.6682979 L116.538856,29.9908511 L111.216408,29.9908511 L111.216408,19.0261702 C109.56001,19.8004255 107.97388,20.4451064 106.247214,21.0904255 L106,20.7355319 Z" id="Fill-14"></path>
            <path d="M169.866552,20.1868085 C169.901686,21.2508511 169.936819,23.4440426 170.500876,24.3146809 C171.135201,25.3461702 172.721331,25.1534043 172.721331,25.7017021 C172.721331,25.9589362 172.333582,26.6687234 172.228181,26.9265957 C171.170973,29.2487234 168.491863,29.1517021 166.130234,29.1517021 L165.49591,29.1517021 C164.156993,29.1517021 161.865632,29.1842553 160.561849,28.9582979 C159.187161,28.7004255 158.376528,27.8617021 158.376528,26.5717021 L158.376528,18.0261702 L163.416629,18.0261702 L163.416629,25.9914894 C163.416629,26.8946809 165.214201,26.7331915 165.813391,26.7331915 C166.236274,26.7331915 166.835465,26.7331915 167.223214,26.5397872 C167.646097,26.346383 167.892672,25.83 167.998712,25.4431915 C168.56213,23.7019149 168.94988,21.9931915 169.197094,20.1868085 L169.866552,20.1868085 Z M150.022993,15.2534043 L164.791318,15.2534043 L164.791318,12.8023404 L150.022993,12.8023404 L150.022993,15.2534043 Z M150.022993,10.7706383 L164.791318,10.7706383 L164.791318,7.99723404 L150.022993,7.99723404 L150.022993,10.7706383 Z M150.022993,5.96617021 L164.791318,5.96617021 L164.791318,3.64404255 L150.022993,3.64404255 L150.022993,5.96617021 Z M164.685278,1.61170213 L165.953926,0 L171.382415,1.03148936 L169.796284,2.64382979 L169.796284,18.2195745 L164.791318,18.2195745 L164.791318,17.2844681 L150.022993,17.2844681 L150.022993,18.0261702 L145.053161,18.0261702 L145.053161,1.03148936 L150.022993,1.03148936 L150.022993,1.61170213 L164.685278,1.61170213 Z M146.111007,26.3138298 C147.414789,25.4112766 148.436863,24.347234 148.89488,22.8957447 C149.388669,21.2834043 149.60011,19.7355319 149.776418,18.0906383 L155.134,18.0906383 C155.02796,19.3487234 154.851652,20.5417021 154.499037,21.767234 C153.794445,24.1531915 151.820565,25.637234 149.60011,26.8621277 C147.379656,28.1202128 143.784512,28.9902128 141.246575,29.5385106 L141,29.1517021 C142.762438,28.3455319 144.524876,27.4104255 146.111007,26.3138298 Z" id="Fill-15"></path>
            <path d="M186.776418,25.1219149 L198.865632,25.1219149 L198.865632,16.9306383 L186.776418,16.9306383 L186.776418,25.1219149 Z M186.776418,13.6734043 L186.776418,14.8989362 L198.689324,14.8989362 L200.345722,13.4155319 L205.773572,14.4151064 L204.08204,15.9310638 L204.08204,29.6040426 L198.865632,29.6040426 L198.865632,27.2180851 L186.776418,27.2180851 L186.776418,29.6685106 L181.524237,29.6685106 L181.524237,13.6734043 L186.776418,13.6734043 Z M194.49499,1 C193.825532,1.70978723 193.120301,2.35446809 192.415709,3.03170213 C190.018946,5.2893617 185.01398,7.48191489 181.771452,8.61042553 C183.956773,8.61042553 186.142094,8.61042553 188.291642,8.57851064 C192.556883,8.51404255 196.786351,8.3206383 201.015819,8.22361702 C199.570224,5.86957447 197.737518,4.12829787 195.305622,2.61234043 L195.693371,2.35446809 C199.077074,3.45106383 202.002759,3.32212766 205.315555,5.93404255 C206.337629,6.74021277 207.853492,8.90085106 207.853492,10.1908511 C207.853492,11.6097872 206.443669,12.2870213 205.033846,12.2870213 C204.504923,12.2870213 203.376809,11.9646809 203.059967,11.5134043 C202.637084,10.9006383 202.249334,10.2878723 201.861585,9.64255319 L201.438702,8.96531915 C199.394555,9.6106383 197.314635,10.1582979 195.200221,10.6102128 C189.912906,11.7706383 184.168214,12.1255319 178.775498,12.6093617 L178,8.51404255 C178.458017,8.48148936 178.916033,8.41702128 179.339555,8.3206383 C180.079281,8.12659574 181.277662,7.12702128 181.806585,6.67574468 C183.885866,4.93446809 185.648304,3.28957447 187.022993,1 L194.49499,1 Z" id="Fill-16"></path>
            <path d="M241.452682,17.0089502 C241.206107,17.0089502 240.923759,16.9770353 240.677184,16.8480992 C240.007726,16.5251205 240.077993,16.0738439 240.04286,15.4285247 C240.007726,14.9772481 239.936819,14.5259715 239.761151,14.1066098 C239.584843,13.6553332 239.337629,13.2040566 239.05592,12.8166098 L239.408535,12.6232056 C240.289435,13.1715034 241.170973,13.7842694 241.981605,14.4289502 C242.439622,14.7838439 242.897639,15.2676736 242.897639,15.8478864 C242.897639,16.6866098 242.298448,17.0089502 241.452682,17.0089502 Z M237.857538,16.7829928 C237.117174,16.7829928 236.58889,16.3642694 236.58889,15.6870353 C236.58889,15.2351205 236.659157,14.7512907 236.659157,14.2680992 C236.659157,13.5583119 236.482849,13.3004396 236.166007,12.6232056 L236.58889,12.4942694 C237.540057,13.2359715 239.232227,14.4289502 239.232227,15.6544822 C239.232227,16.4287375 238.668171,16.7829928 237.857538,16.7829928 Z M237.892672,8.39895024 L235.214201,10.4951205 L239.05592,9.8823545 C238.633037,9.07618429 238.597903,9.04363109 237.892672,8.39895024 Z M240.994666,12.3008651 C239.725378,12.3008651 239.725378,11.7200141 239.337629,10.7204396 C237.575829,11.4302268 235.743124,11.9785247 233.945552,12.6232056 L232.570863,10.8174609 C234.332662,10.0757588 235.425642,8.85022684 236.517983,7.43129067 L233.099147,8.23746088 L232.64113,6.33469492 C232.887706,6.20575875 233.099147,6.04490769 233.346361,5.88341833 C234.438702,5.04469492 235.390508,2.49724812 235.848525,1.2723545 L239.197094,1.82065237 C238.386462,2.78767365 237.399522,4.04512046 236.377448,4.85192897 L234.544742,6.30278003 L237.328615,6.10937577 C237.892672,5.27065237 238.06898,4.91575875 238.491863,3.94873748 L241.840431,4.43192897 C240.712318,5.78639705 239.761151,6.78660982 238.491863,8.04405663 C239.690244,8.52788641 242.474756,9.52746088 242.474756,10.9789502 C242.474756,11.6880992 241.770164,12.3008651 240.994666,12.3008651 Z M228.552836,15.0423545 L230.244368,15.0423545 L230.244368,13.1715034 L228.552836,13.1715034 L228.552836,15.0423545 Z M226.12094,7.68916301 L232.289154,7.68916301 L232.289154,6.33469492 L226.12094,6.33469492 L226.12094,7.68916301 Z M226.050033,10.2046949 L232.358783,10.2046949 L232.358783,8.85022684 L226.050033,8.85022684 L226.050033,10.2046949 Z M224.922559,5.07724812 L224.922559,3.62639705 L228.200221,3.62639705 C227.283548,2.72320556 228.129953,2.46533322 226.72013,1.30426939 L227.036973,1.01384386 C228.235355,0.949375775 230.949599,1.04639705 230.913826,2.72320556 C230.913826,3.07809918 230.632117,3.4004396 230.385542,3.62639705 L232.958612,3.62639705 L232.958612,5.07724812 L224.922559,5.07724812 Z M236.377448,22.8780992 L236.377448,22.2653332 L224.04102,22.2653332 L223.688405,23.6842694 L237.504923,23.6842694 L238.774211,22.8780992 L236.377448,22.8780992 Z M221.855699,17.49278 C221.291642,17.49278 221.009933,17.2993758 221.009933,16.7510779 C221.009933,16.0738439 221.397682,15.4610779 221.397682,14.7838439 C221.397682,14.1710779 221.291642,13.5583119 221.256508,12.945546 L221.679391,12.8810779 C222.56093,13.8168226 223.583003,14.8483119 223.583003,16.1708651 C223.583003,17.1378864 222.842639,17.49278 221.855699,17.49278 Z M222.56093,9.20512046 L220.692452,10.6885247 L223.16012,10.3017162 C222.983813,9.8823545 222.842639,9.59192897 222.56093,9.20512046 Z M241.945833,24.9098013 C241.734391,26.10278 241.593856,27.2963971 241.241241,28.4249077 C240.712318,30.0046949 239.126187,30.2951205 237.575829,30.4240566 C237.011773,30.4885247 236.447716,30.5210779 235.883659,30.5210779 C234.826452,30.5210779 235.60195,29.7793758 234.685278,29.0376736 C234.227261,28.6508651 232.218247,28.3604396 231.619057,28.2959715 L231.724458,27.8121417 C232.993746,27.909163 234.262395,28.0380992 235.531043,28.0380992 C236.377448,28.0380992 237.152946,27.9410779 237.328615,27.0378864 C237.469789,26.3932056 237.575829,25.7478864 237.681231,25.1351205 L223.265522,25.1351205 L221.785431,26.3932056 L218.296328,24.9098013 L219.776418,23.9102268 L220.48101,20.3625673 L224.463903,20.4595885 L224.323368,20.8144822 L236.377448,20.8144822 L236.377448,19.4600141 L220.305341,19.4600141 L220.305341,17.9121417 L236.236274,17.9121417 L237.646097,16.9770353 L241.945833,17.6217162 L240.465742,18.7183119 L240.465742,22.8780992 L239.267361,22.8780992 L243.250254,23.9746949 L241.945833,24.9098013 Z M233.945552,17.0734183 C233.557803,17.0734183 233.205187,16.9444822 232.958612,16.6540566 L232.958612,17.2993758 L230.244368,17.2993758 L230.244368,16.3642694 L228.552836,16.3642694 L228.552836,17.2993758 L225.803458,17.2993758 L225.803458,16.6540566 C225.485977,16.815546 225.063094,17.0089502 224.711117,17.0089502 C224.428769,17.0089502 224.287595,16.9125673 224.217328,16.6866098 C223.899846,15.9449077 223.935619,15.1068226 223.794445,14.3000141 C223.688405,13.6872481 223.512736,13.3649077 223.230388,12.7846949 L223.618137,12.6232056 C224.393635,13.2040566 225.204268,13.8487375 225.803458,14.5904396 L225.803458,12.0104396 C225.415709,12.1400141 224.992826,12.2683119 224.569943,12.2683119 C223.864712,12.2683119 223.583003,11.7525673 223.441829,11.2042694 C221.961739,11.7525673 220.516783,12.4298013 219.036054,13.0100141 L217.732271,11.1072481 C219.60011,10.3661843 220.093261,9.62448216 221.186241,8.10852471 L218.719211,9.10809918 L217.414789,7.2704396 C217.661365,7.14150343 217.908579,6.98001407 218.12002,6.78660982 C218.542903,6.4317162 219.98786,3.65831195 220.164167,3.01363109 L220.445876,2.04597152 L224.182194,2.52980131 C222.913545,4.20660982 221.327415,5.5929928 219.706151,6.98001407 L222.173181,6.49618429 C222.490023,6.04490769 222.666331,5.62554599 222.913545,5.1417162 L226.0149,5.72192897 L223.089214,8.68873748 C224.428769,9.30150343 225.979766,9.84980131 226.191207,11.3657588 L228.552836,11.3657588 L228.552836,11.8815034 L230.138967,11.8815034 L231.090134,11.2042694 L233.592936,12.3653332 L232.958612,12.7521417 L232.958612,15.7189502 C233.874645,14.6874609 234.227261,14.0421417 234.50897,12.6876736 L234.931853,12.6876736 C235.284468,13.5583119 235.637084,14.5259715 235.637084,15.4610779 C235.637084,16.3642694 235.002759,17.0734183 233.945552,17.0734183 Z M216.462983,6.81852471 C214.876853,6.81852471 214.489742,6.27022684 214.207395,4.94831195 C214.066221,4.40001407 213.819645,3.88426939 213.502803,3.4004396 C213.079281,2.75512046 212.444957,2.20746088 211.845766,1.6910779 L212.198381,1.36873748 C213.819645,1.72363109 218.613171,2.43278003 218.507769,4.85192897 C218.471997,5.94788641 217.697137,6.81852471 216.462983,6.81852471 Z M215.264602,13.3974609 C214.489742,13.3974609 213.608204,13.0100141 213.396763,12.2683119 C213.150187,11.3012907 213.220455,10.1402268 212.692171,9.23703535 C212.444957,8.78575875 211.916672,8.27001407 211.493789,7.91512046 L211.916672,7.59278003 C213.115054,7.94767365 215.582084,8.85022684 216.639291,9.56001407 C217.238482,9.97873748 217.697137,11.0434183 217.697137,11.655546 C217.697137,12.7846949 216.322448,13.3974609 215.264602,13.3974609 Z M218.436863,18.4598013 C218.084247,18.4598013 217.732271,18.3315034 217.414789,18.2025673 C217.414789,20.4921417 217.273615,22.7166098 216.956773,24.9742694 C216.815599,25.8774609 216.745331,26.8444822 216.427849,27.7476736 L215.828659,29.5215034 L211,25.7804396 C213.608204,22.7166098 215.405776,19.0080992 216.462983,15.2351205 L217.02704,15.2676736 L217.309388,16.8480992 C218.719211,15.6870353 219.423803,14.7193758 219.881819,12.9780992 L220.305341,12.9780992 C220.48101,13.8168226 220.692452,14.6229928 220.692452,15.4929928 C220.692452,16.7510779 220.129033,18.4598013 218.436863,18.4598013 Z" id="Fill-17"></path>
            <path d="M252.168714,20.1885106 L250.018527,20.1885106 L248.115553,4 L254.247995,4 L252.168714,20.1885106 Z M251.710697,28.2502128 C250.758891,28.4117021 249.771951,28.1857447 249.031587,27.5410638 C248.256089,26.896383 247.939246,26.0576596 248.009513,25.09 C248.08042,24.316383 248.468169,23.6391489 249.137627,23.1234043 C249.877992,22.5751064 250.794025,22.3491489 251.745831,22.4780851 C252.591597,22.6070213 253.402229,23.1553191 253.860246,23.8006383 C254.142594,24.2193617 254.318901,24.6706383 254.354035,25.1225532 C254.389169,25.5419149 254.318901,25.9606383 254.177727,26.3480851 C253.825112,27.3802128 252.838172,28.0574468 251.710697,28.2502128 Z" id="Fill-18"></path>
        </g>
    </g>
</svg>