{
	"info": [
		{
			"info-img": "img/ev1.png",
			"info-txt": "域名註冊新選擇–「日文語.tw」全新開放擁有最多可註冊網域名稱組合，歡迎註冊使用，取得最具特色的網域名稱！",
			"info-href": "<a href='http://xn--p8jh5i5d.tw/?utm_source=52168&utm_medium=web&utm_campaign=2018_mv' class='ac-btn hvr-back-pulse'>了解更多</a>"
		}, {
			"info-img": "img/ev2.jpg",
			"info-txt": "「域名飄、愛心揚、根留台灣」慈善捐款活動自2018年9月1日起至10月31日止，提撥固定比例之域名註冊費作為公益用途，幫助弱勢族群或偏遠地區，貢獻棉薄之力。",
			"info-href": "<a href='http://lovetw.tw/?utm_source=52168&utm_medium=web&utm_campaign=2018_mv' class='ac-btn hvr-back-pulse'>了解更多</a>"
			
		}, {
			"info-img": "img/ev3.png",
			"info-txt": "at.tw 翻轉域名實驗計畫【2018年5月28日(一)下午2:00】服務正式上線，全面開放免費試用。長到記不住的網址，TWNIC幫您翻轉。",
			"info-href": "<a href='https://at.twnic.net.tw/?utm_source=52168&utm_medium=web&utm_campaign=2018_mv' class='ac-btn hvr-back-pulse'>了解更多</a>"
		},
		
		{
			
		}
	]
}
