{
	"movies": [
		{
			"movie-img": "img/vide.jpg",
			"movie-title": "[[域名新時代]]",
			"movie-txt": "推廣活動消息頁面，各活動均以欄位形式呈現。顯示出各活動名稱、代表圖與簡短文字敘述，使用者點擊後連結至該活動網站。代表圖尺寸固定尺寸為547 x 355 pix1",
			"Class-vide-text":"vide-text",
			"play-icon":"<a class='show-mv' href='https://www.youtube.com/embed/bnyR69Nf0kI'><img src='img/icons/play.svg' /></a>"
		}, {
			"movie-img": "img/vide.jpg",
			"movie-title": "[[域名新時代]]",
			"movie-txt": "推廣活動消息頁面，各活動均以欄位形式呈現。顯示出各活動名稱、代表圖與簡短文字敘述，使用者點擊後連結至該活動網站。代表圖尺寸固定尺寸為547 x 355 pix2",
			"Class-vide-text":"vide-text",
			"play-icon":"<a class='show-mv' href='https://www.youtube.com/embed/bnyR69Nf0kI'><img src='img/icons/play.svg' /></a>"
		}, {
			"movie-img": "img/vide.jpg",
			"movie-title": "[[域名新時代]]",
			"movie-txt": "推廣活動消息頁面，各活動均以欄位形式呈現。顯示出各活動名稱、代表圖與簡短文字敘述，使用者點擊後連結至該活動網站。代表圖尺寸固定尺寸為547 x 355 pix3",
			"Class-vide-text":"vide-text",
			"play-icon":"<a class='show-mv' href='https://www.youtube.com/embed/bnyR69Nf0kI'><img src='img/icons/play.svg' /></a>"
		}, {
			"movie-img": "img/vide.jpg",
			"movie-title": "[[域名新時代]]",
			"movie-txt": "推廣活動消息頁面，各活動均以欄位形式呈現。顯示出各活動名稱、代表圖與簡短文字敘述，使用者點擊後連結至該活動網站。代表圖尺寸固定尺寸為547 x 355 pix4",
			"Class-vide-text":"vide-text",
			"play-icon":"<a class='show-mv' href='https://www.youtube.com/embed/bnyR69Nf0kI'><img src='img/icons/play.svg' /></a>"
		}, {
			"movie-img": "img/vide.jpg",
			"movie-title": "[[域名新時代]]",
			"movie-txt": "推廣活動消息頁面，各活動均以欄位形式呈現。顯示出各活動名稱、代表圖與簡短文字敘述，使用者點擊後連結至該活動網站。代表圖尺寸固定尺寸為547 x 355 pix5",
			"Class-vide-text":"vide-text",
			"play-icon":"<a class='show-mv' href='https://www.youtube.com/embed/bnyR69Nf0kI'><img src='img/icons/play.svg' /></a>"
		}, {
			"movie-img": "img/vide.jpg",
			"movie-title": "[[域名新時代]]",
			"movie-txt": "推廣活動消息頁面，各活動均以欄位形式呈現。顯示出各活動名稱、代表圖與簡短文字敘述，使用者點擊後連結至該活動網站。代表圖尺寸固定尺寸為547 x 355 pix6",
			"Class-vide-text":"vide-text",
			"play-icon":"<a class='show-mv' href='https://www.youtube.com/embed/bnyR69Nf0kI'><img src='img/icons/play.svg' /></a>"
		},
		{
			
		},
		{
			
		}
	]
}
