<?xml version="1.0" encoding="UTF-8"?>
<svg width="722px" height="30px" viewBox="0 0 722 30" version="1.1" xmlns="http://www.w3.org/2000/svg" xmlns:xlink="http://www.w3.org/1999/xlink">
    <!-- Generator: Sketch 55.2 (78181) - https://sketchapp.com -->
    <title>story</title>
    <desc>Created with Sketch.</desc>
    <defs>
        <polygon id="path-1" points="0 0.144408333 30.4347586 0.144408333 30.4347586 30.0988042 0 30.0988042"></polygon>
        <polygon id="path-3" points="0.438836877 0.112375 31.035086 0.112375 31.035086 30.2266146 0.438836877 30.2266146"></polygon>
        <polygon id="path-5" points="0 30.8877542 721.665385 30.8877542 721.665385 0.6459625 0 0.6459625"></polygon>
    </defs>
    <g id="story" stroke="none" stroke-width="1" fill="none" fill-rule="evenodd">
        <g id="Group-29">
            <g id="Group-3" transform="translate(0.000000, 0.533588)">
                <mask id="mask-2" fill="white">
                    <use xlink:href="#path-1"></use>
                </mask>
                <g id="Clip-2"></g>
                <path d="M21.9698483,25.3189917 C21.6250394,23.7470333 21.0757437,22.1854083 20.3219613,20.6347625 L22.9389115,20.1884917 C23.7358699,21.4846792 24.4038998,22.9720333 24.9424015,24.6499083 L21.9698483,25.3189917 Z M16.9944048,27.5180542 C16.885865,25.37195 16.5098733,23.2271375 15.8634314,21.0810333 L18.8036025,20.8259292 C19.4710327,22.6536375 20.0095344,24.6815542 20.4191075,26.9122625 L16.9944048,27.5180542 Z M20.903639,10.4370542 L21.3234065,7.98353333 L13.472556,7.98353333 C13.1709231,8.91805417 12.8692902,9.736325 12.568257,10.4370542 L20.903639,10.4370542 Z M11.2435909,28.7922833 C11.3077553,27.7518458 11.3401374,26.6145333 11.3401374,25.3829292 C11.3401374,23.8749083 11.3077553,22.5257625 11.2435909,21.3361375 L14.5711473,21.2082625 C14.9369447,23.5455333 15.120443,25.9138042 15.120443,28.3143667 L15.120443,28.5694708 L11.2435909,28.7922833 Z M23.423443,16.2366375 L23.8114281,13.8154083 L10.9521523,13.8154083 C10.7584596,14.1764292 10.5533733,14.5587625 10.3386922,14.9624083 C10.1012238,15.4299917 9.86435498,15.8543042 9.62748621,16.2366375 L23.423443,16.2366375 Z M10.4034563,21.5905958 C9.95130681,24.6925333 9.04640814,27.3159083 7.68935997,29.4620125 L3.26321213,27.6769292 C4.72760083,26.2535125 5.88016229,24.02345 6.72029684,20.98545 L10.4034563,21.5905958 Z M30.4347586,16.2366375 C30.2620543,20.1458667 30.0575676,22.8971167 29.8206988,24.4903875 C29.4758899,26.9762 28.9158002,28.5268458 28.1410294,29.1429708 C27.365659,29.7804083 25.6314198,30.0988042 22.9389115,30.0988042 L22.0987769,30.0988042 L21.2586424,26.1475958 C22.0987769,26.2115333 22.8201772,26.2431792 23.423443,26.2431792 L23.746664,26.2431792 C24.8020792,26.2218667 25.394551,25.8072417 25.5240792,25.0005958 C25.6530078,24.1933042 25.7819364,23.27945 25.9114646,22.2596792 C26.0188051,21.2399083 26.0835693,20.3273458 26.1051573,19.5194083 L7.23721047,19.5194083 C6.07385498,21.4104083 4.50152608,23.120575 2.51962409,24.6499083 L-0.000179900332,20.6347625 C1.85219385,19.3812 3.67218555,17.5115125 5.45979518,15.0257 C7.24740482,12.5405333 8.45333671,10.2142417 9.0787902,8.046825 L2.00331013,8.046825 L2.00331013,4.63747083 L4.91109917,4.63747083 C4.41517392,3.38390833 3.87727193,2.24724167 3.29499452,1.22747083 L7.17244635,0.5583875 C7.90404103,1.939825 8.47552442,3.29865833 8.88509751,4.63747083 L10.3063101,4.63747083 C10.8232238,2.9802625 11.1674331,1.482575 11.3401374,0.144408333 L15.5402105,0.5583875 C15.1528251,2.4707 14.8188101,3.83017917 14.5387653,4.63747083 L25.8467005,4.63747083 L24.9747836,10.5009917 L28.269958,10.5009917 L27.4298234,16.300575 L30.4347586,16.2366375 Z" id="Fill-1" fill="#8A6D56" mask="url(#mask-2)"></path>
            </g>
            <path d="M51.3424754,30.824075 L51.3424754,14.1577 L44.1698492,14.1577 L44.1698492,9.88745 L51.3424754,9.88745 L51.3424754,0.805095833 L55.8333874,0.805095833 L55.8333874,9.88745 L63.9103126,9.88745 L63.9103126,14.1577 L55.8333874,14.1577 L55.8333874,30.824075 L51.3424754,30.824075 Z M33.4759738,14.2849292 C34.8755983,13.0739917 36.3621748,11.1410125 37.9345037,8.48534583 C39.5062329,5.82967917 40.5724422,3.29090833 41.1331316,0.869033333 L45.4297512,1.9843875 C44.783909,4.2783875 43.8682163,6.5627 42.6838724,8.83603333 L42.6838724,30.8557208 L38.2577246,30.8557208 L38.2577246,15.2730542 C37.2880618,16.7604083 36.2218525,18.0346375 35.0590967,19.0970333 L33.4759738,14.2849292 Z" id="Fill-4" fill="#8A6D56"></path>
            <g id="Group-8" transform="translate(65.963455, 0.533588)">
                <mask id="mask-4" fill="white">
                    <use xlink:href="#path-3"></use>
                </mask>
                <g id="Clip-7"></g>
                <path d="M29.2258884,13.6558229 C29.2258884,14.0594688 29.4735512,14.2609688 29.9688767,14.2609688 L30.8737754,14.2609688 L30.8737754,16.6828438 L29.1935063,16.6828438 C27.5138369,16.6828438 26.6737023,15.9608021 26.6737023,14.5160729 L26.6737023,10.6604479 L29.2258884,10.6604479 L29.2258884,13.6558229 Z M21.5687306,10.6604479 L21.5687306,11.5839896 C21.5687306,14.2403021 21.1915395,16.0990104 20.4377571,17.1614063 L18.0144997,16.1416354 C18.6819299,15.0153021 19.0165445,13.3800521 19.0165445,11.2339479 L19.0165445,10.6604479 L21.5687306,10.6604479 Z M15.2686209,16.2688646 L17.820807,16.2688646 L17.820807,10.6604479 L15.2686209,10.6604479 L15.2686209,16.2688646 Z M6.90085681,6.99534375 L10.9396193,6.99534375 L10.9396193,5.21090625 L6.90085681,5.21090625 L6.90085681,6.99534375 Z M17.497586,22.9609896 C17.4112339,23.2374063 14.4494748,23.3749688 8.61290831,23.3749688 L7.96646645,23.3749688 L7.22347807,20.2207188 C8.25730532,20.3272813 9.45304286,20.3795938 10.810091,20.3795938 C12.8129814,19.3391563 14.2989581,18.1805313 15.2686209,16.9063021 L19.8884615,17.8937813 C19.2636076,18.5105521 18.4348668,19.1053646 17.4010395,19.6788646 C16.3672123,20.2736771 15.7741409,20.5707604 15.6236243,20.5707604 L17.2391292,20.5707604 L18.6609415,20.5707604 C19.6084166,20.5500938 20.4485512,20.5287813 21.1807455,20.5068229 C22.3009249,19.7854271 23.237606,18.9988021 23.991988,18.1488854 L28.3533718,19.6465729 C24.9502571,22.8124479 21.0080412,25.0218438 16.5285229,26.2754063 C19.974214,26.1901563 22.6673219,26.0409688 24.6054482,25.8291354 L23.4426924,24.3314479 L26.6089382,22.9609896 C28.3965478,24.9579063 29.8723302,26.8275938 31.035086,28.5694063 L27.5780013,30.2266146 L26.5441741,28.5061146 C20.9007007,29.0583021 14.5256326,29.3340729 7.41717076,29.3340729 L6.09250465,29.3340729 L5.4142804,25.8607813 C6.59862425,25.9666979 7.88011429,26.0203021 9.25935017,26.0203021 C11.133312,25.5740313 12.963498,24.9798646 14.7517073,24.2358646 C16.5393169,23.4705521 17.45441,23.0462396 17.497586,22.9609896 L17.497586,22.9609896 Z M6.83609269,15.9821146 C7.4387588,15.4086146 7.74039169,13.7514063 7.74039169,11.0104896 L7.74039169,10.6604479 L10.2931774,10.6604479 L10.2931774,10.9788438 C10.2931774,13.8263229 9.88360432,15.9181771 9.06505781,17.2569896 L6.80371063,16.3644479 C6.56624219,22.2919063 5.54380864,26.8805521 3.7340113,30.1310313 L0.438836877,26.1798229 C2.09691827,22.9080313 2.92685847,17.9790313 2.92685847,11.3934688 L2.92685847,1.99207292 L14.5256326,1.99207292 C14.3319399,1.50382292 14.0297073,0.98328125 13.6207339,0.430447917 L18.0792638,0.112052083 C18.5098252,0.770802083 18.8114581,1.39790625 18.9841625,1.99207292 L30.8737754,1.99207292 L30.8737754,5.21090625 L25.8983319,5.21090625 L25.8983319,6.99534375 L30.2273336,6.99534375 L30.2273336,9.95907292 L25.8983319,9.95907292 L25.8983319,17.7032604 L22.344101,17.7032604 L22.344101,9.95907292 L18.8546342,9.95907292 L18.8546342,6.99534375 L22.344101,6.99534375 L22.344101,5.21090625 L14.5256326,5.21090625 L14.5256326,6.99534375 L17.9179532,6.99534375 L17.9179532,9.95907292 L14.5256326,9.95907292 L14.5256326,17.7032604 L10.9390196,17.7032604 L10.9390196,9.95907292 L6.90085681,9.95907292 L6.90085681,12.8272188 C6.90085681,14.8667604 6.8786691,15.9181771 6.83609269,15.9821146 L6.83609269,15.9821146 Z" id="Fill-6" fill="#8A6D56" mask="url(#mask-4)"></path>
            </g>
            <mask id="mask-6" fill="white">
                <use xlink:href="#path-5"></use>
            </mask>
            <g id="Clip-10"></g>
            <path d="M120.652556,13.2332542 L124.012495,13.2332542 L124.012495,10.3967542 L120.652556,10.3967542 L120.652556,13.2332542 Z M113.512312,13.2332542 L116.775704,13.2332542 L116.775704,10.3967542 L113.512312,10.3967542 L113.512312,13.2332542 Z M113.512312,7.3380875 L116.775704,7.3380875 L116.775704,5.29854583 L113.512312,5.29854583 L113.512312,7.3380875 Z M111.47704,21.2319 L110.410831,22.5707125 C112.025736,22.8684417 114.330859,23.3250458 117.325,23.940525 C118.44458,23.1551917 119.241538,22.2516708 119.715875,21.2319 L111.47704,21.2319 Z M106.469214,13.2332542 L109.63546,13.2332542 L109.63546,10.3967542 L106.469214,10.3967542 L106.469214,13.2332542 Z M102.365688,16.2286292 L102.365688,7.3380875 L109.63546,7.3380875 L109.63546,5.29854583 L101.17055,5.29854583 L101.17055,1.88854583 L129.214613,1.88854583 L129.214613,5.29854583 L120.652556,5.29854583 L120.652556,7.3380875 L128.08364,7.3380875 L128.08364,16.2286292 L115.579967,16.2286292 L114.255301,17.9174833 L129.343542,17.9174833 L129.343542,21.2319 L124.174405,21.2319 C123.700068,22.506775 122.849739,23.739025 121.62162,24.92865 C124.787865,25.6933167 127.296875,26.44765 129.149849,27.1910042 L127.01743,30.6649417 C125.725146,30.0481708 124.001701,29.3681083 121.847694,28.6254 C119.6721,27.9027125 118.412198,27.5416917 118.067988,27.5416917 C116.560424,28.3702958 114.223518,29.1033167 111.056673,29.7407542 C107.890427,30.3988583 104.982638,30.760525 102.333306,30.8238167 L100.847329,26.9042542 L101.138168,26.9042542 C105.726226,26.9042542 109.495138,26.5961917 112.446103,25.9800667 C111.347512,25.7249625 109.958681,25.4382125 108.278412,25.1198167 C106.835012,24.8440458 105.456375,24.5572958 104.142503,24.2595667 L106.921364,21.2641917 L101.073404,21.2641917 L101.073404,17.949775 L109.732007,17.949775 L111.089055,16.2609208 L102.365688,16.2286292 Z" id="Fill-9" fill="#8A6D56" mask="url(#mask-6)"></path>
            <path d="M148.506465,5.13896042 C146.718256,7.34900208 144.32738,9.24968958 141.333839,10.8436063 L155.96993,10.8436063 C153.062141,9.18639792 150.574119,7.28506458 148.506465,5.13896042 L148.506465,5.13896042 Z M149.895296,1.37891875 C154.07438,5.39406458 158.694221,8.23056458 163.756016,9.88712708 L162.011583,14.3485438 C161.321965,14.0088354 160.396078,13.4992729 159.232722,12.8192104 L159.232722,14.6669396 L150.73543,14.6669396 L150.73543,18.1408771 L158.941884,18.1408771 L158.941884,21.8059813 L150.73543,21.8059813 L150.73543,25.8527729 L162.398968,25.8527729 L162.398968,29.7406896 L134.419669,29.7406896 L134.419669,25.8527729 L146.018443,25.8527729 L146.018443,21.8059813 L138.006282,21.8059813 L138.006282,18.1408771 L146.018443,18.1408771 L146.018443,14.6669396 L137.779608,14.6669396 L137.779608,12.9787313 C136.552088,13.7227313 135.583025,14.2213146 134.871819,14.4764188 L133.127385,9.98271042 C137.069001,9.00621042 140.450528,7.38064792 143.271965,5.10731458 L138.006282,5.10731458 L138.006282,1.37891875 L149.895296,1.37891875 Z" id="Fill-11" fill="#8A6D56" mask="url(#mask-6)"></path>
            <path d="M174.228075,12.3090021 L174.228075,15.6550646 L181.433083,15.6550646 C181.303555,14.3808354 181.217203,13.2648354 181.174027,12.3090021 L174.228075,12.3090021 Z M174.228075,8.70783542 L189.865611,8.70783542 L189.865611,5.52129375 L174.228075,5.52129375 L174.228075,8.70783542 Z M185.503628,12.3090021 C185.568392,13.5625646 185.665538,14.6779188 185.794467,15.6550646 L195.972028,15.6550646 L195.972028,19.4796896 L186.408527,19.4796896 C186.731748,21.2854396 187.366796,22.8787104 188.31487,24.2595021 C189.262346,25.6616063 190.199027,26.3623354 191.125513,26.3623354 C191.857708,26.3623354 192.245093,24.8756271 192.288869,21.9015646 L196.521324,23.4625438 C196.090163,28.2423563 194.517834,30.6325854 191.804337,30.6325854 C189.54239,30.6325854 187.507118,29.6341271 185.697321,27.6372104 C183.888123,25.6189813 182.671397,22.9103563 182.047143,19.5113354 L174.195693,19.5113354 L174.195693,25.3432104 C177.383527,24.8543146 179.957301,24.3550854 181.917615,23.8448771 L181.917615,27.7650854 C177.351145,28.8481479 172.590982,29.7193771 167.637126,30.3781271 L166.829374,26.1078771 C168.121658,26.0226271 169.144091,25.9270438 169.898473,25.8204813 L169.898473,1.95241875 L193.904374,1.95241875 L193.904374,12.3412938 L185.503628,12.3090021 Z" id="Fill-12" fill="#8A6D56" mask="url(#mask-6)"></path>
            <polygon id="Fill-13" fill="#8A6D56" mask="url(#mask-6)" points="201.985497 17.2806917 227.606302 17.2806917 227.606302 12.532525 201.985497 12.532525"></polygon>
            <path d="M253.069995,11.25765 L257.592689,11.25765 L257.592689,5.80810833 L253.069995,5.80810833 L253.069995,11.25765 Z M253.069395,14.6992958 L253.069395,19.8937333 C253.069395,20.701025 253.489163,21.1046708 254.329297,21.1046708 L257.107558,21.1046708 C257.904517,21.1046708 258.389048,20.6054417 258.561752,19.6069833 C258.712269,18.608525 258.808816,17.4608792 258.852591,16.1653375 L262.858972,17.2484 C262.514163,19.8614417 262.083601,21.7737542 261.566688,22.9846917 C261.028186,24.2169417 259.929595,24.8330667 258.270914,24.8330667 L253.360234,24.8330667 C251.830482,24.8330667 250.721696,24.5359833 250.032078,23.940525 C249.364048,23.3463583 249.030633,22.2090458 249.030633,20.530525 L249.030633,2.30317083 L261.566688,2.30317083 L261.566688,14.6992958 L253.069395,14.6992958 Z M247.60942,21.4553583 L244.37841,21.4553583 L244.37841,25.4705042 C245.821211,26.1079417 248.67503,26.4263375 252.939867,26.4263375 C256.967836,26.4263375 260.47889,26.2991083 263.473032,26.0440042 L262.761826,30.2503167 L257.204704,30.2826083 L254.555372,30.2826083 C248.67503,30.2826083 244.679444,29.8363375 242.568613,28.9437958 C240.457782,28.0512542 238.863865,26.8726083 237.787462,25.4065667 C237.787462,27.063775 237.388683,28.8372333 236.591724,30.7282333 L232.811419,28.497525 C234.125291,25.8631708 234.782527,21.9759 234.782527,16.8344208 L234.782527,16.0374625 L238.53045,16.2609208 C238.53045,17.4931708 238.498068,19.1284208 238.433304,21.1679625 C238.433304,21.5083167 239.03597,22.1987125 240.242502,23.2397958 L240.242502,14.3169625 L233.555007,14.3169625 L233.555007,10.5246292 L239.079746,10.5246292 L239.079746,7.4969625 L234.459306,7.4969625 L234.459306,3.89644167 L239.079746,3.89644167 L239.079746,0.8048375 L243.279819,0.8048375 L243.279819,3.89644167 L247.576439,3.89644167 L247.576439,7.4969625 L243.279819,7.4969625 L243.279819,10.5246292 L248.255262,10.5246292 L248.255262,14.3169625 L244.313646,14.3169625 L244.313646,17.7586083 L247.60942,17.7586083 L247.60942,21.4553583 Z" id="Fill-14" fill="#8A6D56" mask="url(#mask-6)"></path>
            <path d="M275.94792,18.2365896 C274.999846,17.1528813 273.94503,16.1331104 272.781674,15.1772771 C271.94154,16.7918604 270.832154,18.2365896 269.453518,19.5114646 L266.610493,16.4198604 C269.345578,14.3383396 271.133787,11.6187354 271.973922,8.26233958 L275.657081,9.02700625 C275.398625,9.87692292 274.946475,11.0239229 274.300033,12.4686521 C275.505965,13.2972563 276.820437,14.3383396 278.24165,15.5912563 L279.275477,13.9979854 L279.275477,7.65654792 L266.772404,7.65654792 L266.772404,3.70533958 L279.275477,3.70533958 L279.275477,0.804902083 L283.605078,0.804902083 L283.605078,3.70533958 L296.108751,3.70533958 L296.108751,7.65654792 L283.605078,7.65654792 L283.605078,14.0296313 L284.671287,15.6235479 C286.416321,13.9663396 287.686417,11.5018396 288.483375,8.23004792 L292.231299,9.09029792 C291.864902,10.3651729 291.412752,11.5761104 290.87485,12.7231104 C292.877741,14.0619229 294.536422,15.3258188 295.849694,16.5154438 L293.750257,19.7026313 C292.565314,18.3005271 291.11112,16.9087563 289.388274,15.5279646 C288.633892,16.8661313 287.902297,17.9608188 287.191691,18.8100896 C287.191691,19.1078188 288.225518,20.0533188 290.293173,21.6459438 C292.381816,23.2611729 294.514234,24.5354021 296.689829,25.4705688 L294.331336,29.2945479 C292.199517,28.1895271 290.109674,26.6492146 288.063608,24.6736104 C286.017542,22.6766938 284.542359,20.9665271 283.63746,19.5431104 L283.63746,30.7922354 L279.307859,30.7922354 L279.307859,19.6703396 C276.809043,23.5795688 273.319576,26.7661104 268.840058,29.2306104 L266.223108,25.4066313 C267.773849,24.7691938 269.572252,23.7074438 271.618319,22.2194438 C273.664385,20.7120688 275.107786,19.3835896 275.94792,18.2365896" id="Fill-15" fill="#8A6D56" mask="url(#mask-6)"></path>
            <path d="M323.252113,17.9174833 L325.35215,17.9174833 L325.35215,14.539775 L323.252113,14.539775 L323.252113,17.9174833 Z M320.053485,20.8179208 L328.550777,20.8179208 L328.550777,11.6716292 L320.053485,11.6716292 L320.053485,20.8179208 Z M322.766982,7.30579583 C321.301993,6.13812917 320.11765,5.022775 319.21335,3.95973333 C318.308452,5.25592083 317.220654,6.371275 315.949958,7.30579583 L322.766982,7.30579583 Z M313.559683,17.9174833 L315.497809,17.9174833 L315.497809,14.539775 L313.559683,14.539775 L313.559683,17.9174833 Z M322.7346,20.8179208 L326.159302,21.8693375 C326.051362,22.1877333 325.944022,22.5280875 325.836681,22.8891083 C325.750329,23.2075042 325.663977,23.4839208 325.578224,23.7177125 C327.40841,24.8866708 328.862605,26.07565 329.939608,27.2865875 L327.678261,30.4731292 C326.773362,29.2621917 325.674771,27.9982958 324.382487,26.6814417 C323.692869,28.16815 322.670435,29.5386083 321.313387,30.7921708 L318.535126,28.210775 L317.274625,29.5172958 C316.692947,28.6673792 315.863606,27.6476083 314.787203,26.4579833 C314.097585,27.9446917 312.880859,29.4107333 311.135826,30.8561083 L308.260419,28.1151917 C309.444762,27.4144625 310.47859,26.319775 311.3625,24.8330667 C312.245211,23.3250458 312.804701,21.9965667 313.042169,20.8495667 L316.43449,21.9649208 C316.348738,22.5384208 316.176033,23.0699417 315.917576,23.5581917 C317.317801,24.4507333 318.620879,25.4808375 319.826811,26.6497958 C321.05493,25.5454208 322.023993,23.6008167 322.7346,20.8179208 L322.7346,20.8179208 Z M317.339389,0.900420833 L321.087312,0.900420833 C323.327071,3.6413375 326.396171,5.797775 330.295211,7.36973333 L328.421249,10.8113792 C327.343646,10.3231292 326.148508,9.65404583 324.834636,8.80412917 L324.834636,10.3967542 L313.752776,10.3967542 L313.752776,8.96300417 C313.085346,9.579775 312.266799,10.1422958 311.297736,10.6518583 L310.166762,8.80412917 L310.166762,10.1739417 L307.808269,10.1739417 L307.808269,11.7678583 C308.669392,12.4266083 309.520321,13.1170042 310.360455,13.8390458 L310.360455,11.6716292 L318.696437,11.6716292 L318.696437,20.8179208 L310.360455,20.8179208 L310.360455,15.7190667 L309.165317,18.3637542 L307.808269,16.5476708 L307.808269,30.8238167 L304.060346,30.8238167 L304.060346,18.0130667 C303.370728,20.0106292 302.3369,21.8590042 300.958864,23.5581917 L299.472287,18.5549208 C300.22607,17.833525 301.087792,16.5902958 302.057455,14.826525 C303.026518,13.0634 303.650772,11.5237333 303.931417,10.2062333 L299.731344,10.2062333 L299.731344,6.44554583 L304.027963,6.44554583 L304.027963,0.837129167 L307.775887,0.837129167 L307.775887,6.44554583 L310.13438,6.44554583 L310.13438,6.70065 C311.318724,6.27569167 312.654184,5.4470875 314.140761,4.2148375 C315.60515,3.0039 316.671359,1.899525 317.339389,0.900420833 L317.339389,0.900420833 Z" id="Fill-16" fill="#8A6D56" mask="url(#mask-6)"></path>
            <path d="M340.15303,19.5112708 L345.710151,19.5112708 L345.710151,17.3761458 L349.84546,17.3761458 L349.84546,19.5112708 L355.467345,19.5112708 C354.389742,18.7679167 353.280956,17.790125 352.139189,16.5791875 L343.54535,16.5791875 C342.726804,17.6628958 341.59583,18.6400417 340.15303,19.5112708 M333.69101,22.9529167 L332.398726,19.2561667 C335.13381,18.662 337.384963,17.7481458 339.151584,16.5158958 L332.819093,16.5158958 L332.819093,13.3287083 L334.693054,13.3287083 L334.369234,2.30304167 C336.86805,2.30304167 339.302101,1.910375 341.671388,1.12375 L343.157365,3.832375 C341.821905,4.23666667 340.15303,4.5550625 338.14954,4.78885417 L338.181922,5.77633333 L342.511523,5.77633333 L342.511523,8.26214583 L338.214304,8.26214583 L338.246686,9.56866667 L342.511523,9.56866667 L342.511523,12.086125 L338.279068,12.086125 L338.31145,13.3287083 L343.674878,13.3287083 L343.674878,9.6003125 L346.743978,9.6003125 L346.743978,13.3287083 L348.876397,13.3287083 L348.876397,8.58054167 L343.674878,8.58054167 L343.674878,0.805354167 L347.098981,0.805354167 L347.098981,2.111875 L352.591938,2.111875 L352.591938,4.69327083 L347.098981,4.69327083 L347.098981,6.095375 L352.301099,6.095375 L352.301099,13.3287083 L357.535,13.3287083 L357.599764,12.086125 L353.496237,12.086125 L353.496237,9.56866667 L357.631546,9.56866667 L357.664528,8.26214583 L353.496237,8.26214583 L353.496237,5.77633333 L357.728692,5.77633333 L357.761074,4.56539583 L353.270162,4.56539583 L353.270162,1.72954167 L361.444234,1.72954167 L361.153995,13.3287083 L363.092121,13.3287083 L363.092121,16.5158958 L356.46879,16.5158958 C358.299576,17.8333958 360.625687,18.820875 363.447724,19.479625 L361.928765,23.1124375 C360.701246,22.7294583 359.128917,21.944125 357.211779,20.7538542 L357.211779,22.4110625 L349.84546,22.4110625 L349.84546,24.0682708 L362.607589,24.0682708 L362.607589,27.3503958 L349.84546,27.3503958 L349.84546,30.887625 L345.710151,30.887625 L345.710151,27.3503958 L333.174096,27.3503958 L333.174096,24.0682708 L345.710151,24.0682708 L345.710151,22.4110625 L338.47276,22.4110625 L338.47276,20.6905625 C336.663563,21.773625 335.069046,22.5279583 333.69101,22.9529167" id="Fill-17" fill="#8A6D56" mask="url(#mask-6)"></path>
            <path d="M377.958005,28.7526292 L382.80452,28.7526292 L382.80452,23.7493583 L377.958005,23.7493583 L377.958005,28.7526292 Z M378.216462,21.1679625 L378.216462,17.1851083 C378.194874,17.0998583 378.18408,17.004275 378.18408,16.8977125 C378.18408,15.9212125 378.873698,14.7948792 380.251734,13.5200042 C382.513681,11.4804625 383.644654,9.781275 383.644654,8.42115 C383.644654,6.42487917 382.492093,5.40510833 380.18757,5.36248333 L380.026259,5.36248333 C378.410754,5.36248333 376.687309,5.63825417 374.856523,6.19044167 L374.856523,1.95248333 C376.472028,1.5062125 378.507301,1.2834 380.96294,1.2834 C383.289051,1.2834 385.237972,1.8782125 386.8109,3.0678375 C388.38263,4.23615 389.169394,5.75515 389.169394,7.6248375 C389.169394,9.64306667 387.672023,12.0119833 384.678482,14.7309417 C383.386198,15.857275 382.685786,16.7917958 382.578445,17.53515 L382.578445,21.1679625 L378.216462,21.1679625 Z" id="Fill-18" fill="#8A6D56" mask="url(#mask-6)"></path>
            <path d="M420.706522,17.4079208 L424.292535,17.4079208 L424.292535,15.2727958 L420.706522,15.2727958 L420.706522,17.4079208 Z M420.706522,12.5008792 L424.292535,12.5008792 L424.292535,10.5246292 L420.706522,10.5246292 L420.706522,12.5008792 Z M413.211274,17.4079208 L416.668359,17.4079208 L416.668359,15.2727958 L413.211274,15.2727958 L413.211274,17.4079208 Z M413.211274,12.5008792 L416.668359,12.5008792 L416.668359,10.5246292 L413.211274,10.5246292 L413.211274,12.5008792 Z M415.795243,23.8132958 C416.333744,23.1119208 416.603595,22.0818167 416.603595,20.7223375 L416.603595,20.6267542 L412.564832,20.6267542 C413.232262,21.7524417 414.309266,22.8148375 415.795243,23.8132958 L415.795243,23.8132958 Z M411.724698,20.6267542 L409.269058,20.6267542 L409.269058,7.3380875 L416.668359,7.3380875 L416.668359,5.4897125 L409.462751,5.4897125 L409.462751,1.88854583 L429.13905,1.88854583 L429.13905,5.4897125 L420.706522,5.4897125 L420.706522,7.3380875 L428.234751,7.3380875 L428.234751,20.6267542 L420.512829,20.6267542 L420.512829,20.6900458 C420.512829,22.7089208 420.157226,24.2808792 419.44662,25.4065667 C421.492686,26.1712333 424.658932,26.5542125 428.945357,26.5542125 L429.655963,26.5542125 L428.460826,30.5687125 C423.226925,30.3562333 419.284709,29.5812333 416.635377,28.2424208 C414.287678,29.7084625 411.70311,30.5474 408.881673,30.760525 L407.362714,27.0314833 C409.451957,27.0314833 411.347507,26.7234208 413.049364,26.1079417 C411.993949,25.3219625 410.765829,24.0574208 409.366204,22.3156083 L411.724698,20.6267542 Z M407.040093,30.8238167 L402.968949,30.8238167 L402.968949,16.0697542 C402.602551,17.0469 401.881151,18.2261917 400.804148,19.6069833 L399.221025,14.826525 C400.470133,13.4244208 401.762417,11.3112542 403.098477,8.4850875 C404.411749,5.63825417 405.284266,3.1104625 405.715427,0.900420833 L409.204894,2.4304 C408.795321,4.25810833 408.062527,6.5204625 407.007711,9.21810833 L407.040093,30.8238167 Z" id="Fill-19" fill="#8A6D56" mask="url(#mask-6)"></path>
            <path d="M442.09907,26.3307542 L453.278076,26.3307542 L453.278076,23.8132958 L442.09907,23.8132958 L442.09907,26.3307542 Z M442.09907,20.6900458 L453.278076,20.6900458 L453.278076,18.3637542 L442.09907,18.3637542 L442.09907,20.6900458 Z M442.09847,15.24115 L453.277477,15.24115 L453.277477,12.9148583 L442.09847,12.9148583 L442.09847,15.24115 Z M437.834233,9.24975417 L457.542314,9.24975417 L457.542314,7.01904583 L437.834233,7.01904583 L437.834233,9.24975417 Z M457.671842,26.3307542 L462.905743,26.3307542 L462.905743,30.0268583 L432.470804,30.0268583 L432.470804,26.3307542 L437.704704,26.3307542 L437.704704,11.1304208 L433.439867,11.1304208 L433.439867,3.45017083 L444.844949,3.45017083 C444.564904,2.68550417 444.145136,1.8782125 443.585047,1.02829583 L448.592872,0.709254167 C449.109786,1.70835833 449.529553,2.62156667 449.852774,3.45017083 L461.936679,3.45017083 L461.936679,11.1304208 L457.671842,11.1304208 L457.671842,26.3307542 Z" id="Fill-20" fill="#8A6D56" mask="url(#mask-6)"></path>
            <path d="M491.470497,23.8769104 C488.153135,21.8799937 485.525391,20.3926396 483.587265,19.4154937 L485.719683,16.3878271 C488.584296,17.8118896 491.201246,19.2243271 493.570534,20.6264312 L491.470497,23.8769104 Z M488.983075,3.29097292 L495.476878,3.29097292 L495.476878,6.66868125 L488.983075,6.66868125 L488.983075,8.29424375 L484.653474,8.29424375 L484.653474,6.66868125 L481.648539,6.66868125 L481.648539,3.29097292 L484.653474,3.29097292 L484.653474,0.805160417 L488.983075,0.805160417 L488.983075,3.29097292 Z M491.470497,30.8241396 C487.614633,28.5081812 484.276283,26.6811188 481.454846,25.3429521 L483.587265,22.1557646 C487.162484,23.7923063 490.522422,25.5554313 493.66768,27.4457854 L491.470497,30.8241396 Z M485.590155,9.18613958 L489.079622,9.18613958 C491.190452,11.9057438 493.602916,13.9026604 496.317012,15.1768896 L494.055665,19.1287437 C491.319981,17.1744521 489.112004,15.0709729 487.432334,12.8189521 C485.687301,15.4113271 483.619647,17.4398896 481.228771,18.9059313 L478.611821,15.6231604 L479.51612,15.1768896 L472.699097,15.1768896 L472.699097,17.1847854 L479.67803,17.1847854 L479.67803,18.1089729 C479.67803,21.7844104 479.634255,24.4613896 479.548502,26.1392646 C479.46215,27.7964729 479.117341,28.9331396 478.514675,29.5492646 C477.932997,30.1653896 476.091417,30.4734521 472.989936,30.4734521 L472.311711,26.9678688 C472.720085,27.0524729 473.345539,27.0950979 474.185673,27.0950979 C475.133148,27.0950979 475.639268,26.6068479 475.704032,25.6297021 C475.768197,24.6525563 475.811373,23.6754104 475.832961,22.6976188 C475.853949,21.7211188 475.865343,20.9241604 475.865343,20.3080354 L472.60255,20.3080354 C472.537786,21.8799937 472.182183,23.7173896 471.536341,25.8208687 C470.889899,27.9450146 470.125323,29.6022229 469.242012,30.7924938 L465.752545,27.4780771 C467.8208,25.0775146 468.854627,21.5506187 468.854627,16.8980354 L468.854627,15.1135979 L466.334223,15.1135979 L466.334223,11.6080146 L472.473022,11.6080146 C471.309667,10.7794104 470.319015,10.1213063 469.500469,9.63241042 L471.730034,7.46499375 L472.893389,7.94355625 L472.893389,6.63703542 L466.398987,6.63703542 L466.398987,3.25868125 L472.893389,3.25868125 L472.893389,0.773514583 L477.222391,0.773514583 L477.222391,3.25868125 L480.226726,3.25868125 L480.226726,6.63703542 L477.222391,6.63703542 L477.222391,8.61263958 L474.153291,8.61263958 L476.543567,9.98309792 L474.799133,11.6080146 L481.131625,11.6080146 L481.131625,14.0615354 C482.919235,12.7659938 484.405811,11.1410771 485.590155,9.18613958 L485.590155,9.18613958 Z" id="Fill-21" fill="#8A6D56" mask="url(#mask-6)"></path>
            <path d="M524.364673,12.0542208 L522.61964,12.0542208 L522.61964,15.5598042 C522.61964,16.1972417 522.996231,16.5156375 523.750613,16.5156375 L524.364673,16.5156375 L524.364673,12.0542208 Z M517.38574,8.80374167 L519.066009,8.80374167 L519.066009,5.8400125 L517.38574,5.8400125 L517.38574,8.80374167 Z M511.990529,26.1714917 L524.364673,26.1714917 L524.364673,24.2275333 L511.990529,24.2275333 L511.990529,26.1714917 Z M511.990529,18.6824083 L511.990529,21.2960958 L524.364673,21.2960958 L524.364673,19.4793667 L522.975243,19.4793667 C521.467079,19.4793667 520.433251,19.2242625 519.873761,18.7147 C519.33466,18.2258042 519.066009,17.238325 519.066009,15.7509708 L519.066009,12.0858667 L517.450504,12.0858667 C517.38574,15.634075 516.437665,18.5125542 514.607479,20.72195 L511.990529,18.6824083 Z M513.832108,12.0858667 L513.832108,12.0542208 L511.990529,12.0542208 L511.990529,17.5037625 C513.218049,15.9957417 513.832108,14.1893458 513.832108,12.0858667 L513.832108,12.0858667 Z M507.208778,4.5651375 L507.208778,2.2711375 L529.404881,2.2711375 L529.404881,5.8400125 L523.040007,5.8400125 L523.040007,8.80374167 L528.338672,8.80374167 L528.338672,30.824075 L524.364673,30.824075 L524.364673,29.5175542 L511.990529,29.5175542 L511.990529,30.824075 L508.048912,30.824075 L508.048912,8.80374167 L513.379359,8.80374167 L513.379359,5.8400125 L507.693309,5.8400125 L504.979213,8.2618875 C503.558,6.64795 501.866338,5.07534583 499.906623,3.5460125 L502.685484,1.1241375 C504.559446,2.29245 506.066411,3.43945 507.208778,4.5651375 L507.208778,4.5651375 Z M501.941896,8.612575 C503.945386,9.9087625 505.700613,11.4277625 507.208778,13.169575 L503.977768,16.1972417 C502.555956,14.4121583 500.918863,12.7342833 499.066489,11.162325 L501.941896,8.612575 Z M507.499017,18.3640125 C507.283736,19.5962625 506.734441,21.5718667 505.85173,24.2914708 C504.968419,27.0104292 504.149873,29.0396375 503.39609,30.3778042 L499.034706,28.2110333 C501.403394,24.5569083 502.922353,20.8608042 503.589783,17.1214292 L507.499017,18.3640125 Z" id="Fill-22" fill="#8A6D56" mask="url(#mask-6)"></path>
            <path d="M542.81687,21.1046708 L554.738865,21.1046708 L554.738865,19.0334833 L542.81687,19.0334833 L542.81687,21.1046708 Z M542.81687,15.7190667 L554.738865,15.7190667 L554.738865,13.7434625 L542.81687,13.7434625 L542.81687,15.7190667 Z M538.293576,16.3565042 C537.776663,17.1637958 536.440603,18.3637542 534.287196,19.957025 L532.219542,15.3683792 C533.339121,14.7948792 534.792716,13.7008375 536.580925,12.0862542 C538.368535,10.4716708 539.628437,9.02694167 540.361231,7.75206667 L533.059676,7.75206667 L533.059676,3.86415 L542.526032,3.86415 C543.086121,2.99356667 543.538271,1.93181667 543.88308,0.677608333 L548.535302,1.2194625 C548.190493,2.19660833 547.83489,3.07881667 547.469093,3.86415 L562.105184,3.86415 L562.105184,7.75206667 L545.562749,7.75206667 C545.175364,8.56000417 544.711821,9.32467083 544.173319,10.0467125 L559.229777,10.0467125 L559.229777,25.9484208 C559.229777,27.8607333 558.938939,29.1033167 558.357261,29.6768167 C557.775583,30.2709833 556.601434,30.5687125 554.835412,30.5687125 L549.795204,30.5687125 L549.149362,26.5219208 L553.188125,26.6814417 C553.877143,26.6814417 554.307704,26.6175042 554.480409,26.4896292 C554.652513,26.3624 554.738865,25.9484208 554.738865,25.2470458 L554.738865,24.514025 L542.784488,24.514025 L542.784488,30.8877542 L538.261194,30.8877542 L538.293576,16.3565042 Z" id="Fill-23" fill="#8A6D56" mask="url(#mask-6)"></path>
            <path d="M583.335882,30.824075 L583.335882,14.1577 L576.163256,14.1577 L576.163256,9.88745 L583.335882,9.88745 L583.335882,0.805095833 L587.826794,0.805095833 L587.826794,9.88745 L595.903719,9.88745 L595.903719,14.1577 L587.826794,14.1577 L587.826794,30.824075 L583.335882,30.824075 Z M565.469381,14.2849292 C566.869005,13.0739917 568.355582,11.1410125 569.92791,8.48534583 C571.49964,5.82967917 572.565849,3.29090833 573.126538,0.869033333 L577.423158,1.9843875 C576.777316,4.2783875 575.861623,6.5627 574.677279,8.83603333 L574.677279,30.8557208 L570.251131,30.8557208 L570.251131,15.2730542 C569.281469,16.7604083 568.215259,18.0346375 567.052503,19.0970333 L565.469381,14.2849292 Z" id="Fill-24" fill="#8A6D56" mask="url(#mask-6)"></path>
            <path d="M627.18281,14.1894104 C627.18281,14.5930563 627.430473,14.7945563 627.925799,14.7945563 L628.830697,14.7945563 L628.830697,17.2164313 L627.150428,17.2164313 C625.470759,17.2164313 624.630624,16.4943896 624.630624,15.0496604 L624.630624,11.1940354 L627.18281,11.1940354 L627.18281,14.1894104 Z M619.525652,11.1940354 L619.525652,12.1175771 C619.525652,14.7738896 619.148461,16.6325979 618.394679,17.6949938 L615.971422,16.6752229 C616.638852,15.5488896 616.973466,13.9136396 616.973466,11.7675354 L616.973466,11.1940354 L619.525652,11.1940354 Z M613.225543,16.8024521 L615.777729,16.8024521 L615.777729,11.1940354 L613.225543,11.1940354 L613.225543,16.8024521 Z M604.857779,7.52893125 L608.896541,7.52893125 L608.896541,5.74449375 L604.857779,5.74449375 L604.857779,7.52893125 Z M615.454508,23.4945771 C615.368156,23.7709938 612.406397,23.9085563 606.56983,23.9085563 L605.923388,23.9085563 L605.1804,20.7543063 C606.214227,20.8608688 607.409965,20.9131813 608.767013,20.9131813 C610.769903,19.8727438 612.25588,18.7141188 613.225543,17.4398896 L617.845383,18.4273688 C617.22053,19.0441396 616.391789,19.6389521 615.357961,20.2124521 C614.324134,20.8072646 613.731063,21.1043479 613.580546,21.1043479 L615.196051,21.1043479 L616.617863,21.1043479 C617.565339,21.0836813 618.405473,21.0623688 619.137667,21.0404104 C620.257847,20.3190146 621.194528,19.5323896 621.94891,18.6824729 L626.310294,20.1801604 C622.907179,23.3460354 618.964963,25.5554313 614.485445,26.8089938 C617.931136,26.7237438 620.624244,26.5745563 622.56237,26.3627229 L621.399614,24.8650354 L624.56586,23.4945771 C626.35347,25.4914938 627.829252,27.3611813 628.992008,29.1029938 L625.534923,30.7602021 L624.501096,29.0397021 C618.857623,29.5918896 612.482554,29.8676604 605.374093,29.8676604 L604.049427,29.8676604 L603.371202,26.3943688 C604.555546,26.5002854 605.837036,26.5538896 607.216272,26.5538896 C609.090234,26.1076188 610.92042,25.5134521 612.708629,24.7694521 C614.496239,24.0041396 615.411332,23.5798271 615.454508,23.4945771 L615.454508,23.4945771 Z M604.793015,16.5157021 C605.395681,15.9422021 605.697314,14.2849938 605.697314,11.5440771 L605.697314,11.1940354 L608.250099,11.1940354 L608.250099,11.5124313 C608.250099,14.3599104 607.840526,16.4517646 607.02198,17.7905771 L604.760633,16.8980354 C604.523164,22.8254938 603.500731,27.4141396 601.690933,30.6646188 L598.395759,26.7134104 C600.05384,23.4416188 600.88378,18.5126188 600.88378,11.9270563 L600.88378,2.52566042 L612.482554,2.52566042 C612.288862,2.03741042 611.986629,1.51686875 611.577656,0.964035417 L616.036186,0.645639583 C616.466747,1.30438958 616.76838,1.93149375 616.941084,2.52566042 L628.830697,2.52566042 L628.830697,5.74449375 L623.855254,5.74449375 L623.855254,7.52893125 L628.184255,7.52893125 L628.184255,10.4926604 L623.855254,10.4926604 L623.855254,18.2368479 L620.301023,18.2368479 L620.301023,10.4926604 L616.811556,10.4926604 L616.811556,7.52893125 L620.301023,7.52893125 L620.301023,5.74449375 L612.482554,5.74449375 L612.482554,7.52893125 L615.874875,7.52893125 L615.874875,10.4926604 L612.482554,10.4926604 L612.482554,18.2368479 L608.895942,18.2368479 L608.895942,10.4926604 L604.857779,10.4926604 L604.857779,13.3608063 C604.857779,15.4003479 604.835591,16.4517646 604.793015,16.5157021 L604.793015,16.5157021 Z" id="Fill-25" fill="#8A6D56" mask="url(#mask-6)"></path>
            <path d="M651.903035,11.3215875 L656.846096,11.3215875 L656.846096,9.31369167 L651.903035,9.31369167 L651.903035,11.3215875 Z M651.903035,6.60506667 L656.846096,6.60506667 L656.846096,4.7883375 L651.903035,4.7883375 L651.903035,6.60506667 Z M644.43957,23.5581917 L649.83538,23.5581917 L649.83538,19.5430458 L644.43957,19.5430458 L644.43957,23.5581917 Z M653.874143,26.2668167 L655.650359,26.3307542 C656.447317,26.3307542 656.846096,25.9904 656.846096,25.3109833 L656.846096,14.4441917 L648.090947,14.4441917 L648.090947,1.63344167 L661.046169,1.63344167 L661.046169,26.3940458 C661.046169,28.0938792 660.744537,29.1666083 660.14187,29.6128792 C659.560193,30.0804625 658.633706,30.3142542 657.36301,30.3142542 L652.646023,30.3142542 L652.031963,26.8403167 L640.433189,26.8403167 L640.433189,16.2286292 L653.905925,16.2286292 L653.874143,26.2668167 Z M637.557782,11.3215875 L642.145841,11.3215875 L642.145841,9.31369167 L637.557782,9.31369167 L637.557782,11.3215875 Z M637.557782,6.60506667 L642.145841,6.60506667 L642.145841,4.7883375 L637.557782,4.7883375 L637.557782,6.60506667 Z M637.557782,14.4441917 L637.557782,30.8238167 L633.325327,30.8238167 L633.325327,1.63344167 L645.957929,1.63344167 L645.957929,14.4441917 L637.557782,14.4441917 Z" id="Fill-26" fill="#8A6D56" mask="url(#mask-6)"></path>
            <path d="M685.217578,18.6188583 L691.162085,18.6188583 L691.162085,17.089525 L685.217578,17.089525 L685.217578,18.6188583 Z M685.217578,14.4758375 L691.162085,14.4758375 L691.162085,13.0420875 L685.217578,13.0420875 L685.217578,14.4758375 Z M685.217578,10.4290458 L691.162085,10.4290458 L691.162085,9.09087917 L685.217578,9.09087917 L685.217578,10.4290458 Z M684.635301,21.5502958 L681.695729,21.5502958 L681.695729,6.15879583 L685.86342,6.15879583 L686.380334,4.69275417 L681.081669,4.69275417 L681.081669,1.56950417 L695.329776,1.56950417 L695.329776,4.69275417 L690.095875,4.69275417 L689.643126,6.15879583 L694.683934,6.15879583 L694.683934,21.5502958 L690.354332,21.5502958 C691.71138,21.9759 693.488196,22.6449833 695.685379,23.5581917 L694.360713,26.5858583 C692.507739,25.6087125 690.407703,24.6419 688.060603,23.6860667 L689.417651,21.5502958 L685.669728,21.5502958 L687.25285,23.6221292 C685.055668,25.0668583 682.890867,26.0440042 680.758449,26.5542125 L679.078779,23.4309625 C681.081669,23.0486292 682.934043,22.4221708 684.635301,21.5502958 L684.635301,21.5502958 Z M670.258266,9.53650417 L676.558375,9.53650417 L676.558375,8.03881667 L670.258266,8.03881667 L670.258266,9.53650417 Z M670.258266,5.58529583 L676.558375,5.58529583 L676.558375,4.15154583 L670.258266,4.15154583 L670.258266,5.58529583 Z M666.704635,12.3090667 L680.112606,12.3090667 L680.112606,1.37898333 L666.704635,1.37898333 L666.704635,12.3090667 Z M668.061083,30.6649417 L664.959601,27.8607333 C666.660859,25.3749208 667.511787,21.9119625 667.511787,17.4718583 L671.001254,17.9174833 C670.872326,19.8511083 670.775179,21.1472958 670.710415,21.8054 C670.710415,22.0605042 671.270505,22.6133375 672.390684,23.4626083 L672.390684,16.6432542 L665.541279,16.6432542 L665.541279,13.4883583 L680.920359,13.4883583 L680.920359,16.6432542 L676.073844,16.6432542 L676.073844,19.1284208 L680.46761,19.1284208 L680.46761,22.1560875 L676.073844,22.1560875 L676.073844,25.6293792 C677.883042,26.4579833 681.695729,26.8726083 687.511307,26.8726083 C690.72013,26.8726083 693.434226,26.7660458 695.652997,26.5542125 L695.136083,30.3142542 L691.678998,30.3142542 C685.411271,30.3142542 680.758449,30.0804625 677.721731,29.6128792 C674.684414,29.1666083 672.11064,27.7115458 669.999809,25.2470458 C669.547659,27.1593583 668.901218,28.9644625 668.061083,30.6649417 L668.061083,30.6649417 Z" id="Fill-27" fill="#8A6D56" mask="url(#mask-6)"></path>
            <path d="M710.454596,28.7526292 L715.301111,28.7526292 L715.301111,23.7493583 L710.454596,23.7493583 L710.454596,28.7526292 Z M710.713053,21.1679625 L710.713053,17.1851083 C710.690865,17.0998583 710.680671,17.004275 710.680671,16.8977125 C710.680671,15.9212125 711.369689,14.7948792 712.748326,13.5200042 C715.009673,11.4804625 716.140646,9.781275 716.140646,8.42115 C716.140646,6.42487917 714.988085,5.40510833 712.683561,5.36248333 L712.522251,5.36248333 C710.906746,5.36248333 709.183301,5.63825417 707.352515,6.19044167 L707.352515,1.95248333 C708.96802,1.5062125 711.003892,1.2834 713.458932,1.2834 C715.785043,1.2834 717.734563,1.8782125 719.306892,3.0678375 C720.878621,4.23615 721.665385,5.75515 721.665385,7.6248375 C721.665385,9.64306667 720.168015,12.0119833 717.174473,14.7309417 C715.882189,15.857275 715.181777,16.7917958 715.074437,17.53515 L715.074437,21.1679625 L710.713053,21.1679625 Z" id="Fill-28" fill="#8A6D56" mask="url(#mask-6)"></path>
        </g>
    </g>
</svg>