<?xml version="1.0" encoding="utf-8"?>
<!-- Generator: Adobe Illustrator 25.2.1, SVG Export Plug-In . SVG Version: 6.00 Build 0)  -->
<svg version="1.1" id="Layer_1" xmlns="http://www.w3.org/2000/svg" xmlns:xlink="http://www.w3.org/1999/xlink" x="0px" y="0px"
	 viewBox="0 0 170 170" style="enable-background:new 0 0 170 170;" xml:space="preserve">
<style type="text/css">
	.st0{fill:#E0230D;}
	.st1{fill:#FF5440;}
</style>
<g>
	<path class="st0" d="M85.9,1c46,0.5,83.1,37.9,83.1,84s-37.1,83.5-83.1,84l59.4-84L85.9,1z"/>
	<path class="st1" d="M85.9,1c38.5,0.6,69.6,38,69.6,84s-31.1,83.4-69.6,84c-0.3,0-0.6,0-0.9,0c-46.4,0-84-37.6-84-84S38.6,1,85,1
		C85.3,1,85.6,1,85.9,1z M127.1,85c0-23.2-18.8-42.1-42.1-42.1S42.9,61.8,42.9,85s18.8,42.1,42.1,42.1S127.1,108.2,127.1,85z"/>
</g>
</svg>
