<?xml version="1.0" encoding="UTF-8"?>
<svg width="34px" height="34px" viewBox="0 0 34 34" version="1.1" xmlns="http://www.w3.org/2000/svg" xmlns:xlink="http://www.w3.org/1999/xlink">
    <!-- Generator: Sketch 51.1 (57501) - http://www.bohemiancoding.com/sketch -->
    <title>plus_icon</title>
    <desc>Created with Sketch.</desc>
    <defs></defs>
    <g id="Page-1" stroke="none" stroke-width="1" fill="none" fill-rule="evenodd">
        <g id="Desktop-HD" transform="translate(-648.000000, -668.000000)" stroke="#FFFFFF" stroke-width="3">
            <g id="Group-7" transform="translate(650.000000, 667.000000)">
                <g id="Group-8">
                    <g id="plus_icon" transform="translate(0.000000, 3.000000)">
                        <circle id="Oval-2" cx="15" cy="15" r="15"></circle>
                        <path d="M15,6.66666667 L15,23.3333333" id="Line-2" stroke-linecap="square"></path>
                        <path d="M23.3333333,15 L6.66666667,15" id="Line-2-Copy" stroke-linecap="square"></path>
                    </g>
                </g>
            </g>
        </g>
    </g>
</svg>