<?xml version="1.0" encoding="UTF-8"?>
<svg width="310px" height="61px" viewBox="0 0 310 61" version="1.1" xmlns="http://www.w3.org/2000/svg" xmlns:xlink="http://www.w3.org/1999/xlink">
    <!-- Generator: Sketch 52.2 (67145) - http://www.bohemiancoding.com/sketch -->
    <title>climb</title>
    <desc>Created with Sketch.</desc>
    <g id="Page-1" stroke="none" stroke-width="1" fill="none" fill-rule="evenodd">
        <g id="climb" fill="#FFFFFF">
            <path d="M22.1902612,8.76153491 L23.3953831,8.76153491 L23.3953831,3.08206112 L22.1902612,3.08206112 L22.1902612,8.76153491 Z M18.4497531,8.76153491 L19.4390042,8.76153491 L19.4390042,3.08206112 L18.4497531,3.08206112 L18.4497531,8.76153491 Z M18.4503788,0.313633164 L18.4503788,1.22676634 L23.2714921,1.22676634 L24.1987977,0.142617898 L28,0.998325283 L26.7329326,1.99728162 L26.7329326,11.4731681 L23.3953831,11.4731681 L23.3953831,10.5884323 L18.4503788,10.5884323 L18.4503788,13.5562729 C18.4503788,15.1831266 19.4083443,15.2689498 20.9225681,15.2689498 C23.8896959,15.2689498 24.3840086,14.4126113 25.8056269,12.1862576 L26.2692798,12.2720808 C26.1147288,12.7863887 25.9914635,13.3278318 25.9914635,13.8705371 C25.9914635,15.1263319 27.3204764,15.212155 27.3204764,15.5257882 C27.3204764,15.6400087 27.2272453,15.7258319 27.1965854,15.811024 C26.7948781,16.410524 25.8675725,16.8674061 25.1874232,17.1526419 C23.9516414,17.6663188 22.1589756,17.7521419 20.7993028,17.7521419 C19.5316096,17.7521419 16.0707949,17.7237446 15.5139109,16.3247009 C15.2980402,15.7258319 14.9889383,14.7836703 14.9889383,14.1557729 L14.9889383,0.313633164 L18.4503788,0.313633164 Z M12.2689669,3.28147375 C12.5161233,6.42159171 12.9797761,9.53205019 13.7831907,12.586345 C14.0922926,13.784714 14.5559454,14.9553166 15.1122036,16.0678624 C15.8542984,17.5520983 17.553733,18.8937162 19.006637,19.8068493 C21.4788263,21.4053057 24.8476614,22.0041747 27.7835035,22.2616441 L27.7528436,22.6894978 C27.0733201,22.775321 26.1460144,22.9753647 25.8056269,23.6316594 C25.5891305,24.0595131 25.4345795,24.5157642 25.4345795,25.0010437 C25.4345795,25.3153079 25.4971508,25.5147205 25.651076,25.8005874 L25.3732597,26 C22.5913428,25.2869105 20.6447518,24.6306158 18.2032224,23.1463799 C15.8849583,21.7189389 14.1542381,20.4637752 12.8565108,18.0948035 C12.3615723,17.1810393 11.9911506,16.182083 11.8365997,15.1547293 C11.7439943,14.3558166 11.6201032,13.5562729 11.5581577,12.7573603 C11.4348924,10.788476 11.3729469,8.78993228 11.3729469,6.82104803 C11.3729469,5.65044538 11.3729469,4.45207641 11.4036068,3.28147375 L12.2689669,3.28147375 Z M10.5382467,4.08101745 L10.5382467,25.5147205 L6.82964982,25.5147205 L6.82964982,4.11004587 L10.5382467,4.08101745 Z M5.9336298,0.371058955 L5.9336298,1.65525109 C6.92225525,1.39841266 8.59102997,1.02735371 9.54962122,0.684692119 L11.4348924,0 L14.8963329,2.16892794 C13.3201636,2.53998689 11.7127087,2.85362006 10.0752196,2.85362006 C8.6842611,2.85362006 7.29330264,2.74003058 5.9336298,2.59678163 C5.9336298,6.05053275 5.9642897,9.50365282 5.87168428,12.9574039 C5.84039867,14.6978471 5.87168428,16.4679498 5.5319225,18.1799956 C5.40803146,18.8937162 5.1608751,19.6074367 4.88243313,20.2921288 C4.17162395,22.0332031 1.76138014,24.6306158 0.33913607,25.9716026 L0,25.8289847 C0.15455094,25.4869542 0.370421685,25.1158952 0.586918143,24.7732337 C0.772128986,24.4589694 0.864734407,24.0879105 1.01928535,23.7168515 C1.23578181,23.1179826 1.45227826,22.4894541 1.6068292,21.8615568 C1.85398556,20.9200262 1.94659099,19.9778646 2.0085365,19.0079367 C2.13242754,16.6389651 2.22503296,14.2983908 2.22503296,11.9300502 L2.22503296,0.371058955 L5.9336298,0.371058955 Z" id="Fill-1"></path>
            <path d="M50.0043955,7.22376701 C50.5569862,6.3171587 51.0480398,5.38145099 51.6006305,4.5039421 L47.763575,4.5039421 C48.4081605,5.58579352 49.0832038,6.3171587 50.0043955,7.22376701 Z M47.6094215,22.5197105 L52.2762953,22.5197105 L52.2762953,17.0800607 L47.6094215,17.0800607 L47.6094215,22.5197105 Z M33.4254318,7.80898848 L35.6357945,7.80898848 L35.6357945,5.11826299 L31.3990587,5.11826299 L31.3990587,3.18800209 L35.6357945,3.18800209 L35.6357945,0.0581988211 L40.0260622,0.0581988211 L40.0260622,3.18800209 L42.9120899,3.18800209 L42.9120899,5.11826299 L40.0260622,5.11826299 L40.0260622,8.45240878 C40.6097323,8.68649738 41.162323,8.92058597 41.7453714,9.18312732 C43.4646805,6.3171587 44.5089464,3.30504638 44.8464681,0 L49.6053368,0 L48.7146029,2.54458179 L51.8772366,2.54458179 L53.3199396,0.965453777 L58.1714248,2.13525008 L56.820095,3.1000572 C55.6229188,5.61553958 54.9472539,7.13646877 53.0744128,9.30017161 C54.9167962,10.2067799 56.9120899,10.9672445 59,11.1133882 L59,11.4063223 C57.188696,12.0199965 57.557297,12.8975054 58.2018825,14.2425448 L57.9563557,14.447534 C54.9472539,13.7459149 52.8904231,13.131594 50.3419172,11.4354217 C48.0395596,12.8102072 46.811304,13.2777377 44.2323403,14.1552466 L47.6094215,14.1552466 L47.6094215,15.0618549 L51.8772366,15.0618549 L53.1359499,13.7168155 L57.8332815,14.9157112 L56.7281002,15.8805183 L56.7281002,26 L52.2762953,26 L52.2762953,24.5372696 L47.6094215,24.5372696 L47.6094215,26 L43.1576167,26 L43.1576167,14.4766334 C42.3290414,14.6525232 41.4998446,14.7986669 40.6712694,14.9448106 L40.5481952,14.6816226 C43.4342228,13.2486383 46.0436443,11.4645211 48.3155441,9.24197279 C47.6094215,8.18922078 47.1494472,7.0776233 46.6577721,5.907827 C45.1535319,7.69194419 44.3554145,8.30561842 42.2370466,9.44696197 C43.1271589,9.9144925 43.8948186,10.2656254 44.0483506,11.3183774 C44.1708032,12.2249857 43.3726857,12.8975054 42.6665631,13.1024946 C42.1139724,13.2486383 41.162323,12.9266048 40.9167962,12.4002288 C40.5177374,11.289278 40.7632642,10.762902 40.0260622,9.73924938 L40.0260622,26 L35.6357945,26 L35.6357945,15.7343746 C34.4081605,18.0739672 33.1183679,19.8580844 31.2766061,21.8174447 L31,21.7592459 C32.7193092,17.2262044 33.2414421,12.605218 33.4254318,7.80898848 Z" id="Fill-3"></path>
            <path d="M75.0524565,10.6599681 L75.0524565,7.45284363 L76.0278918,7.45284363 C77.3811412,6.15300332 78.7343905,4.853163 79.9302704,3.46645375 L65.2968285,3.46645375 L65.2968285,1.41545265 L81.5670395,1.41545265 L83.1088772,0 L88.5212374,1.15548458 C87.9860541,1.50232158 87.4515079,1.81977644 86.9475435,2.16661344 C86.6646609,2.34035131 86.1925527,2.88903083 85.9096701,3.1202555 C85.1858983,3.75516521 84.4621266,4.36260902 83.6434235,4.88254514 C82.1646609,5.83554846 80.5278918,6.64419604 78.8917599,7.45284363 L79.8984143,7.45284363 L79.8984143,10.6599681 L90,10.6599681 L90,12.6534824 L79.8984143,12.6534824 L79.8984143,22.0129714 C79.8984143,22.5041641 79.9302704,22.9953568 79.8671952,23.4865496 C79.8671952,23.8333866 79.6155316,24.2664538 79.4581623,24.5551652 C79.0803483,25.2194571 77.8532493,25.4794251 77.1294776,25.6244196 C76.1228232,25.7975187 75.0524565,26 74.0139459,26 C73.7935013,26 73.0385105,26 72.8811412,25.8262621 C72.7868469,25.7106498 72.7868469,25.5662941 72.7868469,25.4219383 C72.7868469,23.6596487 70.6786068,23.4578062 69.2304262,23.2265815 L69.2304262,22.7353888 C70.8041201,22.8222577 72.377814,22.9084879 73.9196517,22.9084879 C74.863868,22.9084879 75.0524565,22.7641322 75.0524565,21.897359 L75.0524565,12.6534824 L63,12.6534824 L63,10.6599681 L75.0524565,10.6599681 Z" id="Fill-4"></path>
            <path d="M112,12.8031896 C110.828705,14.2783617 109.287363,16 106.729485,16 C105.219345,16 103.893916,15.5626435 102.753198,15.0981032 C101.613105,14.6335629 100.595944,14.1968104 99.5170047,14.1968104 C97.8833073,14.1968104 96.6814353,15.0165519 96.0031201,15.9450284 L94,14.4148846 C95.0477379,12.8581612 96.9279251,11 99.4552262,11 C100.718877,11 102.106084,11.4645403 103.400936,11.9018968 C104.695164,12.365833 105.897036,12.8303733 106.698284,12.8303733 C108.14727,12.8303733 109.318565,12.0106319 110.027457,11.1914945 L112,12.8031896 Z" id="Fill-5"></path>
            <path d="M16.8497906,41.0808324 C19.1104343,41.4772388 21.6194038,41.6757551 23.8185931,42.3552194 C25.429576,42.8367937 27.1948221,43.7429549 27.1948221,45.4989161 C27.1948221,46.4902452 25.9249737,47.3118647 24.9335513,47.3118647 C23.0754966,47.3118647 22.1461557,45.8389614 21.1240062,44.6779228 C19.9776937,43.3465485 18.1817205,42.241871 16.6014647,41.3638904 L16.8497906,41.0808324 Z M10.004524,34 C10.6548118,34.0281805 11.5220712,34.0563611 12.172986,34.0281805 C13.9382321,33.9148321 17.5000784,34.9061612 17.0974894,37.0873356 C16.9118721,38.1068452 15.2701619,38.5884195 14.2787396,38.4750711 C11.3364538,38.1068452 12.0488231,35.6996002 10.4691944,34.7646322 L9.84963383,34.3964064 L10.004524,34 Z M0.743723545,40.3162002 L27.0092047,40.3162002 L27.0092047,38.5314321 L0.743723545,38.5314321 L0.743723545,40.3162002 Z M0.960068084,48.0764969 L0.650287788,47.7364517 C3.06644868,46.0374777 5.1107478,43.8281227 6.38059618,41.2787225 L12.6991109,41.1941808 C9.6326622,45.3573872 6.25643323,46.716942 0.960068084,48.0764969 Z M17.6236143,45.6692519 L22.6108262,46.4338841 C20.69069,49.7472903 19.884885,51.0504841 16.8497906,53.6274387 C20.287474,55.1855099 24.2211821,55.7804326 28,56.2050195 L28,56.5732453 C26.110591,56.9696517 24.8100155,58.0743292 26.110591,59.716942 L25.832165,60 C21.6814853,59.2071872 17.2831068,57.8194518 13.7212604,55.7516258 C8.92029294,58.0173419 5.35844662,58.725613 0.185617343,59.8021099 L0,59.5184257 C4.21276119,57.7912713 7.27858279,56.1198516 10.9959463,53.6562455 C8.70332131,51.5602389 7.68117175,49.1529939 6.9073481,46.3205357 L8.27000515,46.1501999 C9.75682516,48.6426128 11.0266735,49.9458066 13.4422073,51.758129 C15.7034781,49.7472903 16.5092831,48.3031938 17.6236143,45.6692519 Z" id="Fill-6"></path>
            <path d="M40.6907363,44.081456 L51.2459211,44.081456 L51.2459211,41.8254796 L40.6907363,41.8254796 L40.6907363,44.081456 Z M40.6907363,40.0612395 L51.2459211,40.0612395 L51.2459211,38.0949336 L40.6907363,38.0949336 L40.6907363,40.0612395 Z M50.2349984,52.6993114 C49.0973904,54.8395475 47.5803665,56.1696016 45.52589,57.6160354 C43.6294502,58.9173143 39.6164709,60.1028529 37.3726064,60.7391048 L37.0878845,60.478849 C38.4788629,59.611756 39.8378502,58.6864732 41.1648462,57.7317757 C43.7881267,55.8230202 45.2098167,53.4800787 46.2527307,50.6172651 L51.3092637,50.6172651 C50.961839,51.3110674 50.6144143,52.0055091 50.2349984,52.6993114 Z M40.6907363,35.2314806 L40.6907363,36.2437285 L51.0878845,36.2437285 L52.3521777,35 L57.3767195,35.9259223 L55.8283442,37.2559764 L55.8283442,46.6264634 L51.2459211,46.6264634 L51.2459211,45.8169208 L40.6907363,45.8450566 L40.6907363,46.6264634 L35.9509163,46.6264634 L35.9509163,35.2314806 L40.6907363,35.2314806 Z M43.3140167,47.0600098 L42.5551849,47.9852927 L54.0585896,47.9852927 L55.1648462,46.8573045 L60,47.6674865 L58.673004,48.9105755 C58.5463187,50.0392031 58.4516247,51.1665519 58.3249394,52.2945401 C58.1042,54.4635514 57.7561355,57.9632563 56.0497235,59.5823414 C55.132855,60.478849 51.9734016,61 50.6771171,61 C49.4761665,61 49.8869339,59.6693064 48.6546319,58.8885391 C48.1805219,58.5700935 47.137608,58.2810625 46.5374526,58.136547 L46.6641378,57.7893261 C47.8964398,57.8762912 49.1607331,57.9920315 50.3930351,57.9920315 C51.0251817,57.9920315 51.7833737,57.9344811 52.3208263,57.6160354 C53.7111649,56.7195278 53.9958868,51.3110674 54.0585896,49.7495327 L40.6593849,49.7495327 C38.1627896,51.4268077 35.4134637,52.6123463 32.47411,53.5094934 L32.1900279,53.2780128 C32.8535259,52.8150516 33.5803665,52.3233153 34.1805219,51.7452533 C35.2234359,50.7617806 36.772451,49.1132809 37.3726064,47.8407772 L37.7513825,47.0312346 L43.3140167,47.0600098 Z M44.7043554,50.5884899 C44.2302454,51.253517 43.7247841,51.918544 43.2186829,52.5547959 C40.9434669,55.3888342 35.7922398,57.3557796 32.2213793,58.3104771 L32,58.0789966 C34.9073626,56.2277914 38.0680956,53.5670438 39.5531283,50.5884899 L44.7043554,50.5884899 Z" id="Fill-7"></path>
            <path d="M84.0783097,47.0508212 C84.0783097,47.2513645 84.2032248,47.5388521 84.4853934,47.5388521 C84.7358576,47.5388521 85.0490964,47.3668672 85.2995607,47.2513645 L85.2995607,43.0900921 L84.0783097,43.0900921 L84.0783097,47.0508212 Z M80.8520766,41.2813952 L80.8520766,38.0384332 L79.8502197,38.0384332 L79.8185153,41.2813952 L80.8520766,41.2813952 Z M75.3088908,56.8952098 L85.2995607,56.8952098 L85.2995607,53.7956744 L75.3088908,53.7956744 L75.3088908,56.8952098 Z M76.6239866,44.3244485 L76.6239866,43.0900921 L75.3088908,43.0900921 L75.3088908,49.9206204 C76.2796775,47.9120148 76.6239866,46.5056736 76.6239866,44.3244485 Z M83.1696635,50.1217983 C81.8545677,50.1217983 80.8520766,49.9783718 80.8520766,48.5434722 L80.8520766,43.0900921 L79.7874451,43.0900921 C79.5680511,47.4525423 79.3492912,48.3137359 75.3088908,50.7532557 L75.3088908,51.987612 L85.2995607,51.987612 L85.2995607,49.7486355 C84.6103084,50.0361232 83.9216903,50.1217983 83.1696635,50.1217983 Z M70.3915485,36.2297362 L90.780606,36.2297362 L90.780606,38.0384332 L84.0783097,38.0384332 L84.0783097,41.2813952 L85.1429413,41.2813952 L86.458037,40.1910999 L91,41.0808519 L89.5904253,42.1997055 L89.5904253,60.8851319 L85.2995607,60.8851319 L85.2995607,58.7324652 L75.3088908,58.7324652 L75.3088908,60.7708984 L70.9552516,60.7708984 L70.9552516,40.5065113 L75.3088908,40.5065113 L75.3088908,41.2813952 L76.6239866,41.2813952 L76.6867612,38.0384332 L70.3915485,38.0384332 L70.3915485,36.2297362 Z M63.9086462,36 C66.2890077,36.2297362 70.110014,37.1480466 70.3604783,38.9567436 C70.6109425,40.5928211 68.9819738,41.3391465 67.7917931,40.8225573 C66.8210064,40.4208362 66.4766973,39.7893788 65.8502197,38.5258295 C65.3803614,37.5504024 64.6289687,36.8611936 63.7209566,36.2011779 L63.9086462,36 Z M63.4070837,42.8603559 C64.9422075,43.1186505 68.7004393,43.8364176 69.4835364,45.1278907 C70.2666335,46.4479222 69.2958467,48.1417511 67.5413289,47.8257051 C65.5059106,47.4525423 65.5369808,45.5867286 64.5661941,44.3530069 C64.1901807,43.864976 63.658182,43.4632549 63.1566194,43.0900921 L63.4070837,42.8603559 Z M69.1702976,48.9166349 L69.546311,49.0315031 C69.4524661,53.7385576 68.6376647,57.0678293 65.7253046,61 L63,56.8958444 C65.7563748,54.5419998 67.5102586,51.9590536 69.1702976,48.9166349 Z" id="Fill-8"></path>
            <path d="M113.483633,56.0884899 L116.101892,56.0884899 L116.101892,48.6107714 L113.483633,48.6107714 L113.483633,56.0884899 Z M113.483633,46.0505797 L113.483633,46.7984151 L115.975449,46.7984151 L117.395057,45.475713 L122,46.3386489 L120.580393,47.7192193 L120.580393,59.9135156 L116.101892,59.9135156 L116.101892,57.9580786 L113.483633,57.9580786 L113.483633,59.9713838 L108.941272,59.9713838 L108.941272,46.0505797 L113.483633,46.0505797 Z M102.91736,41.9095045 L112.632379,41.9095045 L112.632379,37.0485741 L102.91736,37.0485741 L102.91736,41.9095045 Z M99.3846263,56.1171061 L102.12869,56.1171061 L102.12869,48.6680037 L99.3846263,48.6680037 L99.3846263,56.1171061 Z M102.91736,34.3453016 L102.91736,35.2082375 L112.505937,35.2082375 L114.083278,34 L119.066911,34.8343198 L117.520861,36.157022 L117.520861,44.5262926 L112.632379,44.5262926 L112.632379,43.749841 L102.91736,43.749841 L102.91736,44.612777 L98.1227531,44.612777 L98.1227531,34.3453016 L102.91736,34.3453016 Z M99.3839877,46.0505797 L99.3839877,46.8562833 L102.033538,46.8562833 L103.327342,45.6480458 L107.900355,46.5402338 L106.481386,47.8050677 L106.481386,59.9421318 L102.12869,59.9421318 L102.12869,58.0725432 L99.3839877,58.0725432 L99.3839877,60 L95,60 L95,46.0505797 L99.3839877,46.0505797 Z" id="Fill-9"></path>
            <path d="M138.831266,45.1433706 C140.212836,45.8716258 143.435879,47.0671244 144.325852,48.3206256 C144.694395,48.8452272 145.185371,49.6611308 145.185371,50.3023821 C145.185371,51.3812309 144.049289,52.4007882 143.005809,52.4007882 C141.225864,52.4007882 140.949301,51.2349354 140.672738,49.8944303 C140.488777,48.9618769 140.212836,48.0576804 139.782766,47.1837741 C139.414223,46.4838758 138.831266,45.98892 138.462723,45.3470243 L138.831266,45.1433706 Z M143.681367,39.7220583 L146.106418,39.7220583 L147.2425,38.5265598 L152,39.4597576 L150.772559,40.537962 C150.772559,45.0847235 150.742106,49.6024837 150.679957,54.1498897 C150.679957,55.3743896 150.679957,56.598245 150.619051,57.822745 C150.587977,58.3177007 150.526449,58.9299507 150.280961,59.3675483 C149.513422,60.7667005 146.167946,61 144.694395,61 C143.251297,61 144.295399,59.862504 143.005809,58.958952 C142.177363,58.4053491 140.734887,58.2596981 139.752313,58.1430484 L139.752313,57.7640979 C140.734887,57.7640979 141.71684,57.7930992 142.699414,57.7930992 C143.374352,57.7930992 145.369953,57.9387502 145.891383,57.4437945 C146.106418,57.2394963 146.075965,56.8901916 146.075965,56.6272464 C146.075965,56.1902932 146.106418,55.7236943 146.136871,55.2867412 C146.229473,53.3629874 146.198398,51.3812309 146.198398,49.4568327 C146.198398,46.8628263 146.229473,44.2978212 146.229473,41.7038148 L142.084762,41.7038148 C140.980375,42.811665 139.721238,43.7732196 138.401817,44.6767717 L138.09418,44.5021193 C139.81384,41.5871651 140.51923,38.3229061 140.734887,35.0290013 L145.523461,35 C145.093391,36.661453 144.540887,38.2062564 143.681367,39.7220583 Z M130.205617,56.7148948 L133.42866,56.7148948 L133.42866,49.8067818 L130.205617,49.8067818 L130.205617,56.7148948 Z M130.205617,47.9996778 L133.42866,47.9996778 L133.42866,41.8204645 L130.205617,41.8204645 L130.205617,47.9996778 Z M135.33166,35 C134.257727,37.0984062 132.784176,38.6722108 130.788574,39.9547133 L133.305605,39.9843591 L134.349707,38.9055102 L139.138281,39.6344099 L137.756711,40.7712614 L137.756711,60.38775 L133.42866,60.38775 L133.42866,58.6096473 L130.205617,58.6096473 L130.205617,60.38775 L126,60.38775 L126,39.3721092 L129.315023,39.3721092 C129.745094,37.9149543 130.021035,36.515802 130.205617,35.0290013 L135.33166,35 Z" id="Fill-10"></path>
            <path d="M176.452548,35 C176.17674,35.7280876 175.930749,36.4555313 175.562384,37.0960681 L182.619717,37.0960681 L182.619717,39.0762603 L173.783297,39.0762603 L173.2,39.5423393 C173.936731,39.6002773 175.808375,39.4837576 177.189279,39.9491928 C178.047763,40.2408141 178.876429,40.7068931 178.876429,41.4343369 C178.876429,42.1913935 177.955827,42.8898683 177.219717,42.8898683 C176.084183,42.8898683 175.440009,42.2789442 174.7039,41.5798257 C174.028667,40.9399327 173.231059,40.4448846 172.402393,40.0077746 C171.543288,40.4738536 170.622685,40.9682579 169.702703,41.3178172 L169.364776,41.0854214 C170.715242,39.3092998 171.23642,37.1546499 171.451352,35 L176.452548,35 Z M165.959416,58.2923641 L175.624502,58.2923641 L175.624502,56.5162424 L165.959416,56.5162424 L165.959416,58.2923641 Z M165.959416,51.4209171 L174.91821,51.4209171 L174.91821,49.877835 L165.959416,49.877835 L165.959416,51.4209171 Z M164.578511,35.1165198 L163.811342,37.1546499 L169.702703,37.1546499 L169.702703,39.1341983 L162.338502,39.1341983 L161.939699,39.5713083 C162.706868,39.6292463 164.148648,39.4837576 165.376119,39.8622858 C166.266283,40.1532633 167.032831,40.6483114 167.032831,41.4053679 C167.032831,42.2789442 166.296722,42.919481 165.437616,42.919481 C164.394639,42.919481 163.964776,42.5988908 163.443598,41.8418342 C162.952237,41.1143904 162.338502,40.3573339 161.540895,39.9491928 C160.221489,40.8523819 158.840584,41.7549272 157.368365,42.395464 L157.122996,42.1913935 C158.288347,40.3863029 158.871644,39.3382688 159.362384,37.2415569 C159.546877,36.5141131 159.669251,35.8446073 159.730749,35.1165198 L164.578511,35.1165198 Z M177.771954,44.1130039 L179.183297,42.8319303 L184,43.7930573 C183.570758,44.1130039 183.141516,44.4625631 182.742091,44.8121224 C182.588658,44.9279984 182.435224,45.1906507 182.282411,45.3651084 C181.914046,45.7726057 181.515242,46.151134 181.054941,46.4421115 C180.318831,46.9081906 179.551662,47.2577498 178.754055,47.6066653 L180.471644,47.9272556 L179.367169,48.9463207 L179.367169,53.517629 L174.91821,53.517629 L174.91821,53.138457 L165.959416,53.138457 L165.959416,54.7111518 L175.562384,54.7111518 L176.759416,53.6631178 L181.79105,54.4201743 L180.441206,55.5261464 L180.410767,61 L175.624502,61 L175.624502,60.1264237 L165.959416,60.1264237 L165.959416,61 L161.540895,61 L161.540895,47.1412301 L165.959416,47.1412301 L165.959416,48.0727444 L174.795836,48.0727444 L175.808375,46.9661286 L177.86389,47.4032386 C177.894329,46.9081906 177.955827,46.4131425 177.986886,45.9180945 L161.357023,45.9180945 C161.357023,46.3552045 161.325963,46.7916708 161.265087,47.2287808 C161.080594,48.3347529 160.129553,49.1793602 159.055516,49.1793602 C158.288347,49.1793602 157,48.8298009 157,47.8982866 C157,46.646182 158.871644,45.1906507 159.117014,43.4145291 L159.240009,42.5699218 L159.669251,42.5409528 C160.129553,43.0360008 160.528356,43.5304051 160.896722,44.1130039 L168.965973,44.1130039 C168.04537,43.1525206 168.965973,42.8029613 167.493132,41.6673764 L167.616128,41.4053679 C168.751662,41.4343369 169.917014,41.3763989 171.052548,41.4639497 C171.881215,41.5508567 173.261498,42.0459047 173.261498,43.0360008 C173.261498,43.3849163 172.985068,43.8509953 172.739699,44.1130039 L177.771954,44.1130039 Z" id="Fill-11"></path>
            <path d="M204.20088,53.6789558 L209.101275,53.6789558 L209.101275,52.3819831 L204.20088,52.3819831 L204.20088,53.6789558 Z M204.20088,50.6809413 L209.101275,50.6809413 L209.101275,49.3546513 L204.20088,49.3546513 L204.20088,50.6809413 Z M204.20088,47.6249295 L209.101275,47.6249295 L209.101275,46.2992769 L204.20088,46.2992769 L204.20088,47.6249295 Z M198.207787,35 C199.799752,35.2593945 204.606613,35.4614291 205.137479,37.1624709 C205.200045,37.3638681 205.231012,37.5945827 205.231012,37.8252972 C205.231012,38.1420517 205.168446,38.4881235 204.981379,38.7475181 C204.575646,39.2949871 203.795147,39.7564162 203.077215,39.7564162 L202.921115,39.7564162 C200.829884,39.5257017 200.829884,37.9113372 199.737185,36.6717245 C199.237919,36.1242554 198.644487,35.6341463 198.020088,35.1727172 L198.207787,35 Z M209.66374,35.2593945 L215.282067,35.5767864 C213.440469,37.7386199 211.785938,38.862238 209.101275,40.0444907 L216,40.0444907 L216,41.8028925 L207.884076,41.8028925 C206.79201,42.9845079 205.761878,43.7626915 204.294414,44.5415124 L209.258007,44.5701924 L210.381672,43.3305797 L214.9705,44.1954406 L213.846202,45.405736 L213.846202,56.8783674 L209.101275,56.8783674 L209.101275,55.5807574 L204.20088,55.5807574 L204.20088,56.8490501 L199.518519,56.8490501 L199.518519,43.7626915 L202.452816,43.7626915 C202.702449,43.1285452 202.889516,42.4657188 203.045616,41.8028925 L196.709356,41.8028925 L196.709356,40.0444907 L206.697844,40.0444907 C208.102742,38.5168035 208.976775,37.1624709 209.66374,35.2593945 Z M189.873197,35.5481064 C191.496129,35.8648609 194.711026,36.2682927 195.835323,37.3925481 C196.210089,37.7672999 196.428123,38.5168035 196.428123,39.0069126 C196.428123,39.9871308 195.085792,40.9093516 194.087259,40.9093516 C191.964428,40.9093516 191.964428,39.6984189 191.465162,38.1994117 C191.152962,37.3065082 190.372464,36.4416473 189.685498,35.7788209 L189.873197,35.5481064 Z M191.714795,55.6967521 L191.714795,45.6364505 L188.374766,45.6364505 L188.343799,43.7340115 L191.714795,43.7340115 L192.869428,42.6384361 L197.676921,43.3305797 L196.210089,44.7715897 L196.210089,56.1862238 C200.142918,58.2906974 204.794312,58.1466601 209.195441,58.1466601 C211.442772,58.1466601 213.659136,57.9733056 215.875499,57.6272337 L215.875499,57.8872656 C215.001467,58.2906974 214.346101,58.7521265 214.346101,59.7317073 C214.346101,60.0490992 214.501569,60.423851 214.595734,60.7119255 L214.439634,60.8846427 C212.629003,60.97132 210.849972,61 209.039341,61 C206.167611,61 201.48525,61 198.89412,59.9911019 C198.332288,59.7610246 197.770455,59.4723128 197.271188,59.126241 C196.802889,58.7801691 196.366189,58.4060547 195.991423,57.9733056 C195.523124,57.4545165 194.930324,56.5609756 194.118226,56.5609756 C192.807494,56.5609756 191.340029,58.5500919 190.496964,59.3862728 C190.185397,59.7030273 189.873197,59.9911019 189.560998,60.2791764 L188,57.1084447 C189.217831,56.5896556 190.465997,56.1288638 191.714795,55.6967521 Z" id="Fill-12"></path>
            <path d="M237.70709,45.2919116 L239.795398,45.2919116 L239.795398,42.0701473 L237.70709,42.0701473 L237.70709,45.2919116 Z M231.654851,45.2919116 L233.805348,45.2919116 L233.805348,42.0701473 L231.654851,42.0701473 L231.654851,45.2919116 Z M231.654851,40.1141898 L233.805348,40.1141898 L233.805348,37.9273338 L231.654851,37.9273338 L231.654851,40.1141898 Z M233.037313,54.8719691 C234.296642,53.7212935 234.63495,53.2900288 235.648632,51.9377147 L231.071517,51.9377147 C230.549129,52.3403557 230.08893,52.8008803 229.566542,53.2321451 C229.136194,53.6061624 228.675995,53.9515559 228.245647,54.2969493 C229.843284,54.4407043 231.440299,54.6703305 233.037313,54.8719691 Z M225.54291,45.2919116 L227.600746,45.2919116 L227.600746,42.0701473 L225.54291,42.0701473 L225.54291,45.2919116 Z M219.768035,36.0286238 L245.324005,36 L245.324005,37.9273338 L237.706468,37.9273338 L237.706468,40.1141898 L239.703358,40.1141898 L240.747512,38.992138 L245.447139,39.79742 L244.310323,40.9194718 L244.310323,48.0251635 L239.795398,48.0251635 L239.795398,47.277129 L225.54291,47.277129 L225.54291,48.1116709 L220.843284,48.1116709 L220.843284,39.394779 L225.54291,39.394779 L225.54291,40.1141898 L227.600746,40.1141898 L227.600746,37.9273338 L219.768035,37.9273338 L219.768035,36.0286238 Z M233.068408,49.8952497 L246,49.8952497 L246,51.9377147 L240.870647,51.9377147 C239.887438,53.3472763 238.842662,54.6423428 237.552861,55.8216421 C239.027363,56.1950233 245.047886,57.8062234 245.047886,59.5325548 C245.047886,60.3378368 244.279851,60.9707401 243.450871,60.9707401 C242.19092,60.9707401 239.703358,59.7628171 238.689677,59.3315523 C237.399254,58.7845203 236.047886,58.2667481 234.72699,57.8062234 C233.559701,58.4391268 232.361318,59.0147826 231.102612,59.4174236 C227.539179,60.5967229 223.392413,60.8269852 219.6449,61 L219.583333,60.7124901 C223.54602,59.9351958 227.385572,58.5828817 230.825871,56.5696766 C228.276741,55.8788897 225.757463,55.2746101 223.115672,54.9298527 C224.252488,54.0374272 225.266169,53.0018828 226.218284,51.9377147 L219,51.9377147 L219,49.8952497 L227.968905,49.8952497 C228.429726,49.3774775 228.798507,48.773198 229.136194,48.1689184 L234.450249,48.1689184 C234.050995,48.773198 233.559701,49.3488538 233.068408,49.8952497 Z" id="Fill-13"></path>
            <path d="M264.45292,35 C265.70165,35.140838 267.043909,35.140838 268.261042,35.4231373 C269.041498,35.5920183 269.790357,36.0425755 270.227665,36.7193459 C270.50825,37.1424832 270.726905,37.5930404 270.726905,38.1003066 C270.726905,39.1715482 269.228555,39.5940624 268.261042,39.5940624 C265.764213,39.5940624 265.982235,37.8747165 265.233376,36.3529177 C265.014722,35.9304036 264.578046,35.5072662 264.2033,35.1975472 L264.45292,35 Z M260.519672,47.7396116 L265.795178,47.7396116 L265.795178,41.9334696 L259.458631,41.9334696 L259.458631,40.0732856 L277.4066,40.0732856 L277.4066,41.9334696 L270.570813,41.9334696 L270.570813,47.7396116 L276.344927,47.7396116 L276.344927,49.5711294 L270.570813,49.5711294 L270.570813,57.6605928 L278,57.6605928 L277.968403,59.4640676 L257.648098,59.4640676 L257.648098,57.6605928 L265.795178,57.6605928 L265.795178,49.5711294 L260.519672,49.5711294 L260.519672,47.7396116 Z M252.373224,35.7328564 C254.246319,35.9584465 258.990357,36.4376698 258.990357,38.8898721 C258.990357,40.1013286 257.866752,40.693347 256.64962,40.693347 C255.276396,40.693347 254.745559,40.2708328 254.277285,39.2563003 C254.090228,38.861206 253.9967,38.2978538 253.809011,37.9314256 C253.278174,37.001022 252.935026,36.6626368 252.092007,35.9584465 L252.373224,35.7328564 Z M258.491118,48.0212877 L258.896829,48.1340828 C258.8033,49.1772815 258.772335,50.2478999 258.584646,51.3191415 C257.991878,54.8139193 256.025255,57.3222075 253.590989,60 L251,55.9412469 C254.30825,53.5451305 256.274874,51.2624324 258.491118,48.0212877 Z M251.187057,43.2303014 C252.841498,43.3991824 256.087817,43.3144303 257.117894,44.667348 C257.430076,45.0898622 257.835787,45.9074706 257.835787,46.4147369 C257.835787,47.5987736 256.64962,48.1907919 255.463452,48.1907919 C254.90165,48.1907919 254.246319,48.0773737 253.871574,47.6268166 C253.278174,46.8939602 253.028555,45.9922227 252.591878,45.1746143 C252.24873,44.498467 251.624365,43.9912007 251,43.5119775 L251.187057,43.2303014 Z" id="Fill-14"></path>
            <path d="M304.264987,53.6116754 C305.81516,54.1546707 307.89189,54.4125777 309.038516,55.5560916 C309.472816,56.0131179 309.906488,57.2426009 309.906488,57.8715652 C309.906488,58.9581879 308.759861,59.5011832 307.705493,59.5011832 C306.899654,59.5011832 305.876665,58.9006645 305.473745,57.9575342 C305.070826,57.0422173 305.257223,56.3848074 304.885056,55.4132314 C304.667906,54.8411584 304.357872,54.2975309 303.985705,53.7545356 L304.264987,53.6116754 Z M294.562284,52.4397158 C295.802422,52.582576 298.747123,52.668545 299.367193,53.812059 C299.52221,54.1262251 299.70798,54.8411584 299.70798,55.2128478 C299.70798,56.0990869 298.654239,56.499222 297.81702,56.499222 C296.173962,56.499222 296.018944,55.6414285 295.647405,54.3550543 C295.461007,53.6691988 294.934451,53.0686801 294.376514,52.6110217 L294.562284,52.4397158 Z M291.462565,50.552823 L302.250389,50.552823 L302.250389,49.2380031 L291.462565,49.2380031 L291.462565,50.552823 Z M291.462565,47.693722 L302.250389,47.693722 L302.250389,46.4073478 L291.462565,46.4073478 L291.462565,47.693722 Z M298.964273,41.6904317 C299.615095,40.7466692 300.173032,39.8319844 300.700216,38.8313307 L290.501081,38.8313307 C291.55545,38.9741909 294.469399,39.288357 294.469399,40.6897779 C294.469399,41.0323896 294.097232,41.4325247 293.880082,41.6904317 L298.964273,41.6904317 Z M293.260013,53.154017 L293.260013,56.2703928 C293.260013,56.6136366 293.291393,57.071295 293.570047,57.3285699 C293.817949,57.556767 295.182353,57.556767 295.55452,57.556767 C299.460078,57.556767 300.235164,57.5858447 302.126124,54.2121941 L302.559796,54.2406397 C302.498292,54.6692204 302.436159,55.0984332 302.436159,55.5270139 C302.436159,57.4998757 304.264987,56.8424658 304.264987,57.6142903 C304.264987,57.8715652 304.047837,58.1003944 303.862067,58.3001459 C303.334883,58.9006645 302.621929,59.4152142 301.753957,59.6440434 C299.862997,60.1017019 297.81702,59.9872873 295.863927,59.9872873 C294.469399,59.9872873 289.974524,60.1017019 289.323702,58.7009131 C289.075173,58.214809 288.951535,57.6711816 288.951535,57.1281863 L288.951535,53.154017 L293.260013,53.154017 Z M286.96769,44.0912421 L291.462565,44.0912421 L291.462565,44.8061754 L302.311894,44.8061754 L303.149113,43.9199362 L308.046907,44.6348695 L306.899654,45.6355233 L306.899654,52.754514 L302.250389,52.754514 L302.250389,52.096472 L291.462565,52.096472 L291.462565,52.6394673 L286.96769,52.6394673 L286.96769,44.0912421 Z M286.843425,53.4688152 C287.277725,54.4410233 287.742777,55.5845373 287.742777,56.6420822 C287.742777,58.2717003 286.998443,59.5580745 285.2625,59.5580745 C284.394528,59.5580745 283.278655,59.3007996 283.278655,58.3001459 C283.278655,56.8993571 285.356012,56.1275326 286.037586,54.5263601 L286.471258,53.4972608 L286.843425,53.4688152 Z M290.563213,41.6904317 C289.695242,40.9464207 290.005276,40.5747312 289.416587,39.7744611 C289.199437,39.460295 288.889403,39.2030202 288.579368,38.9457453 L288.641501,38.8313307 L285.04535,38.8313307 L285.04535,37.0872981 L295.058088,37.0872981 C294.469399,36.6587174 294.438019,36.601194 294.004347,36.0297531 C293.694312,35.5720947 293.22926,35.2288508 292.764208,34.885607 L292.826341,34.6574099 C293.787197,34.5714409 294.655168,34 295.616025,34 C296.267474,34 298.777876,34.5423632 299.150043,35.1719596 C299.274308,35.4001567 299.491458,35.8009239 299.491458,36.0866443 C299.491458,36.5727484 299.212175,36.7156086 298.902141,37.0872981 L308.790614,37.0872981 L308.790614,38.8313307 L302.529044,38.8313307 C303.428395,39.1170512 304.357872,39.3458804 305.257223,39.5740775 C303.954952,40.2321195 303.241998,40.7466692 302.187629,41.6904317 L310,41.6904317 L310,43.4338322 L283,43.4338322 L283,41.6904317 L290.563213,41.6904317 Z" id="Fill-15"></path>
        </g>
    </g>
</svg>