<?xml version="1.0" encoding="UTF-8"?>
<svg width="435px" height="30px" viewBox="0 0 435 30" version="1.1" xmlns="http://www.w3.org/2000/svg" xmlns:xlink="http://www.w3.org/1999/xlink">
    <!-- Generator: Sketch 52.2 (67145) - http://www.bohemiancoding.com/sketch -->
    <title>story</title>
    <desc>Created with Sketch.</desc>
    <defs>
        <polygon id="path-1" points="0 0.48275 30.7949375 0.48275 30.7949375 29.027125 0 29.027125"></polygon>
        <polygon id="path-3" points="0 29.865125 434.10125 29.865125 434.10125 0.625125 0 0.625125"></polygon>
    </defs>
    <g id="Page-1" stroke="none" stroke-width="1" fill="none" fill-rule="evenodd">
        <g id="Desktop-HD-II-I-Copy" transform="translate(-292.000000, -1122.000000)">
            <g id="Group-11" transform="translate(248.000000, 1122.000000)">
                <g id="story" transform="translate(44.000000, 0.000000)">
                    <g id="Group-3" transform="translate(0.000000, 0.490125)">
                        <mask id="mask-2" fill="white">
                            <use xlink:href="#path-1"></use>
                        </mask>
                        <g id="Clip-2"></g>
                        <path d="M15.8630625,4.208375 C17.3461875,4.587125 20.0699375,4.872125 20.0699375,6.829 C20.0699375,7.744625 19.1049375,8.187125 18.2424375,8.187125 C16.7599375,8.187125 16.8286875,7.113375 16.6218125,6.0715 C16.5180625,5.5665 15.9668125,4.7765 15.6905625,4.3665 L15.8630625,4.208375 Z M17.8974375,10.997125 L17.5874375,10.460875 L15.3111875,10.460875 L15.3111875,8.597125 L20.5530625,8.597125 C21.0355625,7.113375 21.3461875,5.69275 21.6568125,4.208375 L25.3811875,4.208375 C24.5186875,5.819 23.5186875,7.208375 22.2430625,8.597125 L25.0018125,8.597125 L25.0018125,10.460875 L19.1393125,10.460875 C20.0699375,10.7765 21.7255625,11.2815 21.7255625,12.3865 C21.7255625,12.95525 21.3805625,13.144625 20.9668125,13.492125 L25.0018125,13.492125 L25.0018125,15.2915 L20.5530625,15.2915 L20.5530625,20.407125 L24.3805625,20.407125 L24.3805625,22.3015 L20.0355625,22.3015 L19.0011875,23.343375 L15.7943125,22.049 L16.9668125,21.259625 L16.9668125,15.2915 L15.3111875,15.2915 L15.3111875,13.492125 L18.7599375,13.492125 C17.4836875,13.018375 18.3461875,11.7865 17.8974375,10.997125 Z M5.9311875,20.91275 C6.7936875,21.82775 8.1386875,23.37525 8.1386875,24.638375 C8.1386875,25.617125 7.3799375,26.3115 6.2761875,26.3115 C5.4143125,26.3115 4.7936875,26.02775 4.7936875,25.17525 C4.7936875,24.259625 5.5868125,23.090875 5.5868125,21.954625 C5.5868125,21.639 5.5518125,21.2915 5.5174375,20.97525 L5.9311875,20.91275 Z M7.4486875,14.50275 L7.7936875,14.344625 C8.4143125,14.6915 9.8624375,15.51275 10.2418125,15.9865 L10.8280625,16.71275 L10.8280625,9.039625 C9.7936875,10.587125 8.7249375,12.10275 7.5174375,13.523375 C6.1730625,15.10275 4.6899375,16.554625 3.2068125,17.97525 C4.7936875,17.849 6.3799375,17.56525 7.9318125,17.21775 C7.9318125,16.239 7.8280625,15.418375 7.4486875,14.50275 Z M3.1724375,21.82775 C3.5174375,22.869625 3.8968125,24.007125 3.8968125,25.1115 C3.8968125,26.4065 3.5174375,27.6065 1.9655625,27.6065 C1.3105625,27.6065 0.4480625,27.38525 0.4480625,26.659 C0.4480625,25.649 2.1036875,24.259625 2.5518125,22.869625 L2.8968125,21.82775 L3.1724375,21.82775 Z M10.8280625,5.755875 L10.8280625,0.8615 L14.6905625,0.8615 L14.6905625,1.682125 L25.2774375,1.682125 L26.4499375,0.48275 L30.7949375,1.43025 L29.4843125,2.472125 L29.4843125,25.83775 C29.4843125,26.28025 29.4155625,26.722125 29.2774375,27.13275 C28.7949375,28.553375 27.5880625,28.7115 26.1743125,28.83775 C25.6911875,28.900875 25.2430625,28.93275 24.7599375,28.93275 C23.4149375,28.93275 23.5530625,28.490875 23.3461875,27.449 C23.2080625,26.722125 20.4149375,26.343375 19.8286875,26.217125 L19.8980625,25.83775 C21.1736875,25.9015 22.4843125,25.964625 23.7599375,25.964625 C24.7599375,25.964625 25.3811875,25.77525 25.3811875,24.764625 L25.3811875,3.54525 L14.6905625,3.54525 L14.6905625,29.027125 L10.8280625,29.027125 L10.8280625,25.207125 C10.5868125,25.23775 10.3455625,25.269625 10.1043125,25.269625 C9.0693125,25.269625 8.3799375,24.82775 8.3799375,23.849 L8.3799375,23.185875 C8.3799375,22.17525 8.2074375,21.2915 7.8968125,20.31275 L8.1730625,20.154625 C9.1386875,20.659625 10.0005625,21.2915 10.8280625,21.985875 L10.8280625,19.049 C10.3799375,19.36525 9.8280625,19.61775 9.2418125,19.61775 C8.2074375,19.61775 8.2074375,19.333375 8.0005625,18.544 C6.2074375,19.649 4.2761875,20.56525 2.3105625,21.354625 L0.4830625,17.944625 C0.7586875,17.880875 0.9999375,17.849 1.2411875,17.754625 C2.4830625,17.249625 4.6899375,13.270875 5.3799375,12.10275 C4.1380625,12.86025 2.8968125,13.492125 1.6205625,14.123375 L-6.25e-05,11.060875 C0.2068125,10.997125 0.4480625,10.90275 0.6549375,10.7765 C1.4486875,10.270875 2.8968125,4.90275 3.0693125,3.860875 C3.2761875,2.78775 3.3793125,1.714 3.4830625,0.64025 L8.7249375,0.577125 C8.3455625,1.5565 7.9661875,2.472125 7.5868125,3.419 C6.4486875,6.134625 4.5174375,8.5665 2.5518125,10.808375 C3.6899375,10.744625 4.8280625,10.65025 5.9661875,10.460875 C6.7593125,8.818375 7.1730625,6.955875 7.5524375,5.187125 L10.8280625,5.755875 Z" id="Fill-1" fill="#FFFFFF" mask="url(#mask-2)"></path>
                    </g>
                    <mask id="mask-4" fill="white">
                        <use xlink:href="#path-3"></use>
                    </mask>
                    <g id="Clip-5"></g>
                    <path d="M54.27625,25.91825 L58.483125,25.91825 L58.483125,20.392 L54.27625,20.392 L54.27625,25.91825 Z M58.000625,5.89825 L54.241875,5.89825 L53.8625,6.530125 C54.551875,7.761375 55.379375,8.582625 56.414375,9.592625 C57.345,8.04575 57.5175,7.63575 58.000625,5.89825 Z M58.27625,18.3395 L59.62125,16.982 L64.5525,17.928875 L63.38,19.16075 L63.38,29.486375 L58.483125,29.486375 L58.483125,28.03325 L54.27625,28.03325 L54.27625,29.486375 L49.655,29.486375 L49.655,17.45575 L54.27625,17.45575 L54.27625,18.3395 L58.27625,18.3395 Z M39.965,9.4345 L43.103125,9.4345 L43.103125,4.856375 L39.965,4.856375 L39.965,9.4345 Z M42.861875,2.83575 L44.24125,1.5095 L48.8275,2.551375 L47.689375,3.68825 L47.689375,12.90825 L43.103125,12.90825 L43.103125,11.55075 L39.965,11.55075 L39.965,12.940125 L35.550625,12.940125 L35.550625,1.825125 L39.965,1.825125 L39.965,2.83575 L42.861875,2.83575 Z M35.20625,14.866375 L38.585625,14.866375 L38.585625,24.560125 L39.965,24.276375 L39.965,13.50825 L44.20625,13.50825 L44.20625,16.25575 L47.965625,16.25575 L47.965625,16.85575 C50.793125,15.340125 52.069375,14.2345 54.345,12.087625 C53.58625,10.761375 53.069375,9.656375 52.5175,8.235125 C51.206875,9.466375 49.89625,10.6345 48.4825,11.740125 L47.965625,11.55075 C49.8275,7.95075 50.1725,5.29825 50.448125,1.320125 L55.79375,1.320125 L55.035,3.9095 L58.44875,3.9095 L59.69,2.551375 L64.759375,3.593875 L63.586875,4.730125 C62.5525,7.69825 61.931875,9.182 59.828125,11.677 C61.690625,12.49825 63.5525,13.1295 65.621875,13.25575 L65.621875,13.792625 C64.345625,14.10825 63.62125,14.550125 63.62125,15.876375 C63.62125,16.350125 63.828125,16.697625 64.035625,17.10825 L63.690625,17.423875 C61.069375,16.666375 58.79375,15.750125 56.551875,14.2345 C53.828125,15.65575 51,16.602625 47.965625,17.26575 L47.965625,18.37075 L44.20625,18.37075 L44.20625,23.297 C45.89625,22.8545 47.58625,22.350125 49.24125,21.781375 L49.31,22.128875 C48.1725,23.107 46.965625,24.0545 45.72375,24.938875 C42.965,26.865125 39.1025,28.065125 35.86125,29.107 L34.51625,25.22325 L35.20625,25.097 L35.20625,14.866375 Z" id="Fill-4" fill="#FFFFFF" mask="url(#mask-4)"></path>
                    <polygon id="Fill-6" fill="#FFFFFF" mask="url(#mask-4)" points="80.964375 26.6443125 80.964375 1.3511875 86.136875 1.3511875 86.136875 7.5718125 96.620625 7.5718125 96.620625 9.7193125 86.136875 9.7193125 86.136875 26.6443125 99.138125 26.6443125 99.138125 28.7599375 69.205 28.7599375 69.205 26.6443125"></polygon>
                    <path d="M122.274187,8.5193125 C124.791687,8.9611875 127.584812,9.1824375 130.033562,9.9399375 C131.826687,10.4774375 133.792312,11.4874375 133.792312,13.4455625 C133.792312,14.5499375 132.378562,15.4661875 131.274812,15.4661875 C129.205437,15.4661875 128.171063,13.8236875 127.032938,12.5293125 C125.757312,11.0455625 123.757312,9.8136875 121.998562,8.8349375 L122.274187,8.5193125 Z M114.652938,0.6249375 C115.377313,0.6568125 116.342937,0.6886875 117.066688,0.6568125 C119.032312,0.5305625 122.998562,1.6355625 122.549813,4.0674375 C122.342938,5.2036875 120.515437,5.7405625 119.411687,5.6149375 C116.136062,5.2036875 116.929187,2.5199375 115.170437,1.4774375 L114.480437,1.0674375 L114.652938,0.6249375 Z M104.342312,7.6668125 L133.585437,7.6668125 L133.585437,5.6774375 L104.342312,5.6774375 L104.342312,7.6668125 Z M104.583562,16.3186875 L104.238563,15.9399375 C106.928562,14.0455625 109.204187,11.5818125 110.618562,8.7405625 L117.652937,8.6455625 C114.239187,13.2874375 110.480437,14.8030625 104.583562,16.3186875 Z M123.136062,13.6349375 L128.688562,14.4874375 C126.550438,18.1818125 125.653562,19.6343125 122.274187,22.5074375 C126.102312,24.2443125 130.481687,24.9074375 134.688562,25.3811875 L134.688562,25.7918125 C132.585437,26.2336875 131.136687,27.4649375 132.585437,29.2961875 L132.274812,29.6124375 C127.653562,28.7280625 122.756687,27.1805625 118.791062,24.8755625 C113.446062,27.4018125 109.480437,28.1918125 103.721063,29.3911875 L103.514188,29.0755625 C108.204188,27.1493125 111.618562,25.2861875 115.756687,22.5393125 C113.204813,20.2024375 112.066688,17.5180625 111.204812,14.3611875 L112.721688,14.1718125 C114.377313,16.9499375 115.791062,18.4024375 118.481063,20.4236875 C120.997937,18.1818125 121.894813,16.5711875 123.136062,13.6349375 Z" id="Fill-7" fill="#FFFFFF" mask="url(#mask-4)"></path>
                    <path d="M148.203125,11.077 L159.72125,11.077 L159.72125,8.613875 L148.203125,8.613875 L148.203125,11.077 Z M148.203125,6.687625 L159.72125,6.687625 L159.72125,4.54075 L148.203125,4.54075 L148.203125,6.687625 Z M158.618125,20.486375 C157.37625,22.82325 155.72125,24.276375 153.479375,25.8545 C151.410625,27.275125 147.03125,28.570125 144.5825,29.265125 L144.271875,28.98075 C145.789375,28.03325 147.2725,27.022625 148.720625,25.98075 C151.583125,23.897 153.135,21.338875 154.2725,18.21325 L159.790625,18.21325 C159.41125,18.97075 159.031875,19.728875 158.618125,20.486375 Z M148.203125,1.4145 L148.203125,2.520125 L159.54875,2.520125 L160.928125,1.162 L166.41125,2.172 L164.721875,3.625125 L164.721875,13.85575 L159.72125,13.85575 L159.72125,12.972 L148.203125,13.00325 L148.203125,13.85575 L143.030625,13.85575 L143.030625,1.4145 L148.203125,1.4145 Z M151.065625,14.3295 L150.238125,15.340125 L162.790625,15.340125 L163.9975,14.10825 L169.27375,14.992625 L167.825625,16.350125 C167.6875,17.582 167.58375,18.812625 167.44625,20.0445 C167.204375,22.412625 166.825,26.23325 164.963125,28.002 C163.963125,28.98075 160.514375,29.548875 159.100625,29.548875 C157.79,29.548875 158.23875,28.096375 156.89375,27.2445 C156.37625,26.896375 155.238125,26.58075 154.583125,26.422625 L154.72125,26.0445 C156.06625,26.138875 157.445625,26.265125 158.79,26.265125 C159.48,26.265125 160.3075,26.202 160.89375,25.8545 C162.41125,24.87575 162.72125,18.97075 162.790625,17.26575 L148.16875,17.26575 C145.444375,19.097 142.444375,20.392 139.2375,21.37075 L138.926875,21.11825 C139.65125,20.612625 140.444375,20.076375 141.099375,19.4445 C142.2375,18.37075 143.9275,16.57075 144.5825,15.182 L144.99625,14.297625 L151.065625,14.3295 Z M152.583125,18.182 C152.065625,18.90825 151.51375,19.6345 150.9625,20.328875 C148.479375,23.42325 142.858125,25.57075 138.96125,26.612625 L138.72,26.360125 C141.8925,24.338875 145.34125,21.433875 146.961875,18.182 L152.583125,18.182 Z" id="Fill-8" fill="#FFFFFF" mask="url(#mask-4)"></path>
                    <path d="M196.237812,14.202875 C196.237812,14.424125 196.375937,14.73975 196.685937,14.73975 C196.962187,14.73975 197.306562,14.550375 197.582812,14.424125 L197.582812,9.845375 L196.237812,9.845375 L196.237812,14.202875 Z M192.685937,7.856625 L192.685937,4.2885 L191.582187,4.2885 L191.547812,7.856625 L192.685937,7.856625 Z M186.582187,25.0335 L197.582812,25.0335 L197.582812,21.6235 L186.582187,21.6235 L186.582187,25.0335 Z M188.030312,11.202875 L188.030312,9.845375 L186.582187,9.845375 L186.582187,17.361 C187.650937,15.150375 188.030312,13.602875 188.030312,11.202875 Z M195.237812,17.581625 C193.789688,17.581625 192.685937,17.4235 192.685937,15.84475 L192.685937,9.845375 L191.513437,9.845375 C191.272187,14.645375 191.030312,15.592875 186.582187,18.276625 L186.582187,19.634125 L197.582812,19.634125 L197.582812,17.171 C196.824062,17.48725 196.065312,17.581625 195.237812,17.581625 Z M181.167812,2.2985 L203.617812,2.2985 L203.617812,4.2885 L196.237812,4.2885 L196.237812,7.856625 L197.410312,7.856625 L198.858437,6.656625 L203.859062,7.635375 L202.307187,8.866625 L202.307187,29.422875 L197.582812,29.422875 L197.582812,27.054125 L186.582187,27.054125 L186.582187,29.296 L181.788437,29.296 L181.788437,7.0035 L186.582187,7.0035 L186.582187,7.856625 L188.030312,7.856625 L188.099687,4.2885 L181.167812,4.2885 L181.167812,2.2985 Z M174.029687,2.046625 C176.650313,2.2985 180.857812,3.309125 181.133437,5.2985 C181.409062,7.0985 179.615937,7.919125 178.305937,7.351 C177.236562,6.909125 176.857187,6.214125 176.167812,4.82475 C175.650312,3.751 174.822812,2.9935 173.822812,2.26725 L174.029687,2.046625 Z M173.477812,9.592875 C175.167812,9.87725 179.305937,10.666625 180.167812,12.08725 C181.029687,13.53975 179.960937,15.402875 178.029687,15.055375 C175.788437,14.645375 175.822812,12.592875 174.753437,11.23475 C174.339687,10.6985 173.753437,10.256 173.202188,9.845375 L173.477812,9.592875 Z M179.822812,16.255375 L180.236562,16.381625 C180.133437,21.55975 179.236562,25.2235 176.029687,29.549125 L173.029687,25.0335 C176.064062,22.44475 177.995312,19.602875 179.822812,16.255375 Z" id="Fill-9" fill="#FFFFFF" mask="url(#mask-4)"></path>
                    <path d="M228.960625,25.12825 L231.823125,25.12825 L231.823125,16.91825 L228.960625,16.91825 L228.960625,25.12825 Z M228.960625,14.10825 L228.960625,14.9295 L231.685,14.9295 L233.236875,13.476375 L238.271875,14.423875 L236.72,15.940125 L236.72,29.32825 L231.823125,29.32825 L231.823125,27.18075 L228.960625,27.18075 L228.960625,29.39075 L223.995,29.39075 L223.995,14.10825 L228.960625,14.10825 Z M217.40875,9.561375 L228.03,9.561375 L228.03,4.225125 L217.40875,4.225125 L217.40875,9.561375 Z M213.54625,25.160125 L216.54625,25.160125 L216.54625,16.982 L213.54625,16.982 L213.54625,25.160125 Z M217.40875,1.257 L217.40875,2.203875 L227.891875,2.203875 L229.61625,0.877625 L235.065,1.793875 L233.375,3.24575 L233.375,12.4345 L228.03,12.4345 L228.03,11.582 L217.40875,11.582 L217.40875,12.5295 L212.166875,12.5295 L212.166875,1.257 L217.40875,1.257 Z M213.54625,14.10825 L213.54625,14.992625 L216.443125,14.992625 L217.856875,13.666375 L222.856875,14.645125 L221.305,16.0345 L221.305,29.3595 L216.54625,29.3595 L216.54625,27.307 L213.54625,27.307 L213.54625,29.422625 L208.7525,29.422625 L208.7525,14.10825 L213.54625,14.10825 Z" id="Fill-10" fill="#FFFFFF" mask="url(#mask-4)"></path>
                    <path d="M261.890875,22.286375 C261.58025,21.71825 261.27025,21.150125 260.890875,20.612625 L259.959625,20.612625 L259.959625,22.476375 L261.890875,22.286375 Z M266.822125,18.592 L268.30525,17.2345 L264.78775,17.26575 L264.78775,16.982 L259.959625,16.982 L259.959625,18.592 L266.822125,18.592 Z M259.959625,14.99325 L264.78775,14.99325 L264.78775,13.287625 L259.959625,13.287625 L259.959625,14.99325 Z M259.959625,11.266375 L264.78775,11.266375 L264.78775,9.75075 L259.959625,9.75075 L259.959625,11.266375 Z M251.23525,14.99325 L255.1665,14.99325 L255.1665,13.287625 L251.23525,13.287625 L251.23525,14.99325 Z M251.23525,11.266375 L255.1665,11.266375 L255.1665,9.75075 L251.23525,9.75075 L251.23525,11.266375 Z M243.614,17.676375 L248.06275,17.676375 L248.06275,18.592 L255.1665,18.592 L255.1665,16.982 L251.23525,16.982 L251.23525,17.392 L246.4415,17.392 L246.4415,7.003875 L251.23525,7.003875 L251.23525,7.69825 L264.649625,7.730125 L266.063375,6.277625 L271.029625,7.351375 L269.5465,8.5195 L269.5465,17.26575 L269.235875,17.26575 L273.029625,18.592 L271.753375,19.538875 L271.753375,26.960125 C271.753375,27.370125 271.719,27.907 271.512125,28.286375 C270.82275,29.422625 267.2015,29.865125 265.96025,29.865125 C265.2015,29.865125 264.92525,29.83325 264.92525,29.138875 C264.92525,27.622625 261.959625,27.148875 260.75275,26.896375 L260.822125,26.486375 C262.477125,26.6445 264.167125,26.77075 265.822125,26.77075 C266.5465,26.77075 267.029,26.738875 267.029,25.948875 L267.029,20.612625 L262.408375,20.612625 C263.684,21.338875 265.925875,21.938875 265.96025,24.02325 C265.96025,25.22325 264.890875,25.665125 263.718375,25.665125 C262.235875,25.665125 262.304625,24.7495 262.2015,23.676375 C258.23525,24.52825 254.200875,25.22325 250.1315,25.665125 L248.304,22.8545 C250.579625,22.91825 252.89025,22.886375 255.1665,22.728875 L255.1665,20.612625 L248.06275,20.612625 L248.06275,28.791375 L243.614,28.791375 L243.614,17.676375 Z M260.822125,2.930125 L260.822125,1.003875 L265.822125,1.003875 L265.822125,2.930125 L273.47775,2.930125 L273.47775,4.951375 L265.822125,4.951375 L265.822125,6.43575 L260.822125,6.43575 L260.822125,4.951375 L254.787125,4.951375 L254.787125,6.466375 L249.7865,6.466375 L249.7865,4.951375 L243.165875,4.951375 L243.165875,2.930125 L249.7865,2.930125 L249.7865,1.067625 L254.787125,1.067625 L254.787125,2.930125 L260.822125,2.930125 Z" id="Fill-11" fill="#FFFFFF" mask="url(#mask-4)"></path>
                    <path d="M296.545125,22.286375 C296.2345,21.71825 295.9245,21.150125 295.545125,20.612625 L294.613875,20.612625 L294.613875,22.476375 L296.545125,22.286375 Z M301.476375,18.592 L302.9595,17.2345 L299.442,17.26575 L299.442,16.982 L294.613875,16.982 L294.613875,18.592 L301.476375,18.592 Z M294.613875,14.99325 L299.442,14.99325 L299.442,13.287625 L294.613875,13.287625 L294.613875,14.99325 Z M294.613875,11.266375 L299.442,11.266375 L299.442,9.75075 L294.613875,9.75075 L294.613875,11.266375 Z M285.8895,14.99325 L289.82075,14.99325 L289.82075,13.287625 L285.8895,13.287625 L285.8895,14.99325 Z M285.8895,11.266375 L289.82075,11.266375 L289.82075,9.75075 L285.8895,9.75075 L285.8895,11.266375 Z M278.26825,17.676375 L282.717,17.676375 L282.717,18.592 L289.82075,18.592 L289.82075,16.982 L285.8895,16.982 L285.8895,17.392 L281.09575,17.392 L281.09575,7.003875 L285.8895,7.003875 L285.8895,7.69825 L299.303875,7.730125 L300.717625,6.277625 L305.683875,7.351375 L304.20075,8.5195 L304.20075,17.26575 L303.890125,17.26575 L307.683875,18.592 L306.407625,19.538875 L306.407625,26.960125 C306.407625,27.370125 306.37325,27.907 306.166375,28.286375 C305.477,29.422625 301.85575,29.865125 300.6145,29.865125 C299.85575,29.865125 299.5795,29.83325 299.5795,29.138875 C299.5795,27.622625 296.613875,27.148875 295.407,26.896375 L295.476375,26.486375 C297.131375,26.6445 298.821375,26.77075 300.476375,26.77075 C301.20075,26.77075 301.68325,26.738875 301.68325,25.948875 L301.68325,20.612625 L297.062625,20.612625 C298.33825,21.338875 300.580125,21.938875 300.6145,24.02325 C300.6145,25.22325 299.545125,25.665125 298.372625,25.665125 C296.890125,25.665125 296.958875,24.7495 296.85575,23.676375 C292.8895,24.52825 288.855125,25.22325 284.78575,25.665125 L282.95825,22.8545 C285.233875,22.91825 287.5445,22.886375 289.82075,22.728875 L289.82075,20.612625 L282.717,20.612625 L282.717,28.791375 L278.26825,28.791375 L278.26825,17.676375 Z M295.476375,2.930125 L295.476375,1.003875 L300.476375,1.003875 L300.476375,2.930125 L308.132,2.930125 L308.132,4.951375 L300.476375,4.951375 L300.476375,6.43575 L295.476375,6.43575 L295.476375,4.951375 L289.441375,4.951375 L289.441375,6.466375 L284.44075,6.466375 L284.44075,4.951375 L277.820125,4.951375 L277.820125,2.930125 L284.44075,2.930125 L284.44075,1.067625 L289.441375,1.067625 L289.441375,2.930125 L295.476375,2.930125 Z" id="Fill-12" fill="#FFFFFF" mask="url(#mask-4)"></path>
                    <path d="M342.717312,21.9708125 C342.717312,23.4233125 341.372312,24.4020625 339.924187,24.5601875 C338.303562,24.7495625 336.854812,23.7389375 336.475437,22.3183125 C335.992937,20.5501875 335.854812,19.6026875 335.130437,17.9608125 C333.889187,15.1501875 332.441062,13.1608125 330.371687,10.7926875 L330.682313,10.5401875 C335.268562,13.0664375 342.717312,16.4133125 342.717312,21.9708125 Z M341.820438,4.1620625 L330.889187,4.1620625 C330.026688,6.1508125 329.371688,7.7301875 328.199187,9.5614375 L329.923562,9.5614375 L329.923562,29.3908125 L324.647312,29.3908125 L324.647312,14.7708125 C323.406062,16.3501875 321.991687,17.8658125 320.509187,19.2864375 C318.371062,21.4026875 314.922312,23.1708125 312.129187,24.4333125 L311.784187,24.2126875 C312.612312,23.5183125 313.405437,22.8233125 314.232937,22.0651875 C315.957312,20.4864375 317.301687,18.3083125 318.543562,16.4133125 C321.129813,12.4345625 323.336687,8.5826875 324.957312,4.1620625 L312.991062,4.1620625 L312.991062,2.1095625 L341.820438,2.1095625 L341.820438,4.1620625 Z" id="Fill-13" fill="#FFFFFF" mask="url(#mask-4)"></path>
                    <path d="M354.921875,19.538875 L360.30125,19.538875 L360.30125,11.2345 L354.921875,11.2345 L354.921875,19.538875 Z M354.921875,9.15075 L360.163125,9.15075 L361.611875,7.69825 L366.784375,8.740125 L365.33625,10.130125 L365.33625,23.486375 L360.30125,23.486375 L360.30125,21.592 L354.921875,21.592 L354.921875,23.51825 L349.92125,23.51825 L349.92125,8.04575 L354.921875,8.04575 L354.921875,9.15075 Z M377.095625,4.730125 L374.33625,4.730125 L374.33625,26.612625 C374.33625,27.148875 374.2675,27.78075 373.85375,28.191375 C372.85375,29.170125 369.50875,29.422625 368.095,29.422625 C367.784375,29.422625 366.715625,29.4545 366.543125,29.265125 C366.370625,29.138875 366.33625,28.665125 366.33625,28.475125 C366.16375,27.0545 363.5775,26.675125 362.37,26.486375 L362.47375,26.107 C363.921875,26.17075 365.405,26.23325 366.888125,26.23325 C367.198125,26.23325 368.5775,26.23325 368.81875,26.07575 C369.095,25.8545 369.16375,25.47575 369.16375,25.160125 L369.16375,4.730125 L346.645,4.730125 L346.645,2.64575 L377.095625,2.64575 L377.095625,4.730125 Z" id="Fill-14" fill="#FFFFFF" mask="url(#mask-4)"></path>
                    <path d="M400.8175,19.065125 L402.1625,19.065125 L402.1625,10.50825 L400.8175,10.50825 L400.8175,19.065125 Z M400.818125,8.803875 L402.025,8.803875 L402.92125,7.887625 L405.8525,8.582625 L404.749375,9.561375 L404.714375,23.138875 L402.1625,23.138875 L402.1625,20.802625 L400.818125,20.802625 L400.818125,23.138875 L398.369375,23.138875 L398.369375,8.04575 L400.818125,8.04575 L400.818125,8.803875 Z M393.645,21.907625 C393.71375,21.907625 393.783125,21.938875 393.88625,21.938875 C394.74875,21.938875 394.74875,21.592 394.74875,20.928875 C394.783125,19.602625 394.955625,11.9295 394.506875,11.3295 L393.645,10.192625 L393.645,21.907625 Z M394.23125,8.487625 C394.71375,7.44575 394.955625,5.551375 395.024375,4.4145 L393.645,4.4145 L393.645,9.530125 C393.88625,9.182 394.093125,8.835125 394.23125,8.487625 Z M411.64625,2.298875 L411.611875,4.28825 L409.47375,4.28825 L409.47375,27.022625 C409.47375,28.222625 408.78375,28.822625 407.5425,29.012625 C406.749375,29.138875 405.921875,29.201375 405.12875,29.265125 C404.749375,29.296375 403.68,29.4545 403.404375,29.138875 C403.059375,28.822625 403.576875,27.78075 402.404375,27.307 C401.645625,26.991375 400.783125,26.83325 399.99,26.6445 L400.09375,26.23325 C401.231875,26.297 402.404375,26.360125 403.541875,26.360125 C404.300625,26.360125 405.921875,26.422625 405.921875,25.412625 L405.921875,4.28825 L398.886875,4.256375 L398.886875,2.898875 L398.57625,3.277625 C397.955625,5.772 397.40375,7.477625 395.57625,9.49825 C397.300625,10.8245 397.265625,11.613875 397.265625,13.602625 C397.265625,16.666375 397.40375,19.76075 397.196875,22.82325 C397.1625,23.138875 397.128125,23.486375 396.851875,23.738875 C396.5075,24.11825 395.679375,24.338875 395.1625,24.338875 C394.05875,24.338875 394.851875,23.392 394.1625,22.760125 L393.645,22.286375 L393.645,29.517 L390.575625,29.517 L390.575625,1.193875 L393.645,1.193875 L393.645,2.393875 L394.88625,2.393875 L395.955625,1.193875 L399.8525,1.920125 L399.473125,2.298875 L411.64625,2.298875 Z M384.7475,18.087625 L386.230625,18.087625 L386.230625,6.3095 L384.7475,6.3095 L384.7475,18.087625 Z M384.748125,4.603875 L386.093125,4.603875 L387.02375,3.593875 L390.4725,4.3195 L389.23125,5.425125 L389.23125,21.62325 L386.230625,21.62325 L386.230625,19.982 L384.748125,19.982 L384.748125,21.655125 L381.7475,21.655125 L381.7475,3.78325 L384.748125,3.78325 L384.748125,4.603875 Z" id="Fill-15" fill="#FFFFFF" mask="url(#mask-4)"></path>
                    <path d="M431.954625,19.6026875 L429.850875,19.6026875 L427.989,3.7514375 L433.989,3.7514375 L431.954625,19.6026875 Z M431.5065,27.4964375 C430.57525,27.6545625 429.609625,27.4333125 428.88525,26.8020625 C428.1265,26.1708125 427.8165,25.3489375 427.88525,24.4020625 C427.954625,23.6445625 428.334,22.9808125 428.989,22.4764375 C429.713375,21.9389375 430.609625,21.7183125 431.540875,21.8445625 C432.368375,21.9708125 433.1615,22.5070625 433.609625,23.1389375 C433.885875,23.5495625 434.058375,23.9914375 434.09275,24.4333125 C434.127125,24.8445625 434.058375,25.2545625 433.92025,25.6333125 C433.57525,26.6445625 432.609625,27.3070625 431.5065,27.4964375 Z" id="Fill-16" fill="#FFFFFF" mask="url(#mask-4)"></path>
                </g>
            </g>
        </g>
    </g>
</svg>