<?xml version="1.0" encoding="UTF-8"?>
<svg width="197px" height="100px" viewBox="0 0 197 100" version="1.1" xmlns="http://www.w3.org/2000/svg" xmlns:xlink="http://www.w3.org/1999/xlink">
    <!-- Generator: Sketch 51.3 (57544) - http://www.bohemiancoding.com/sketch -->
    <title>takeprize</title>
    <desc>Created with Sketch.</desc>
    <defs>
        <polygon id="path-1" points="6.72279479e-05 0.281840227 196.920041 0.281840227 196.920041 97 6.72279479e-05 97"></polygon>
        <polygon id="path-3" points="0 28.8758506 170.047464 28.8758506 170.047464 -6.30850363e-05 0 -6.30850363e-05"></polygon>
    </defs>
    <g id="Page-1" stroke="none" stroke-width="1" fill="none" fill-rule="evenodd">
        <g id="Desktop-HD-II-I" transform="translate(-622.000000, -3578.000000)">
            <g id="takeprize" transform="translate(622.000000, 3578.000000)">
                <g id="Group-8-Copy">
                    <g id="Group-6-Copy">
                        <g id="Group-16">
                            <g id="Group-3" transform="translate(0.000000, 3.000000)">
                                <mask id="mask-2" fill="white">
                                    <use xlink:href="#path-1"></use>
                                </mask>
                                <g id="Clip-2"></g>
                                <path d="M196.730438,40.7284636 C195.819861,36.1181383 193.062408,31.7908083 188.844966,27.5764879 C187.416716,27.6372306 186.013638,27.6965607 184.384558,27.76625 C183.759083,26.994017 182.822238,26.3178422 182.72538,25.6115316 C182.566686,24.4564782 181.815897,23.5081383 180.408441,22.644085 C178.907411,21.7216432 177.293652,20.8349879 175.981413,19.8461529 C174.604602,18.8083471 172.022808,19.1812791 170.476905,18.5446578 C169.987141,16.3000024 169.987141,16.3000024 165.067613,16.6329102 C160.896686,14.894915 156.627805,13.1027694 152.333752,11.3275752 C144.203124,7.96647816 135.766599,4.9029733 125.395097,3.50447816 C123.007019,3.18287136 120.752463,2.46761408 118.649488,1.76789563 C114.871466,0.511133495 110.795755,0.103356796 106.409769,0.350565534 C103.860261,0.495123786 101.334283,0.74186165 98.7847744,0.888303398 C97.527805,0.960347087 96.1641272,1.0535801 94.9870522,0.885007282 C91.9401189,0.449449029 89.0135744,0.733385922 86.0881244,1.07524029 C81.0826828,1.66006553 76.1035078,2.30375 71.1079161,2.91070631 C64.8783383,3.66645874 58.807455,4.58842961 53.3215522,6.3758665 C48.9957606,7.78472087 44.4100383,8.98450728 40.0306189,10.3528665 C34.1961356,12.1760898 28.5953161,14.2625316 24.2925078,16.9342694 C19.0238522,20.2059005 14.6132411,23.8372791 9.89782722,27.3368131 C9.18260778,27.8674879 8.80940222,28.5196481 8.30486333,29.1218956 C7.30235222,30.317915 6.20900222,31.4974539 5.35259944,32.7203131 C4.06826889,34.5553083 1.50124944,36.1332063 1.38304944,38.2097597 C1.30370222,39.6200267 0.952385556,41.0350024 0.499285556,42.4287888 C-0.211008889,44.6117597 -0.145889444,46.7716578 0.583557778,48.9466238 C0.980293889,50.128517 1.766105,51.3904587 1.32504389,52.508784 C0.321438333,55.0571529 1.95599111,57.2269393 3.913405,59.4320413 C4.52684111,60.1228131 4.78403556,60.8936335 5.34329667,61.5994733 C7.33682722,64.1158228 9.311205,66.6373519 11.4727328,69.1165024 C12.0604494,69.7907937 13.1193244,70.4175267 14.2394883,70.8992306 C17.3214439,72.2242694 19.8195133,73.6378325 18.9926606,75.9097985 C18.9204272,76.1066238 19.0714606,76.344415 19.2285133,76.5398277 C21.6133078,79.5063325 24.81018,82.1502888 30.2063383,83.9834005 C32.1467883,84.6430947 33.8043244,85.5137403 35.6966189,86.2139296 C38.9219467,87.4075947 41.5973161,89.0697791 46.2651217,88.9953811 C47.8006272,88.9708956 49.4390106,89.5966869 50.917605,90.0256529 C52.0213522,90.346318 52.8673578,90.8925316 53.9596133,91.2273228 C58.8304383,92.7204636 63.4112356,94.7348617 69.809905,93.7055316 C73.257405,94.2366772 77.12353,93.7220121 80.3548772,94.711318 C84.7933967,96.0712015 89.6800911,96.2586092 94.6362828,96.2312985 C101.685052,96.1936286 108.685119,96.9098277 115.750852,96.5538471 C116.165099,96.5326578 116.614916,96.5811578 117.019313,96.6466092 C122.146786,97.4701675 126.753849,96.7746869 131.10153,95.3832549 C134.025886,94.4471578 137.10018,93.7295461 140.443161,93.2398374 C142.006027,93.0105218 143.487358,92.4548908 144.741044,91.8936092 C148.867647,90.0459005 152.426233,87.8841189 157.386255,86.5049296 C159.375408,85.9521238 160.688194,84.7975413 162.612227,84.1496189 C167.110941,82.6338762 169.698755,80.4207694 171.66383,77.9981238 C172.592466,76.8534296 173.766805,75.9276917 175.563336,75.0777646 C177.729241,74.0531432 179.782966,72.8924393 181.321208,71.614017 C184.429977,69.0275073 186.86238,66.222983 190.126013,63.6920364 C193.799516,60.8427791 195.390291,57.7835121 195.675941,54.4454879 C195.984027,50.8498956 196.511549,47.2599539 196.86998,43.6657743 C196.967933,42.6896529 196.922513,41.7003471 196.730438,40.7284636" id="Fill-1" fill="#000000" mask="url(#mask-2)"></path>
                            </g>
                            <path d="M116.584194,3.68379706 C118.957132,3.80827915 121.092284,4.17119233 123.147628,4.82807475 C124.732866,5.3346211 126.625313,5.95032868 128.328624,5.91059016 C131.571803,5.83494335 134.267255,6.45017215 136.578424,7.34548565 C138.263696,7.99853785 140.082894,8.0248706 141.82283,8.35043915 C143.647494,8.69228612 144.052003,10.0606316 146.375744,9.99791175 C146.522242,9.99360275 146.653434,9.84422424 147,9.6407439 C142.373837,7.93294537 137.800151,6.1605119 133.035142,4.53937205 C131.712835,4.08980019 129.815469,4.09889696 128.190872,3.88057452 C126.572289,3.66320964 124.245269,3.69241505 123.484354,3.14469385 C120.972571,1.33778842 117.398132,1.39141148 113.842825,1.09648468 C110.150312,0.789588444 106.653495,1.29278336 103.088348,1.5216389 C102.678919,1.54797165 102.360232,1.95684744 102,2.18761808 C102.473932,2.37290489 102.94677,2.71714575 103.421795,2.71762452 C107.9031,2.72528496 112.176684,3.45254764 116.584194,3.68379706" id="Fill-4" fill="#000000"></path>
                            <path d="M98,0.0863075822 C95.1894323,-0.0813507102 91.0826307,-0.0239490575 89.9179314,0.429580832 C89.1545812,0.726250759 88.7453626,1.34800727 88,1.97317379 C93.2315908,2.13173875 95.8729623,1.59807388 98,0.0863075822" id="Fill-6" fill="#000000"></path>
                            <path d="M143.834993,6.98616601 C144.096017,7.06146452 144.602418,6.80973125 145,6.70416569 C144.693457,6.46350573 144.450925,6.15197658 144.051209,6.01245286 C143.852063,5.94232189 143.361309,6.18667295 143,6.29002386 C143.271693,6.53585136 143.463727,6.88060044 143.834993,6.98616601" id="Fill-8" fill="#000000"></path>
                            <path d="M81.552658,1.02677154 C81.502006,0.960888894 81.0927783,1.03010737 81.0787362,1.08931836 C81.0095286,1.38370537 81.0185557,1.69477154 81,2 C81.3324975,1.95246442 81.6654965,1.90659675 82,1.85822722 C81.8575727,1.57551561 81.7422267,1.27362298 81.552658,1.02677154" id="Fill-10" fill="#000000"></path>
                            <path d="M77,3.221 C76.7498014,3.148 76.5003971,3.074 76.2501986,3 C76.166799,3.16 76.0833995,3.322 76,3.482 C76.24861,3.551 76.49722,3.665 76.74583,3.663 C76.8324067,3.663 76.9158062,3.377 77,3.221" id="Fill-12" fill="#000000"></path>
                            <path d="M178.271295,21 C179.653021,20.8916721 180.763141,20.8298851 181.836853,20.7123293 C182.49391,20.640512 183.126118,20.5045003 183.710361,20.3580571 C185.12387,20.0057909 185.422638,19.1796907 184.371463,18.6476805 C183.159635,18.0342238 181.390725,17.8488628 179.387193,18.124497 C177.702655,18.3568001 176.827735,18.8326403 177.028262,19.6362726 C177.132859,20.0615597 177.763911,20.4659837 178.271295,21" id="Fill-14" fill="#000000"></path>
                        </g>
                    </g>
                </g>
                <g id="Group-4" transform="translate(13.000000, 38.000000)">
                    <g id="Group-9-Copy" transform="translate(0.736607, 0.487805)">
                        <path d="M23.015709,1.11565887 C24.7781938,1.37052241 27.0937255,1.49795419 28.4760297,2.645471 C29.0290766,3.12365557 29.5470492,3.72927192 29.5470492,4.46232004 C29.5470492,5.57766348 28.683344,6.47031674 27.5772501,6.47031674 C27.1281735,6.47031674 26.5406786,6.37442749 26.160498,6.15110646 C24.4324612,5.19536816 24.8126418,3.60120929 24.3291172,2.83661866 C24.0178325,2.29471819 23.3614416,1.72127521 22.8428427,1.27463316 L23.015709,1.11565887 Z M0.103406624,7.29862327 L7.56797443,7.29862327 L7.56797443,3.72927192 C4.9762324,3.66555603 3.31771792,3.47440837 0.760423878,3.02776632 L0.760423878,2.74136025 C3.04088129,2.42214997 5.80548964,1.94396539 7.94815506,1.30680653 C9.15821924,0.956053724 10.3325828,0.47786915 11.5075726,0.0640313118 L16.5877127,2.16728642 C15.2398566,2.645471 13.9615227,2.96405043 12.5447705,3.31480323 L12.5447705,7.29862327 L17.24473,7.29862327 C17.2096557,6.82043869 17.2096557,6.3107116 17.2096557,5.80098451 C17.2096557,3.92041958 17.313626,2.03985465 17.382522,0.191463085 L22.5321844,0.191463085 C22.3937661,2.54958174 22.3937661,4.93987376 22.3242437,7.29862327 L30.9638014,7.29862327 L30.9638014,9.33879334 L22.2553477,9.33879334 C22.2208997,10.103384 22.2208997,10.900148 22.2208997,11.6653695 C22.2208997,12.9718606 22.3593181,14.2783517 22.4626621,15.5533003 C23.3614416,14.1830933 23.9489365,12.9081447 24.5364315,11.3783326 L29.7199156,11.8243438 C29.1668686,12.9718606 28.683344,14.1515508 28.0614011,15.2984367 C27.0242032,17.2742601 25.1583744,18.8999614 23.4647856,20.3976002 C23.6720999,21.6725488 24.0178325,22.5336595 24.9166121,23.5215712 C25.1583744,23.7764347 25.7458693,24.445767 26.160498,24.445767 C26.4717826,24.445767 26.7135449,24.2224459 26.9208592,23.9991249 C27.7156684,23.2029918 28.717792,21.7047221 29.3052869,20.7805264 L29.7543635,20.8757848 C29.4092573,21.8006114 28.9251063,22.7248072 28.9251063,23.7127189 C28.9251063,24.8602357 30.5147248,24.8280623 30.5147248,25.2103576 C30.5147248,25.4021361 30.3418585,25.7207156 30.2385145,25.8796898 C29.2708389,27.6006496 27.8190124,28.7481664 25.641899,28.7481664 C24.5019835,28.7481664 23.4992336,28.4933029 22.6355284,27.7924281 C21.8751671,27.1868118 21.1148059,26.5174796 20.5273109,25.7844314 C19.802024,24.8917782 19.3873954,23.935409 18.9376925,22.9474974 C17.0374157,23.7448922 15.0676166,24.3505086 13.0627431,24.8280623 L12.7176368,24.6047413 C13.7197604,23.935409 14.7218839,23.2982502 15.6895595,22.5973754 C16.5877127,21.9595857 17.382522,21.1628217 18.2124055,20.4297736 C17.9700169,19.2822568 17.7627026,18.1031974 17.5898363,16.9556806 C17.24473,14.4057835 17.24473,11.8880597 17.24473,9.33879334 L12.5447705,9.33879334 L12.5447705,13.8960564 C13.9615227,13.5459344 15.3782749,13.0355765 16.760579,12.5895653 L16.9334454,12.8766022 C15.6200372,14.3420676 14.237733,15.2984367 12.5447705,16.4137802 L12.5447705,25.6885422 C12.5447705,26.5490221 12.1990379,27.1230959 11.645991,27.7602548 C11.024048,28.429587 8.7085163,28.6844506 7.84481106,28.7481664 C7.11889782,28.8118823 6.42805889,28.8755982 5.73659364,28.8755982 C5.46038334,28.8755982 4.42318546,28.8755982 4.25094548,28.5891922 C4.14697516,28.4617604 4.18142315,28.206266 4.18142315,28.0472917 C4.18142315,26.3578744 1.90096575,25.9434057 0.518661571,25.5932838 L0.622005562,25.242531 C2.35004236,25.3377894 4.14697516,25.4973945 5.87501196,25.4973945 C6.7042692,25.4973945 7.56797443,25.3699628 7.56797443,24.445767 L7.56797443,18.4217769 C5.49483133,19.154825 3.38661391,19.7926147 1.27839649,20.3660577 L6.2632722e-05,16.2863484 C2.55735667,16.0314848 5.08020271,15.6170162 7.56797443,15.0751157 L7.56797443,9.33879334 L0.103406624,9.33879334 L0.103406624,7.29862327 Z" id="Fill-1" fill="#FFFFFF"></path>
                        <mask id="mask-4" fill="white">
                            <use xlink:href="#path-3"></use>
                        </mask>
                        <g id="Clip-4"></g>
                        <path d="M56.0500229,11.2511531 L58.4000027,11.2511531 L58.4000027,7.68117093 L56.0500229,7.68117093 L56.0500229,11.2511531 Z M49.241846,11.2511531 L51.6607218,11.2511531 L51.6607218,7.68117093 L49.241846,7.68117093 L49.241846,11.2511531 Z M49.241846,5.51419993 L51.6607218,5.51419993 L51.6607218,3.09173454 L49.241846,3.09173454 L49.241846,5.51419993 Z M50.7970165,21.8639488 C52.2137687,20.5890002 52.5939493,20.1108156 53.7344912,18.6131769 L48.5854551,18.6131769 C47.9979602,19.0591881 47.4793612,19.569546 46.8918663,20.0470997 C46.4083417,20.4615684 45.8897428,20.8444946 45.4062181,21.2267899 C47.2031509,21.3857642 49.0000837,21.6412586 50.7970165,21.8639488 Z M42.3647732,11.2511531 L44.6803049,11.2511531 L44.6803049,7.68117093 L42.3647732,7.68117093 L42.3647732,11.2511531 Z M35.8678809,0.987848583 L64.6200583,0.956306065 L64.6200583,3.09173454 L56.0500229,3.09173454 L56.0500229,5.51419993 L58.2960323,5.51419993 L59.4710222,4.27079387 L64.7584766,5.16344713 L63.4801427,6.40622235 L63.4801427,14.278604 L58.4000027,14.278604 L58.4000027,13.4496666 L42.3647732,13.4496666 L42.3647732,14.3744933 L37.0773188,14.3744933 L37.0773188,4.71743593 L42.3647732,4.71743593 L42.3647732,5.51419993 L44.6803049,5.51419993 L44.6803049,3.09173454 L35.8678809,3.09173454 L35.8678809,0.987848583 Z M50.8314645,16.3503166 L65.3804195,16.3503166 L65.3804195,18.6131769 L59.6094405,18.6131769 C58.5033466,20.1751624 57.3283568,21.6090852 55.8771566,22.9155763 C57.5356711,23.330045 64.3094,25.1153515 64.3094,27.027459 C64.3094,27.9194814 63.4450684,28.620987 62.5124672,28.620987 C61.0950887,28.620987 58.2960323,27.2823225 57.1554905,26.804138 C55.7042903,26.1985216 54.1835678,25.6250786 52.6979196,25.1153515 C51.3845115,25.8162263 50.0366553,26.4533852 48.6199031,26.9000272 C44.6114089,28.2065183 39.9458974,28.4613819 35.7294626,28.6525295 L35.6605666,28.3339501 C40.1187638,27.4734702 44.4385426,25.9752006 48.3086185,23.7445137 C45.4406661,22.9792922 42.6065355,22.3105908 39.6346128,21.9276647 C40.913573,20.939753 42.0541149,19.792867 43.1251344,18.6131769 L35.0041757,18.6131769 L35.0041757,16.3503166 L45.0949335,16.3503166 C45.6135325,15.7762428 46.0281611,15.1075414 46.4083417,14.4382092 L52.386635,14.4382092 C51.9375584,15.1075414 51.3845115,15.7447003 50.8314645,16.3503166 Z" id="Fill-3" fill="#FFFFFF" mask="url(#mask-4)"></path>
                        <path d="M90.8813949,5.06774713 C88.7387295,4.01611958 87.4603956,3.1871822 85.7668068,1.5299383 C83.6930374,2.99603454 81.9656269,3.98394621 79.6156472,5.06774713 L90.8813949,5.06774713 Z M78.4751053,11.9837597 L91.4688899,11.9837597 L91.4688899,10.4539475 L78.4751053,10.4539475 L78.4751053,11.9837597 Z M78.4751053,7.74507607 L78.4751053,8.35069242 L91.3649195,8.35069242 L92.6783277,7.13945972 L98.0002301,8.09519802 L96.6523739,9.30643072 L96.6523739,14.5021143 L91.4688899,14.5021143 L91.4688899,13.9280405 L78.4751053,13.9280405 L78.4751053,14.8522363 L73.187651,14.8522363 L73.187651,7.74507607 L78.4751053,7.74507607 Z M82.4147036,21.9278539 L82.4147036,20.6850787 L72.0471091,20.6850787 L72.0815571,18.7092554 L82.4147036,18.7092554 L82.4147036,17.8481446 C78.6135237,17.7207129 74.8461654,17.4021334 71.0794335,16.7649746 L71.1489559,16.3820484 C78.1638207,16.3820484 85.4210742,15.8401479 92.2981471,14.6295461 L98.8645617,16.573196 C95.3395921,17.4343068 91.5377858,17.656997 87.9094723,17.8159713 L87.9094723,18.7092554 L97.5511535,18.7092554 L97.5511535,20.6850787 L87.9094723,20.6850787 L87.9094723,21.9278539 L100.281314,21.9278539 L100.281314,23.9358506 L87.9094723,23.9358506 C87.9094723,24.6051829 88.0823386,26.9633015 87.5637396,27.5689179 C86.5960641,28.7164347 82.6909139,28.8123239 81.3086097,28.8123239 L80.9979514,28.8123239 C79.9958278,28.8123239 80.4104565,28.2382501 80.0647238,27.505202 C79.5461249,26.358316 77.8187144,26.1987109 76.6781726,26.0712791 L76.7815165,25.5293786 C77.9565064,25.5930945 79.1314963,25.624637 80.3064861,25.624637 C82.4835996,25.624637 82.4147036,25.8164156 82.4147036,23.9358506 L69.9388917,23.9358506 L69.9388917,21.9278539 L82.4147036,21.9278539 Z M79.8918575,0.0322995386 L87.4948436,0.0322995386 L86.9073487,0.605742518 C91.0542612,2.48630745 96.3072676,3.31461397 100.868809,3.56947752 L100.903257,3.92023032 C98.9679057,4.36687238 97.7584678,5.54593171 99.140772,7.23534898 L98.8294873,7.52175504 C96.4106116,6.97985458 94.0950799,6.34269572 91.7801745,5.45004245 L91.7801745,7.01202795 L77.9565064,7.01202795 L77.9565064,5.60964759 C75.1230021,6.69344852 72.7041263,7.36278075 69.6971294,7.9683971 L69.489815,7.64918682 C73.9480122,5.51438919 76.5742022,3.537935 79.8918575,0.0322995386 Z" id="Fill-5" fill="#FFFFFF" mask="url(#mask-4)"></path>
                        <path d="M116.831134,7.01202795 C116.865582,6.47012749 116.935104,5.92822703 116.935104,5.38632657 C116.935104,3.63382426 116.865582,1.8806911 116.831134,0.0960154252 L122.429246,0.0960154252 C122.325902,2.42259156 122.187484,4.71699433 122.118588,7.01202795 L134.420907,7.01202795 L134.420907,9.17899895 L122.498769,9.17899895 C123.846625,13.7684353 127.06031,18.0392923 130.619728,21.417496 C131.967584,22.7246179 133.69562,23.7125296 135.458105,24.4455777 L135.285239,24.8915889 C134.041353,25.0511941 132.969707,25.3066885 132.486183,26.5172903 C132.41666,26.708438 132.382212,26.8995856 132.382212,27.0913641 C132.382212,27.5689179 132.623975,28.0471024 132.796841,28.4615711 L132.382212,28.6842613 C131.760269,28.4300286 131.138326,28.1429917 130.550832,27.8244123 C129.79047,27.4099436 129.099005,26.8358697 128.408166,26.3261426 C125.021615,23.6809871 122.844501,19.8883147 121.876826,15.9038638 L120.978046,12.1749073 C120.597866,13.2587082 120.183237,14.3103358 119.768608,15.3941367 C118.213438,19.4416726 114.722916,22.7246179 110.990632,25.1470833 C108.986385,26.4220319 106.670854,27.3462277 104.459292,28.2382501 L104.044664,27.8881281 C107.984262,25.2423417 110.783318,22.437581 113.064402,18.4215876 C114.826887,15.3304208 115.794562,12.6215494 116.347609,9.17899895 L104.873921,9.17899895 L104.873921,7.01202795 L116.831134,7.01202795 Z" id="Fill-6" fill="#FFFFFF" mask="url(#mask-4)"></path>
                        <path d="M156.1549,2.86866585 L155.77472,3.05981351 C156.811291,3.15570277 160.060051,3.31467706 160.370709,4.49373639 L160.509127,5.03563685 C161.684117,4.36693546 162.478926,3.76131912 163.515498,2.86866585 L156.1549,2.86866585 Z M166.452973,10.8047634 L166.452973,14.2145096 C166.452973,15.7127792 166.21121,16.1272479 164.725562,16.6054325 C163.895678,16.8918386 162.963077,17.0199012 162.098746,17.0199012 C160.716442,17.0199012 161.925879,16.0313587 160.785964,15.2983105 C160.370709,15.043447 158.470432,14.6611517 157.951833,14.5658933 L157.951833,14.3419414 C157.571653,14.4062881 157.191472,14.5015465 156.776843,14.470004 C155.77472,14.3741148 155.256121,13.7047825 155.083881,12.5894391 C154.979911,11.9838227 154.565282,11.6967858 154.081131,11.2186013 L154.253997,10.9643686 C155.325643,11.0918003 158.919509,11.0918003 158.885061,12.8443026 C158.885061,13.6095241 158.816165,13.6095241 158.22867,14.1514246 C159.299689,14.2145096 160.370709,14.2782255 161.442355,14.2782255 C162.064298,14.2782255 162.202716,13.9602769 162.202716,13.4183765 L162.202716,10.8047634 L152.318646,10.8047634 L152.318646,8.92419848 L162.202716,8.92419848 L162.202716,7.20323869 L166.452973,7.20323869 L166.452973,8.92419848 L168.872475,8.92419848 L168.872475,10.8047634 L166.452973,10.8047634 Z M156.638425,4.71705742 C156.362215,4.17515695 155.601853,3.69697238 155.048807,3.37839295 C153.977787,3.76131912 152.906141,4.14361444 151.835122,4.49373639 C152.698827,4.58962564 155.947586,4.94037844 155.947586,6.08789525 C155.947586,6.72505412 155.947586,6.69288075 155.601853,7.20323869 C156.500633,6.91620178 157.364338,6.59762235 158.22867,6.18315366 C157.122576,5.89611674 157.157024,5.67342657 156.638425,4.71705742 Z M152.35372,6.08789525 C152.076884,5.67342657 151.696703,5.35421628 151.316523,5.06781022 L151.316523,8.31858214 C152.24975,8.09526111 153.14853,7.87257093 154.046683,7.61707653 C152.975663,7.33067047 152.941215,6.97991767 152.35372,6.08789525 Z M168.388324,2.99609763 L167.593514,3.60171397 C166.349629,4.52590976 165.03622,5.45010554 163.688364,6.21532703 C159.991155,8.28640877 155.532957,8.60561905 151.316523,8.92419848 L151.316523,15.2030521 L156.016482,15.1708788 C155.87869,15.9361003 155.740272,17.8482077 155.532957,18.5812558 L158.435984,18.5812558 C157.744519,18.1989605 157.364338,17.8797502 157.22592,16.9561853 C157.122576,16.350569 156.707947,16.063532 156.223796,15.5853475 L156.396663,15.3304839 C156.880814,15.3941998 157.848489,15.4257423 158.816165,15.5853475 C159.852736,15.9998162 160.716442,16.5095432 160.993278,17.4021965 C161.13107,17.8797502 160.993278,18.2942189 160.716442,18.5812558 L168.906923,18.5812558 L168.906923,20.6214259 L156.638425,20.6214259 C160.094499,23.9674562 164.552696,24.1592347 169.321551,24.3819249 L169.321551,24.7326777 C167.351752,25.688416 167.178886,27.0907964 168.56119,28.589066 L168.319428,28.8761029 C163.653916,27.6964127 159.852736,26.6447852 156.466185,23.2344081 C155.601853,22.3739282 155.152777,22.0868913 154.461312,21.0674371 C152.664379,23.7763086 151.213179,24.7642202 148.033942,26.2303165 C145.338229,27.4730917 141.225765,28.2067707 138.253842,28.6843244 L138.080976,28.365745 C141.81326,26.9633646 144.854705,25.6568735 147.584239,22.8199394 C148.483018,21.8957436 148.863199,21.7367693 149.51959,20.6214259 L139.912357,20.6214259 L139.912357,18.5812558 L150.383921,18.5812558 C150.556788,18.0078129 150.660132,16.9877278 150.764102,16.4142848 L147.27358,16.4142848 L147.27358,10.5814424 L145.856828,10.5814424 C145.683962,11.1233428 145.476648,11.6652433 145.234259,12.2071438 C144.197687,14.5974358 141.709916,15.7764951 139.359936,16.8918386 L139.014203,16.6691484 C141.01845,14.470004 141.467527,13.4820924 141.91723,10.5814424 L139.740117,10.5814424 L139.740117,8.70087746 L147.27358,8.70087746 L147.27358,6.3427588 L144.474524,6.3427588 L143.36843,7.33067047 L139.740117,5.76868497 L140.74224,4.90820508 L140.74224,1.21142195 L144.889153,1.21142195 L144.889153,4.43065135 L147.27358,4.43065135 L147.27358,0.000189255109 L151.316523,0.000189255109 L151.316523,3.72914575 C152.007988,3.18724529 153.52871,1.9122967 153.908891,1.24296447 L154.59973,0.000189255109 L160.820412,0.000189255109 C160.267365,0.446200461 159.67987,0.86066915 159.092375,1.24296447 L164.518248,1.24296447 L165.693238,0.223510283 L170.047464,2.4220238 C169.494418,2.61380231 168.906923,2.80494997 168.388324,2.99609763 Z" id="Fill-7" fill="#FFFFFF" mask="url(#mask-4)"></path>
                    </g>
                </g>
            </g>
        </g>
    </g>
</svg>