<?xml version="1.0" encoding="utf-8"?>
<!-- Generator: Adobe Illustrator 25.2.1, SVG Export Plug-In . SVG Version: 6.00 Build 0)  -->
<svg version="1.1" id="圖層_1" xmlns="http://www.w3.org/2000/svg" xmlns:xlink="http://www.w3.org/1999/xlink" x="0px" y="0px"
	 viewBox="0 0 228.4 61.9" style="enable-background:new 0 0 228.4 61.9;" xml:space="preserve">
<style type="text/css">
	.st0{fill:#FF5440;}
</style>
<g>
	<g>
		<path class="st0" d="M18.8,32.2c0-3.5,0.7-6.8,2-9.9c1.3-3.1,3.3-5.7,5.8-8c2.5-2.2,5.6-4,9.3-5.3c3.6-1.3,7.8-1.9,12.4-1.9
			c4,0,7.7,0.4,11.1,1.2c3.4,0.8,6.5,2.1,9.4,3.7l-4.6,7.6c-0.9-0.6-1.9-1.1-3-1.5c-1.1-0.4-2.3-0.8-3.6-1.1c-1.3-0.3-2.6-0.5-4-0.7
			c-1.4-0.2-2.7-0.3-4-0.3c-3.2,0-6.1,0.4-8.6,1.2c-2.5,0.8-4.6,1.9-6.4,3.3c-1.7,1.4-3,3.1-3.9,5.1c-0.9,2-1.3,4.1-1.3,6.5
			c0,2.5,0.5,4.7,1.4,6.8c0.9,2.1,2.3,3.8,4,5.3c1.8,1.5,3.9,2.7,6.5,3.5c2.5,0.8,5.4,1.3,8.6,1.3c1.5,0,2.9-0.1,4.3-0.3
			c1.4-0.2,2.8-0.5,4.2-0.9c1.3-0.4,2.6-0.8,3.9-1.3c1.2-0.5,2.4-1.1,3.5-1.7l4.6,7.6c-2.7,1.7-5.8,3.1-9.4,4.1
			c-3.6,1-7.3,1.5-11.3,1.5c-5.1,0-9.6-0.7-13.4-2c-3.8-1.3-7.1-3.1-9.6-5.5c-2.6-2.3-4.5-5-5.8-8.2C19.5,39.1,18.8,35.8,18.8,32.2z
			"/>
		<path class="st0" d="M80.5,4.6h9.4v52.6h-9.4V4.6z"/>
		<path class="st0" d="M106.8,14.7c-0.9,0-1.8-0.1-2.5-0.4c-0.8-0.3-1.4-0.6-1.9-1.1c-0.5-0.5-0.9-1-1.2-1.6
			c-0.3-0.6-0.4-1.2-0.4-1.9c0-0.7,0.1-1.3,0.4-1.9c0.3-0.6,0.7-1.1,1.2-1.6c0.5-0.4,1.2-0.8,1.9-1.1c0.8-0.3,1.6-0.4,2.5-0.4
			c1,0,1.8,0.1,2.6,0.4c0.8,0.3,1.4,0.6,1.9,1.1c0.5,0.4,0.9,1,1.2,1.6c0.3,0.6,0.4,1.3,0.4,1.9c0,0.7-0.1,1.3-0.4,1.9
			s-0.7,1.1-1.2,1.6c-0.5,0.5-1.2,0.8-1.9,1.1C108.6,14.6,107.8,14.7,106.8,14.7z M102.1,19.8h9.4v37.4h-9.4V19.8z"/>
		<path class="st0" d="M121.3,38.6c0-2.7,0.5-5.3,1.5-7.7c1-2.4,2.5-4.4,4.4-6.2c1.9-1.7,4.3-3.1,7.1-4.1c2.8-1,6-1.5,9.6-1.5
			c1.6,0,3.1,0.1,4.7,0.3c1.6,0.2,3.1,0.5,4.6,0.8s2.8,0.8,4.1,1.2s2.4,1,3.4,1.6l-4.3,7.1c-2.1-1-4-1.6-5.8-2.1
			c-1.8-0.4-3.7-0.7-5.6-0.7c-2.2,0-4.1,0.3-5.8,0.8c-1.7,0.6-3.2,1.3-4.4,2.3c-1.2,1-2.1,2.2-2.7,3.5s-0.9,2.8-0.9,4.5
			c0,1.6,0.3,3.1,1,4.5c0.7,1.4,1.6,2.5,2.8,3.5c1.2,1,2.7,1.8,4.4,2.3c1.7,0.6,3.6,0.8,5.8,0.8c2.3,0,4.5-0.3,6.6-1
			c2.1-0.7,4-1.5,5.8-2.6l4.3,7.1c-1.1,0.7-2.3,1.3-3.6,1.9c-1.3,0.6-2.7,1.1-4.2,1.5c-1.5,0.4-3.1,0.8-4.7,1
			c-1.6,0.2-3.3,0.4-5.1,0.4c-3.6,0-6.8-0.5-9.6-1.5c-2.8-1-5.2-2.3-7.2-4c-2-1.7-3.5-3.8-4.5-6.1C121.8,44,121.3,41.4,121.3,38.6z"
			/>
		<path class="st0" d="M171.9,4.6h9.4v31.1l17.5-15.9h14.4l-19.6,17.5l20.8,19.9h-14.1l-13.9-13.5l-5.1,4.6v8.9h-9.4V4.6z"/>
	</g>
</g>
</svg>
