<?xml version="1.0" encoding="UTF-8"?>
<svg width="130px" height="29px" viewBox="0 0 130 29" version="1.1" xmlns="http://www.w3.org/2000/svg" xmlns:xlink="http://www.w3.org/1999/xlink">
    <!-- Generator: Sketch 51.3 (57544) - http://www.bohemiancoding.com/sketch -->
    <title>comic</title>
    <desc>Created with Sketch.</desc>
    <defs>
        <polygon id="path-1" points="0 0.603864583 129.465667 0.603864583 129.465667 28.4728646 0 28.4728646"></polygon>
    </defs>
    <g id="Page-1" stroke="none" stroke-width="1" fill="none" fill-rule="evenodd">
        <g id="Desktop-HD-II-I" transform="translate(-253.000000, -2128.000000)">
            <g id="Group-14" transform="translate(253.000000, 2128.000000)">
                <g id="comic">
                    <mask id="mask-2" fill="white">
                        <use xlink:href="#path-1"></use>
                    </mask>
                    <g id="Clip-2"></g>
                    <path d="M9.00027083,21.2379687 L20.5011875,21.2379687 L20.5011875,19.1318438 L9.00027083,19.1318438 L9.00027083,21.2379687 Z M9.00027083,17.1785729 L20.5011875,17.1785729 L20.5011875,15.3473437 L9.00027083,15.3473437 L9.00027083,17.1785729 Z M4.1669375,12.3561146 L9.00027083,12.3561146 L9.00027083,13.2714271 L20.5011875,13.2714271 L21.8678125,11.9591771 L27.1349375,12.9053021 L25.4348125,14.1873437 L25.4348125,24.1379687 L20.5011875,24.1379687 L20.5011875,23.1610312 L9.00027083,23.1610312 L9.00027083,24.1681771 L4.1669375,24.1681771 L4.1669375,12.3561146 Z M0.467020833,27.4953229 L28.9685833,27.4953229 L28.9685833,25.4194062 L0.467020833,25.4194062 L0.467020833,27.4953229 Z M3.09997917,2.92386458 C3.6666875,3.41203125 4.1669375,3.96182292 4.63335417,4.54182292 L13.43425,4.54182292 C12.4675833,3.93101042 12.5008125,3.41203125 12.1340833,2.40488542 C11.900875,1.76386458 11.6338333,1.61161458 11.1009583,1.15365625 L11.2671042,0.909572917 C11.6338333,0.909572917 12.0005625,1.00080208 12.3672917,0.909572917 C14.1344792,0.420802083 17.867625,0.817739583 17.9346875,3.22957292 C17.9346875,3.93101042 17.2676875,4.20590625 16.7009792,4.54182292 L22.80125,4.54182292 L24.4349167,2.98488542 L30.2349167,4.11467708 C29.6349792,4.54182292 29.0350417,4.93876042 28.4351042,5.36590625 C28.2683542,5.51876042 28.068375,5.79305208 27.8683958,5.97671875 C27.3681458,6.52590625 26.8352708,7.13611458 26.2015,7.56386458 C25.335125,8.17407292 24.2681667,8.66223958 23.3015,9.12019792 L24.7013542,9.12019792 L24.7013542,11.0740729 L5.267125,11.0740729 L5.267125,9.12019792 L22.3348333,9.12019792 C22.6012708,8.26590625 22.7680208,7.38019792 22.9347708,6.49509375 L5.267125,6.49509375 C5.30035417,6.76998958 5.33358333,7.04488542 5.33358333,7.31917708 L5.33358333,7.74692708 C5.267125,8.32692708 4.0001875,9.36428125 2.93322917,9.48692708 C1.700125,9.60836458 0,9.12019792 0,8.11305208 C0,6.58692708 1.83364583,6.03773958 2.33329167,4.69467708 C2.53327083,4.14488542 2.60033333,3.56488542 2.66679167,2.98488542 L3.09997917,2.92386458 Z" id="Fill-1" fill="#FFFFFF" mask="url(#mask-2)"></path>
                    <path d="M47.933375,14.0955104 L55.8002292,14.0955104 L55.8002292,13.1795938 L47.933375,13.1795938 L47.933375,14.0955104 Z M47.933375,11.8063229 L55.8002292,11.8063229 L55.8002292,10.9514271 L47.933375,10.9514271 L47.933375,11.8063229 Z M47.933375,9.54794792 L55.8002292,9.54794792 L55.8002292,8.60182292 L47.933375,8.60182292 L47.933375,9.54794792 Z M45.89975,3.16855208 C45.6333125,2.46651042 45.4997917,1.70284375 44.7995625,1.24548958 L44.2666875,0.878760417 L44.4666667,0.603864583 C45.9329792,0.695697917 47.3998958,0.726510417 48.79975,1.36753125 C49.2335417,1.55059375 49.6002708,2.31365625 49.6002708,2.61876042 C49.6002708,3.22957292 48.8335833,3.65671875 48.266875,3.83978125 L52.3002917,3.83978125 C53.0005208,2.95467708 53.2669583,2.16080208 53.5333958,1.09263542 L59.5339792,1.09263542 C57.9341458,2.64957292 56.7004375,3.16855208 54.5338958,3.83978125 L62.5675,3.83978125 L62.5675,5.45773958 L52.6670208,5.45773958 C51.8671042,6.12896875 50.8666042,6.70896875 49.8999375,7.07509375 L55.767,7.07509375 L57.1674583,5.76284375 L62.0007917,6.76998958 L60.4674167,7.89917708 L60.4674167,16.1406146 L55.8002292,16.1406146 L55.8002292,15.5304062 L47.933375,15.5304062 L47.933375,16.1406146 L43.2994167,16.1406146 L43.2994167,6.67815625 L47.933375,6.67815625 L48.0668958,5.45773958 L41.6995833,5.45773958 L41.6995833,3.83978125 L46.6664375,3.83978125 C46.3329375,3.68753125 46.0000417,3.53467708 45.89975,3.16855208 Z M38.3325625,1.33671875 C39.3662917,1.45876042 40.5993958,1.79467708 40.6664583,3.01569792 C40.7329167,4.51101042 39.7994792,4.90794792 38.9663333,5.06080208 C38.2993333,5.18284375 37.1659167,4.96896875 36.7991875,4.41978125 C36.3992292,3.80896875 36.2657083,3.07671875 35.8325208,2.43569792 C35.3993333,1.79467708 35.2658125,1.76386458 34.5994167,1.24548958 L34.8658542,0.97059375 C35.9992708,1.06182292 37.1659167,1.21467708 38.3325625,1.33671875 Z M33.4992292,8.72326042 L33.4992292,7.07509375 L36.7991875,7.07509375 L38.0993542,5.82386458 L42.3998125,6.70896875 L40.8326042,7.92998958 L40.8326042,13.5155104 C40.8326042,14.0344896 40.9993542,14.7063229 41.1661042,15.2253021 C41.4996042,16.2016354 43.0994375,16.5067396 44.0667083,16.6287813 C45.2333542,16.7816354 46.4664583,16.7816354 47.6331042,16.8124479 C49.5332083,16.8734688 51.4671458,16.8734688 53.36725,16.8734688 C56.5669167,16.8734688 59.8004167,16.9036771 63.0006875,16.7206146 L63.0006875,17.0257188 C62.5010417,17.3006146 61.8340417,17.7887812 61.8340417,18.3687813 C61.8340417,18.6134688 61.9675625,18.8575521 62.0340208,19.1016354 L61.8672708,19.3457188 L57.967375,19.2544896 L57.967375,20.4138854 L62.7674792,20.4138854 L62.7674792,22.1236771 L57.967375,22.1236771 L57.967375,26.3963437 C57.967375,28.1973646 53.5672292,28.4722604 52.2338333,28.4722604 C51.9667917,28.4722604 51.333625,28.5030729 51.333625,28.1363438 C51.333625,27.9532813 51.4000833,27.7702188 51.4000833,27.5563438 C51.4000833,27.1291979 51.1336458,26.8543021 50.833375,26.5800104 C50.4001875,26.2132813 47.8669167,25.8471562 47.3002083,25.7553229 L47.3334375,25.3589896 C48.2330417,25.4200104 49.13325,25.4502187 50.0002292,25.4810313 C50.833375,25.5118438 51.667125,25.5728646 52.4670417,25.5728646 C52.9334583,25.5728646 53.2337292,25.3589896 53.2337292,24.9010313 L53.2337292,22.1236771 L40.5329375,22.1236771 C42.8662292,22.5200104 45.033375,22.5810313 45.3662708,24.2908229 C45.6000833,25.4502187 44.9663125,26.5189896 43.7332083,26.5800104 C41.9327917,26.6410313 41.2331667,25.6030729 41.0996458,24.1071563 C40.9993542,23.2220521 40.632625,22.8559271 40.1329792,22.1236771 L34.0659375,22.1236771 L34.0659375,20.4138854 L53.2337292,20.4138854 L53.2337292,19.1626562 C51.6332917,19.1626562 50.0666875,19.1318438 48.5000833,19.1318438 C47.0663958,19.1318438 45.5330208,19.1318438 44.1331667,18.8877604 C42.99975,18.7046979 41.4996042,18.0026563 40.799375,17.1477604 C40.4664792,16.7514271 40.1994375,16.3544896 39.933,15.9267396 C39.7994792,15.7442812 39.43275,15.1642813 39.1663125,15.1642813 C38.4993125,15.1642813 37.8329167,16.1714271 37.5326458,16.5985729 L36.0657292,18.7046979 L33.2321875,17.0257188 C34.4326667,16.2324479 35.6657708,15.4083646 36.9327083,14.6453021 L36.9327083,8.72326042 L33.4992292,8.72326042 Z" id="Fill-3" fill="#FFFFFF" mask="url(#mask-2)"></path>
                    <path d="M89.3991458,15.3165312 L91.0660417,15.3165312 L91.0660417,12.4473437 L89.3991458,12.4473437 L89.3991458,15.3165312 Z M84.466125,15.3165312 L86.2327083,15.3165312 L86.2327083,12.4473437 L84.466125,12.4473437 L84.466125,15.3165312 Z M81.2658542,7.59407292 L89.6994167,7.59407292 L89.6994167,6.58692708 L81.2658542,6.58692708 L81.2658542,7.59407292 Z M81.2658542,4.84692708 L89.6994167,4.84692708 L89.6994167,3.77876042 L81.2658542,3.77876042 L81.2658542,4.84692708 Z M87.366125,20.5359271 L79.69925,20.5359271 C81.1987917,21.6959271 82.4989583,22.2759271 84.3326042,22.9471562 C85.4660208,22.2457187 86.3994583,21.4216354 87.366125,20.5359271 Z M81.1987917,12.4473437 L79.4986667,12.4473437 L79.5325,15.3165313 L81.1987917,15.3165313 L81.1987917,12.4473437 Z M79.4986667,10.3714271 L79.4986667,10.6771354 L90.7996042,10.6771354 L92.1994583,9.85305208 L89.6994167,9.85305208 L89.6994167,9.48692708 L81.2658542,9.48692708 L81.2658542,9.94428125 L76.6318958,9.94428125 L76.6318958,1.15365625 L81.2658542,1.15365625 L81.2658542,2.03876042 L89.4329792,2.03876042 L90.7996042,0.78753125 L95.8999792,1.85569792 L94.4662917,2.95467708 L94.4662917,9.85305208 L92.3329792,9.85305208 L97.0001667,10.5853021 L95.7,11.5924479 L95.7,17.6975521 L91.0660417,17.6975521 L91.0660417,17.0867396 L79.4986667,17.0867396 L79.5325,17.7887812 L75.0320625,17.7887812 L75.0320625,10.3714271 L79.4986667,10.3714271 Z M72.4317292,27.8010312 C76.0651875,27.0071562 78.7658125,26.0918437 82.0325417,24.3820521 C80.398875,23.1918437 79.36575,22.1236771 78.1991042,20.5359271 L75.79875,20.5359271 L75.79875,18.6744896 L88.9997917,18.6744896 L90.266125,17.6975521 L95.53325,19.2236771 L93.5328542,20.1087812 C91.8665625,21.8179687 90.6660833,22.8559271 88.566,24.1379687 C91.2998542,24.7179687 94.0995625,24.9928646 96.899875,24.9620521 L96.899875,25.3589896 C95.7996875,25.5728646 94.3666042,25.9691979 94.3666042,27.2512396 C94.3666042,27.5261354 94.4330625,27.8312396 94.4662917,28.1061354 L94.2663125,28.2891979 C91.099875,27.9840937 87.7328542,27.1600104 84.8328542,26.0000104 C80.6320833,27.4343021 76.8989375,27.8010312 72.4317292,28.0451146 L72.4317292,27.8010312 Z M67.7313125,9.73040625 C69.5317292,10.0059062 72.5984792,9.70019792 73.7983542,11.0740729 C74.1318542,11.4704062 74.598875,12.1114271 74.598875,12.6304062 C74.598875,13.8206146 73.9983333,14.7975521 72.5320208,14.7975521 C72.0317708,14.7975521 71.365375,14.7673437 70.9986458,14.4006146 C70.3981042,13.7595937 70.0984375,13.0273437 69.6984792,12.2950937 C69.165,11.2873437 68.4315417,10.6771354 67.5313333,9.97509375 L67.7313125,9.73040625 Z M67.464875,1.24548958 C69.4985,1.45876042 74.9656042,1.24548958 75.0985208,3.99203125 C75.1655833,5.42692708 74.2321458,6.40386458 72.9319792,6.28121875 C72.1652917,6.18998958 71.031875,5.94590625 70.6651458,5.54896875 C69.8652292,4.69467708 69.9316875,3.83978125 69.0314792,2.92386458 C68.5318333,2.37467708 67.8980625,1.91671875 67.2648958,1.51978125 L67.464875,1.24548958 Z M73.1651875,15.9877604 C73.1651875,16.9955104 73.1319583,18.0026562 73.0987292,19.0098021 C72.89875,23.0698021 72.4317292,24.7481771 70.0319792,28.1973646 L67.0316875,23.7410312 C69.5649583,21.0549062 70.9648125,18.9795937 72.6317083,15.7744896 L73.1651875,15.9877604 Z" id="Fill-4" fill="#FFFFFF" mask="url(#mask-2)"></path>
                    <path d="M117.4645,22.7338854 L122.898375,22.7338854 L122.898375,21.3908229 L117.4645,21.3908229 L117.4645,22.7338854 Z M117.4645,19.7426563 L122.898375,19.7426563 L122.898375,18.3077604 L117.4645,18.3077604 L117.4645,19.7426563 Z M117.265125,8.41815625 L122.798688,8.41815625 L122.798688,7.10590625 L117.265125,7.10590625 L117.265125,8.41815625 Z M117.265125,5.45773958 L122.798688,5.45773958 L122.798688,4.35876042 L117.265125,4.35876042 L117.265125,5.45773958 Z M107.597854,22.7338854 L112.898208,22.7338854 L112.898208,21.3908229 L107.597854,21.3908229 L107.597854,22.7338854 Z M107.597854,19.7426563 L112.898208,19.7426563 L112.898208,18.3077604 L107.597854,18.3077604 L107.597854,19.7426563 Z M123.998563,15.4995937 L128.799271,16.4765312 L127.532333,17.5144896 L127.532333,25.0538854 L122.898375,25.0538854 L122.898375,24.3820521 L107.597854,24.3820521 L107.597854,24.9620521 L103.097417,24.9620521 L103.097417,16.2934687 L107.597854,16.2934687 L107.597854,16.6595937 L122.765458,16.6595937 L123.998563,15.4995937 Z M100.997333,27.3732812 L129.132167,27.3732812 L129.132167,25.6640937 L100.997333,25.6640937 L100.997333,27.3732812 Z M112.664396,5.45773958 L112.664396,4.35876042 L102.597167,4.35876042 L102.597167,2.74080208 L112.664396,2.74080208 L112.664396,1.06182292 L117.265125,1.06182292 L117.265125,2.74080208 L122.631938,2.74080208 L123.932104,1.39773958 L128.398708,2.55773958 L127.365583,3.59569792 L127.365583,5.45773958 L129.365979,5.45773958 L129.365979,7.10590625 L127.365583,7.10590625 L127.365583,10.4632604 L122.798688,10.4632604 L122.798688,10.0663229 L117.265125,10.0663229 L117.265125,11.1042812 L126.698583,11.1042812 L126.698583,12.7524479 L117.265125,12.7524479 L117.265125,13.7293854 L129.465667,13.7293854 L129.465667,15.3775521 L100.897042,15.3775521 L100.897042,13.7293854 L112.664396,13.7293854 L112.664396,12.7524479 L102.697458,12.7524479 L102.697458,11.1042812 L112.664396,11.1042812 L112.664396,10.0663229 L102.697458,10.0663229 L102.697458,8.41815625 L112.664396,8.41815625 L112.664396,7.10590625 L100.897042,7.10590625 L100.897042,5.45773958 L112.664396,5.45773958 Z" id="Fill-5" fill="#FFFFFF" mask="url(#mask-2)"></path>
                </g>
            </g>
        </g>
    </g>
</svg>