<?xml version="1.0" encoding="UTF-8"?>
<svg width="219px" height="72px" viewBox="0 0 219 72" version="1.1" xmlns="http://www.w3.org/2000/svg" xmlns:xlink="http://www.w3.org/1999/xlink">
    <!-- Generator: Sketch 55.2 (78181) - https://sketchapp.com -->
    <title>game</title>
    <desc>Created with Sketch.</desc>
    <defs>
        <polygon id="path-1" points="0 39 180 39 180 0 0 0"></polygon>
    </defs>
    <g id="game" stroke="none" stroke-width="1" fill="none" fill-rule="evenodd">
        <g id="Group-8" transform="translate(0.000000, 32.000000)">
            <path d="M30.8642798,18.3543648 C30.8642798,18.6520592 31.0480581,19.0756559 31.4609776,19.0756559 C31.827371,19.0756559 32.2856535,18.8214979 32.65321,18.6520592 L32.65321,12.4922563 L30.8642798,12.4922563 L30.8642798,18.3543648 Z M26.1407132,9.81536015 L26.1407132,5.01577357 L24.6728134,5.01577357 L24.6274504,9.81536015 L26.1407132,9.81536015 Z M18.0230645,32.9237399 L32.65321,32.9237399 L32.65321,28.3371283 L18.0230645,28.3371283 L18.0230645,32.9237399 Z M19.9492468,14.318429 L19.9492468,12.4922563 L18.0230645,12.4922563 L18.0230645,22.6020989 C19.4444381,19.628685 19.9492468,17.5471776 19.9492468,14.318429 L19.9492468,14.318429 Z M29.5347953,22.8997933 C27.608613,22.8997933 26.1407132,22.6879949 26.1407132,20.5629512 L26.1407132,12.4922563 L24.5809243,12.4922563 C24.2598939,18.9497535 23.9388635,20.2240738 18.0230645,23.8340595 L18.0230645,25.6614088 L32.65321,25.6614088 L32.65321,22.3479408 C31.6435927,22.7727143 30.6351386,22.8997933 29.5347953,22.8997933 L29.5347953,22.8997933 Z M10.8231439,2.34005406 L40.6789696,2.34005406 L40.6789696,5.01577357 L30.8642798,5.01577357 L30.8642798,9.81536015 L32.4240688,9.81536015 L34.3502511,8.20098585 L41,9.51884242 L38.9354024,11.1743997 L38.9354024,38.8293846 L32.65321,38.8293846 L32.65321,35.6429957 L18.0230645,35.6429957 L18.0230645,38.6599459 L11.6478198,38.6599459 L11.6478198,8.6692956 L18.0230645,8.6692956 L18.0230645,9.81536015 L19.9492468,9.81536015 L20.0411359,5.01577357 L10.8231439,5.01577357 L10.8231439,2.34005406 Z M1.32948452,2 C4.8142926,2.34005406 10.4102244,3.69909366 10.7766178,6.37481317 C11.1441743,8.79637462 8.7597095,9.9000795 7.0161423,9.13642869 C5.59476865,8.54103991 5.08996,7.60677373 4.17339499,5.73706472 C3.48480808,4.29330577 2.38446481,3.27432024 1.05498028,2.29769439 L1.32948452,2 Z M0.595534625,12.1522023 C2.84274731,12.534616 8.34678998,13.5959612 9.49249624,15.5080299 C10.6393657,17.4624583 9.217992,19.9687391 6.64974893,19.501606 C3.66858634,18.9497535 3.71394933,16.188138 2.29257568,14.3607887 C1.74240404,13.6383209 0.961927998,13.0441088 0.229141252,12.4922563 L0.595534625,12.1522023 Z M9.03421374,21.1159803 L9.58438537,21.285419 C9.44713325,28.252409 8.25490085,33.1802512 3.98961673,39 L0,32.9249165 C4.03497972,29.4420099 6.60322279,25.6190491 9.03421374,21.1159803 L9.03421374,21.1159803 Z" id="Fill-1" fill="#665B55"></path>
            <path d="M84.4845448,37.5134934 C81.6717052,37.5134934 81.7192595,35.6447759 81.2032948,33.5655484 C80.8276155,31.9943674 79.7505095,30.5925353 78.5782948,29.361228 L79.0003397,29.1072048 C80.9690897,29.7869522 84.4845448,31.0605967 85.8909647,32.4612528 C86.5935802,33.1398242 87.5315897,34.1582694 87.5315897,35.1367294 C87.5315897,36.5797227 85.9848845,37.5134934 84.4845448,37.5134934 L84.4845448,37.5134934 Z M78.484375,15.2652884 L80.4994905,15.2652884 L80.4994905,11.1044813 L78.484375,11.1044813 L78.484375,15.2652884 Z M72.1560802,15.2652884 L74.3126698,15.2652884 L74.3126698,11.1044813 L72.1560802,11.1044813 L72.1560802,15.2652884 Z M72.1560802,8.43018074 L74.3126698,8.43018074 L74.3126698,5.07613271 L72.1560802,5.07613271 L72.1560802,8.43018074 Z M65.9217052,15.2652884 L67.7965353,15.2652884 L67.7965353,11.1044813 L65.9217052,11.1044813 L65.9217052,15.2652884 Z M61.7975543,22.9083313 L84.1564198,22.9083313 L84.1564198,20.2340307 L61.7975543,20.2340307 L61.7975543,22.9083313 Z M76.5619905,27.5360238 L76.5619905,34.7956796 C76.5619905,36.7914088 76.2350543,38.1920649 73.7967052,38.4896014 C72.7184103,38.616613 71.6401155,38.7024635 70.609375,38.7024635 C68.1246603,38.7024635 69.5310802,37.8957044 68.640625,36.5797227 C68.1246603,35.7729636 65.8753397,35.3895766 64.9373302,35.1790666 L65.03125,34.668668 C66.0619905,34.7110052 67.0939198,34.7533424 68.1246603,34.8815301 C68.4064198,34.9238673 68.7345448,34.9238673 69.0151155,34.9238673 C69.9994905,34.9238673 70.5630095,34.6263308 70.5630095,33.6502228 L70.5630095,27.5360238 L59.7348845,27.5360238 L59.7348845,24.8605472 L87.8597147,24.8605472 L87.8597147,27.5360238 L76.5619905,27.5360238 Z M58.6090353,37.7263555 L58.140625,37.3864818 C61.09375,34.6263308 61.8439198,32.6729388 62.9685802,29.0636915 L69.3907948,29.2765536 C66.8121603,33.9477593 63.6723845,35.6871131 58.6090353,37.7263555 L58.6090353,37.7263555 Z M86.03125,9.91551127 L86.03125,18.8321986 L80.4994905,18.8321986 L80.4994905,17.939589 L65.9217052,17.939589 L65.9217052,18.8321986 L62.3123302,18.8321986 C61.7975543,19.6812949 61.3279552,19.9788314 60.2496603,19.9788314 C58.0003397,19.9788314 58.2345448,18.5769993 58.0003397,16.9634811 C57.9064198,16.1155608 57.7185802,15.6898366 57.3440897,14.9265907 L57.3440897,39 L51.3439198,39 L51.3439198,23.7997648 C49.9838655,25.9225056 48.5774457,27.7477098 46.6098845,29.4470785 L46,29.3188908 C46.3744905,28.4274573 46.7026155,27.5360238 47.0782948,26.6445902 C48.2493207,23.6715771 48.8592052,17.6008913 48.8592052,14.3315177 C48.8592052,13.3130725 48.8128397,12.2522902 48.8128397,11.2314929 L51.3439198,11.2314929 L51.3439198,8.98174053 L46.7501698,8.98174053 L46.7501698,6.30743996 L51.3439198,6.30743996 L51.3439198,1 L57.3440897,1 L57.3440897,6.30743996 L60.4375,6.30743996 L60.4375,8.98174053 L57.3440897,8.98174053 L57.3440897,13.1002104 C58.5151155,13.8211191 59.6873302,14.5443798 60.7192595,15.4781505 L60.7192595,7.45289676 L65.9217052,7.45289676 L65.9217052,8.43018074 L67.7965353,8.43018074 L67.7965353,5.07613271 L60.0630095,5.07613271 L60.0630095,2.40183214 L87.5315897,2.40183214 L87.5315897,5.07613271 L78.484375,5.07613271 L78.484375,8.43018074 L80.3128397,8.43018074 L81.9059103,6.85899975 L88,8.30199307 L86.03125,9.91551127 Z" id="Fill-3" fill="#665B55"></path>
            <mask id="mask-2" fill="white">
                <use xlink:href="#path-1"></use>
            </mask>
            <g id="Clip-6"></g>
            <path d="M107.186396,21.5627379 L109.849475,21.5627379 L109.849475,18.8403009 L107.186396,18.8403009 L107.186396,21.5627379 Z M107.186396,16.2875008 L109.849475,16.2875008 L109.849475,13.608651 L107.186396,13.608651 L107.186396,16.2875008 Z M99.5651235,21.5627379 L102.457597,21.5627379 L102.457597,18.8403009 L99.5651235,18.8403009 L99.5651235,21.5627379 Z M99.5651235,16.2875008 L102.457597,16.2875008 L102.457597,13.608651 L99.5651235,13.608651 L99.5651235,16.2875008 Z M107.186396,6.38023319 L115.955808,6.38023319 L115.955808,8.46299764 L119.169668,8.46299764 L119.261659,0.808131457 L124.450412,0.808131457 L124.311843,8.46299764 L126.929509,8.46299764 L128.489861,6.97514046 L134,8.12254576 L132.301079,9.56917175 L131.979693,34.108802 C131.979693,34.9605208 131.887702,36.0231076 131.428912,36.7876518 C130.418177,38.3190962 127.158904,38.8303631 125.367992,38.8303631 C122.567509,38.8303631 125.506561,37.6393705 122.430105,36.3211502 C121.189974,35.8098834 119.767026,35.55425 118.434905,35.2997946 L118.481483,34.7472966 C120.547202,34.832115 122.842318,35.0453392 124.909202,35.0453392 C126.194746,35.0453392 126.608123,34.3644354 126.608123,33.2582613 L127.066913,11.0146197 L124.26643,11.0146197 C124.174439,15.77859 124.221017,20.498973 123.394263,25.1781248 C122.338114,31.1319096 116.919966,35.9382891 111.685799,39 L111.089605,38.7019573 C115.634422,34.0239836 117.838711,29.8985078 118.665464,23.6042711 C119.169668,19.4787954 119.078841,15.1400955 119.169668,11.0146197 L115.634422,11.0146197 L115.634422,8.88944602 L107.186396,8.88944602 L107.186396,11.0146197 L109.849475,11.0146197 L111.272423,9.73880868 L116.231781,11.3126624 L114.670264,12.163203 L114.670264,25.1781248 L109.986879,25.1781248 L109.986879,24.1579472 L107.186396,24.1579472 L107.186396,26.7943877 L114.670264,26.7943877 L114.670264,29.2611913 L107.186396,29.2611913 L107.186396,32.0248595 C110.125447,31.6844077 113.063334,31.386365 115.955808,30.9198635 L116.13979,31.5147707 C109.436098,34.0239836 102.366771,35.7674742 95.3416927,37.4261463 L93.3667992,33.1310336 C96.3978415,32.9602187 99.4277194,32.7481725 102.457597,32.4501299 L102.457597,29.2611913 L94.4695257,29.2611913 L94.4695257,26.7943877 L102.457597,26.7943877 L102.457597,24.1579472 L99.4731326,24.1579472 L99.4731326,25.2629433 L94.9737291,25.2629433 L94.9737291,10.334894 L99.4731326,10.334894 L99.4731326,11.0146197 L102.457597,11.0146197 L102.457597,8.88944602 L93.5053678,8.88944602 L93.5053678,6.38023319 L102.457597,6.38023319 L102.457597,4.16788498 C99.3357285,4.12547574 96.1684465,3.99707002 93.0454132,3.87102036 L93,3.27493506 C99.5197103,2.76366822 106.314229,2.08394249 112.512553,0 L116.507753,3.82861113 C113.431298,3.99707002 110.309429,4.03947925 107.186396,4.16788498 L107.186396,6.38023319 Z" id="Fill-5" fill="#665B55" mask="url(#mask-2)"></path>
            <path d="M163.196212,31.4752739 L170.80438,31.4752739 L170.80438,29.5860994 L163.196212,29.5860994 L163.196212,31.4752739 Z M163.196212,27.2689181 L170.80438,27.2689181 L170.80438,25.2513415 L163.196212,25.2513415 L163.196212,27.2689181 Z M162.916839,11.3446869 L170.664694,11.3446869 L170.664694,9.49950194 L162.916839,9.49950194 L162.916839,11.3446869 Z M162.916839,7.18113171 L170.664694,7.18113171 L170.664694,5.63555156 L162.916839,5.63555156 L162.916839,7.18113171 Z M149.381474,31.4752739 L156.802604,31.4752739 L156.802604,29.5860994 L149.381474,29.5860994 L149.381474,31.4752739 Z M149.381474,27.2689181 L156.802604,27.2689181 L156.802604,25.2513415 L149.381474,25.2513415 L149.381474,27.2689181 Z M172.344481,21.3029787 L179.065996,22.6761672 L177.29269,24.1349571 L177.29269,34.7364481 L170.80438,34.7364481 L170.80438,33.7924553 L149.381474,33.7924553 L149.381474,34.608046 L143.080201,34.608046 L143.080201,22.4181742 L149.381474,22.4181742 L149.381474,22.9341602 L170.618526,22.9341602 L172.344481,21.3029787 Z M140.139686,38 L179.53359,38 L179.53359,35.5972173 L140.139686,35.5972173 L140.139686,38 Z M156.47588,7.18113171 L156.47588,5.63555156 L142.379402,5.63555156 L142.379402,3.36117091 L156.47588,3.36117091 L156.47588,1 L162.916839,1 L162.916839,3.36117091 L170.431489,3.36117091 L172.252146,1.4719964 L178.506067,3.10317792 L177.059485,4.56315671 L177.059485,7.18113171 L179.860314,7.18113171 L179.860314,9.49950194 L177.059485,9.49950194 L177.059485,14.2206549 L170.664694,14.2206549 L170.664694,13.6618682 L162.916839,13.6618682 L162.916839,15.1206581 L176.125481,15.1206581 L176.125481,17.4402172 L162.916839,17.4402172 L162.916839,18.8134057 L180,18.8134057 L180,21.1305871 L140,21.1305871 L140,18.8134057 L156.47588,18.8134057 L156.47588,17.4402172 L142.520272,17.4402172 L142.520272,15.1206581 L156.47588,15.1206581 L156.47588,13.6618682 L142.520272,13.6618682 L142.520272,11.3446869 L156.47588,11.3446869 L156.47588,9.49950194 L140,9.49950194 L140,7.18113171 L156.47588,7.18113171 Z" id="Fill-7" fill="#665B55" mask="url(#mask-2)"></path>
        </g>
        <path d="M194.965625,55 L192.861875,55 L191,39 L197,39 L194.965625,55 Z M194.499016,62.9485776 C193.601507,63.1139911 192.670868,62.882543 191.972739,62.2221966 C191.24148,61.5618502 190.942712,60.702746 191.008971,59.7115726 C191.075832,58.9191569 191.441461,58.2254663 192.07273,57.6971891 C192.770859,57.1355678 193.634636,56.9041196 194.532145,57.0361889 C195.329663,57.1682582 196.094052,57.7298796 196.52594,58.3908798 C196.792181,58.819778 196.958431,59.2820205 196.991561,59.7449168 C197.02469,60.1744689 196.958431,60.6033672 196.825311,61.0002288 C196.492811,62.0574369 195.562172,62.7511275 194.499016,62.9485776 L194.499016,62.9485776 Z" id="Fill-8" fill="#665B55"></path>
        <path d="M210.2875,59.2382437 L207.4825,59.2382437 L205,38.2382437 L213,38.2382437 L210.2875,59.2382437 Z M209.665354,69.1696806 C208.468675,69.3902319 207.227824,69.0816344 206.296985,68.2011725 C205.321973,67.3207106 204.923615,66.1752384 205.011961,64.8536739 C205.101109,63.7971196 205.588615,62.8721988 206.430306,62.1678293 C207.361145,61.4190008 208.512848,61.1104033 209.709527,61.2864956 C210.772884,61.462588 211.792069,62.2114165 212.36792,63.0927501 C212.722908,63.6646145 212.944575,64.2809378 212.988747,64.8981328 C213.03292,65.4708689 212.944575,66.0427333 212.767081,66.5718822 C212.323747,67.9814929 211.082896,68.9064138 209.665354,69.1696806 L209.665354,69.1696806 Z" id="Fill-8-Copy" fill="#665B55" transform="translate(209.000000, 53.738244) rotate(25.000000) translate(-209.000000, -53.738244) "></path>
    </g>
</svg>