<?xml version="1.0" encoding="UTF-8"?>
<svg width="54px" height="54px" viewBox="0 0 168 168" version="1.1" xmlns="http://www.w3.org/2000/svg" xmlns:xlink="http://www.w3.org/1999/xlink">
    <title>c_icon</title>
    <g id="c_icon" stroke="none" stroke-width="1" fill="none" fill-rule="evenodd">
        <g id="c" transform="translate(3.000000, 0.000000)" fill="#E60012" fill-rule="nonzero">
            <path d="M87.215311,0 C87.59311,0.0562679426 87.9628708,0.152727273 88.3406699,0.176842105 C103.565167,1.1092823 117.640191,5.59464115 130.429091,13.9383732 C141.827368,21.3737799 150.725742,31.1563636 157.2689,43.0851675 C157.325167,43.1896651 157.381435,43.2941627 157.429665,43.3986603 C157.45378,43.44689 157.45378,43.5111962 157.493971,43.6719617 C157.293014,43.8407656 157.059904,44.0658373 156.810718,44.2426794 C153.740096,46.4210526 150.68555,48.6235407 147.582775,50.7536842 C143.54756,53.5188517 139.480191,56.2277512 135.420861,58.9607656 C135.179713,59.1215311 134.930526,59.2742584 134.649187,59.4591388 C134.440191,59.1536842 134.255311,58.8884211 134.086507,58.6151196 C130.139713,52.4336842 125.58201,46.7666986 120.011483,41.9598086 C112.873493,35.8105263 104.730718,31.6065072 95.5027751,29.6130144 C90.6396172,28.56 85.7201914,28.3188517 80.7444976,28.5680383 C60.3111962,29.5808612 37.4262201,44.4597129 30.7383732,70.8333014 C29.3155981,76.4279426 28.9699522,82.1110048 29.3155981,87.8664115 C30.384689,105.397895 41.3087081,123.80555 60.5443062,133.338947 C65.7611483,135.927273 71.2352153,137.671579 77.0066986,138.491483 C84.0643062,139.496268 91.0174163,138.957703 97.874067,137.076746 C110.759426,133.539904 121.24134,126.450144 129.17512,115.654737 C131.55445,112.415311 133.41933,108.870431 134.954641,105.164785 C135.059139,104.915598 135.163636,104.67445 135.268134,104.433301 C135.292249,104.385072 135.340478,104.34488 135.453014,104.200191 C144.126316,108.26756 152.83177,112.342967 161.569378,116.442488 C161.480957,116.675598 161.432727,116.836364 161.360383,116.997129 C154.069665,132.728038 143.097416,145.251675 128.491866,154.56 C119.545263,160.267177 109.810909,163.996938 99.3691866,165.942201 C92.834067,167.155981 86.2667943,167.598086 79.6352153,167.276555 C49.8855502,165.837703 23.0537799,148.30622 9.57358852,121.185072 C6.01263158,114.022967 3.44842105,106.53933 2.06583732,98.6537799 C0.940478469,92.2311962 0.578755981,85.7684211 0.900287081,79.249378 C1.59961722,65.2225837 5.61875598,52.2086124 12.8371292,40.1913876 C21.5184689,25.7385646 33.6160766,15.0637321 48.8164593,7.86143541 C56.1232536,4.3969378 63.7837321,2.08191388 71.7898565,0.972631579 C74.5711005,0.586794258 77.3925359,0.434066986 80.1898565,0.176842105 C80.5676555,0.144688995 80.9454545,0.0643062201 81.3232536,0.00803827751 C83.3006699,0 85.2539713,0 87.215311,0 Z" id="Path"></path>
        </g>
    </g>
</svg>