timestamp,user_id,image_id
2018-06-01,10012,11
2018-06-01,10014,7
2018-06-02,10019,18
2018-06-02,10019,13
2018-06-02,10005,6
2018-06-04,10002,15
2018-06-05,10011,18
2018-06-07,10014,1
2018-06-08,10017,11
2018-06-08,10004,7
2018-06-08,10011,7
2018-06-10,10002,14
2018-06-11,10004,9
2018-06-12,10011,13
2018-06-12,10010,3
2018-06-12,10005,17
2018-06-13,10006,4
2018-06-13,10002,16
2018-06-13,10016,13
2018-06-13,10018,5
2018-06-14,10004,14
2018-06-14,10002,4
2018-06-14,10001,15
2018-06-14,10014,5
2018-06-14,10002,19
2018-06-15,10006,13
2018-06-16,10017,1
2018-06-16,10019,1
2018-06-18,10003,5
2018-06-18,10012,19
2018-06-18,10001,2
2018-06-18,10004,17
2018-06-18,10011,18
2018-06-18,10010,7
2018-06-18,10001,16
2018-06-21,10008,16
2018-06-22,10004,3
2018-06-22,10002,11
2018-06-22,10007,12
2018-06-22,10013,19
2018-06-22,10013,4
2018-06-23,10017,19
2018-06-24,10012,2
2018-06-24,10008,16
2018-06-24,10011,10
2018-06-25,10004,15
2018-06-25,10005,4
2018-06-26,10017,17
2018-06-26,10017,4
2018-06-27,10014,12
