timestamp,user_id,item_id,view_time
2018-06-01,10001,13,58
2018-06-01,10016,12,24
2018-06-02,10017,13,5
2018-06-02,10019,15,46
2018-06-02,10007,13,29
2018-06-02,10004,9,7
2018-06-03,10005,2,44
2018-06-03,10002,17,2
2018-06-03,10007,18,56
2018-06-03,10010,16,30
2018-06-03,10016,1,35
2018-06-04,10005,19,11
2018-06-04,10001,8,33
2018-06-04,10019,18,57
2018-06-06,10013,9,41
2018-06-06,10013,4,27
2018-06-06,10017,12,18
2018-06-07,10016,15,39
2018-06-07,10001,4,3
2018-06-08,10014,10,9
2018-06-08,10008,15,6
2018-06-08,10015,9,35
2018-06-09,10004,8,49
2018-06-09,10011,16,7
2018-06-10,10009,11,23
2018-06-10,10003,10,36
2018-06-10,10012,8,16
2018-06-12,10009,5,46
2018-06-12,10018,15,46
2018-06-13,10002,2,26
2018-06-13,10013,11,21
2018-06-13,10007,11,24
2018-06-13,10016,2,35
2018-06-13,10017,11,28
2018-06-14,10001,3,31
2018-06-14,10008,12,4
2018-06-14,10008,8,6
2018-06-15,10014,7,1
2018-06-15,10019,16,58
2018-06-15,10011,2,2
2018-06-16,10018,3,60
2018-06-16,10016,10,60
2018-06-17,10004,2,49
2018-06-17,10018,11,27
2018-06-17,10017,8,42
2018-06-17,10003,16,6
2018-06-18,10001,14,47
2018-06-19,10008,1,41
2018-06-19,10019,16,60
2018-06-19,10014,2,49
2018-06-21,10009,4,18
2018-06-21,10014,6,1
2018-06-21,10014,10,8
2018-06-22,10007,6,29
2018-06-22,10017,1,52
2018-06-22,10007,11,22
2018-06-22,10003,14,1
2018-06-23,10003,2,39
2018-06-23,10008,12,13
2018-06-23,10006,8,55
2018-06-24,10004,9,17
2018-06-24,10016,8,27
2018-06-24,10005,12,42
2018-06-24,10001,3,35
2018-06-24,10002,9,43
2018-06-24,10005,11,13
2018-06-24,10010,14,1
2018-06-25,10006,19,57
2018-06-25,10016,17,4
2018-06-25,10003,17,20
2018-06-25,10005,9,30
2018-06-25,10016,6,39
2018-06-26,10010,10,23
2018-06-26,10013,1,51
2018-06-27,10004,4,18
2018-06-27,10010,15,8
2018-06-28,10018,17,25
2018-06-28,10001,4,31
2018-06-29,10017,19,39
2018-06-29,10004,1,4
