<?xml version="1.0" encoding="UTF-8"?>
<svg width="197px" height="100px" viewBox="0 0 197 100" version="1.1" xmlns="http://www.w3.org/2000/svg" xmlns:xlink="http://www.w3.org/1999/xlink">
    <!-- Generator: Sketch 51.3 (57544) - http://www.bohemiancoding.com/sketch -->
    <title>game</title>
    <desc>Created with Sketch.</desc>
    <defs>
        <polygon id="path-1" points="6.72279479e-05 0.281840227 196.920041 0.281840227 196.920041 97 6.72279479e-05 97"></polygon>
    </defs>
    <g id="Page-1" stroke="none" stroke-width="1" fill="none" fill-rule="evenodd">
        <g id="Desktop-HD-II-I" transform="translate(-607.000000, -1948.000000)">
            <g id="game" transform="translate(607.000000, 1948.000000)">
                <g id="Group-6-Copy">
                    <g id="Group-16">
                        <g id="Group-3" transform="translate(0.000000, 3.000000)">
                            <mask id="mask-2" fill="white">
                                <use xlink:href="#path-1"></use>
                            </mask>
                            <g id="Clip-2"></g>
                            <path d="M196.730438,40.7284636 C195.819861,36.1181383 193.062408,31.7908083 188.844966,27.5764879 C187.416716,27.6372306 186.013638,27.6965607 184.384558,27.76625 C183.759083,26.994017 182.822238,26.3178422 182.72538,25.6115316 C182.566686,24.4564782 181.815897,23.5081383 180.408441,22.644085 C178.907411,21.7216432 177.293652,20.8349879 175.981413,19.8461529 C174.604602,18.8083471 172.022808,19.1812791 170.476905,18.5446578 C169.987141,16.3000024 169.987141,16.3000024 165.067613,16.6329102 C160.896686,14.894915 156.627805,13.1027694 152.333752,11.3275752 C144.203124,7.96647816 135.766599,4.9029733 125.395097,3.50447816 C123.007019,3.18287136 120.752463,2.46761408 118.649488,1.76789563 C114.871466,0.511133495 110.795755,0.103356796 106.409769,0.350565534 C103.860261,0.495123786 101.334283,0.74186165 98.7847744,0.888303398 C97.527805,0.960347087 96.1641272,1.0535801 94.9870522,0.885007282 C91.9401189,0.449449029 89.0135744,0.733385922 86.0881244,1.07524029 C81.0826828,1.66006553 76.1035078,2.30375 71.1079161,2.91070631 C64.8783383,3.66645874 58.807455,4.58842961 53.3215522,6.3758665 C48.9957606,7.78472087 44.4100383,8.98450728 40.0306189,10.3528665 C34.1961356,12.1760898 28.5953161,14.2625316 24.2925078,16.9342694 C19.0238522,20.2059005 14.6132411,23.8372791 9.89782722,27.3368131 C9.18260778,27.8674879 8.80940222,28.5196481 8.30486333,29.1218956 C7.30235222,30.317915 6.20900222,31.4974539 5.35259944,32.7203131 C4.06826889,34.5553083 1.50124944,36.1332063 1.38304944,38.2097597 C1.30370222,39.6200267 0.952385556,41.0350024 0.499285556,42.4287888 C-0.211008889,44.6117597 -0.145889444,46.7716578 0.583557778,48.9466238 C0.980293889,50.128517 1.766105,51.3904587 1.32504389,52.508784 C0.321438333,55.0571529 1.95599111,57.2269393 3.913405,59.4320413 C4.52684111,60.1228131 4.78403556,60.8936335 5.34329667,61.5994733 C7.33682722,64.1158228 9.311205,66.6373519 11.4727328,69.1165024 C12.0604494,69.7907937 13.1193244,70.4175267 14.2394883,70.8992306 C17.3214439,72.2242694 19.8195133,73.6378325 18.9926606,75.9097985 C18.9204272,76.1066238 19.0714606,76.344415 19.2285133,76.5398277 C21.6133078,79.5063325 24.81018,82.1502888 30.2063383,83.9834005 C32.1467883,84.6430947 33.8043244,85.5137403 35.6966189,86.2139296 C38.9219467,87.4075947 41.5973161,89.0697791 46.2651217,88.9953811 C47.8006272,88.9708956 49.4390106,89.5966869 50.917605,90.0256529 C52.0213522,90.346318 52.8673578,90.8925316 53.9596133,91.2273228 C58.8304383,92.7204636 63.4112356,94.7348617 69.809905,93.7055316 C73.257405,94.2366772 77.12353,93.7220121 80.3548772,94.711318 C84.7933967,96.0712015 89.6800911,96.2586092 94.6362828,96.2312985 C101.685052,96.1936286 108.685119,96.9098277 115.750852,96.5538471 C116.165099,96.5326578 116.614916,96.5811578 117.019313,96.6466092 C122.146786,97.4701675 126.753849,96.7746869 131.10153,95.3832549 C134.025886,94.4471578 137.10018,93.7295461 140.443161,93.2398374 C142.006027,93.0105218 143.487358,92.4548908 144.741044,91.8936092 C148.867647,90.0459005 152.426233,87.8841189 157.386255,86.5049296 C159.375408,85.9521238 160.688194,84.7975413 162.612227,84.1496189 C167.110941,82.6338762 169.698755,80.4207694 171.66383,77.9981238 C172.592466,76.8534296 173.766805,75.9276917 175.563336,75.0777646 C177.729241,74.0531432 179.782966,72.8924393 181.321208,71.614017 C184.429977,69.0275073 186.86238,66.222983 190.126013,63.6920364 C193.799516,60.8427791 195.390291,57.7835121 195.675941,54.4454879 C195.984027,50.8498956 196.511549,47.2599539 196.86998,43.6657743 C196.967933,42.6896529 196.922513,41.7003471 196.730438,40.7284636" id="Fill-1" fill="#000000" mask="url(#mask-2)"></path>
                        </g>
                        <path d="M116.584194,3.68379706 C118.957132,3.80827915 121.092284,4.17119233 123.147628,4.82807475 C124.732866,5.3346211 126.625313,5.95032868 128.328624,5.91059016 C131.571803,5.83494335 134.267255,6.45017215 136.578424,7.34548565 C138.263696,7.99853785 140.082894,8.0248706 141.82283,8.35043915 C143.647494,8.69228612 144.052003,10.0606316 146.375744,9.99791175 C146.522242,9.99360275 146.653434,9.84422424 147,9.6407439 C142.373837,7.93294537 137.800151,6.1605119 133.035142,4.53937205 C131.712835,4.08980019 129.815469,4.09889696 128.190872,3.88057452 C126.572289,3.66320964 124.245269,3.69241505 123.484354,3.14469385 C120.972571,1.33778842 117.398132,1.39141148 113.842825,1.09648468 C110.150312,0.789588444 106.653495,1.29278336 103.088348,1.5216389 C102.678919,1.54797165 102.360232,1.95684744 102,2.18761808 C102.473932,2.37290489 102.94677,2.71714575 103.421795,2.71762452 C107.9031,2.72528496 112.176684,3.45254764 116.584194,3.68379706" id="Fill-4" fill="#000000"></path>
                        <path d="M98,0.0863075822 C95.1894323,-0.0813507102 91.0826307,-0.0239490575 89.9179314,0.429580832 C89.1545812,0.726250759 88.7453626,1.34800727 88,1.97317379 C93.2315908,2.13173875 95.8729623,1.59807388 98,0.0863075822" id="Fill-6" fill="#000000"></path>
                        <path d="M143.834993,6.98616601 C144.096017,7.06146452 144.602418,6.80973125 145,6.70416569 C144.693457,6.46350573 144.450925,6.15197658 144.051209,6.01245286 C143.852063,5.94232189 143.361309,6.18667295 143,6.29002386 C143.271693,6.53585136 143.463727,6.88060044 143.834993,6.98616601" id="Fill-8" fill="#000000"></path>
                        <path d="M81.552658,1.02677154 C81.502006,0.960888894 81.0927783,1.03010737 81.0787362,1.08931836 C81.0095286,1.38370537 81.0185557,1.69477154 81,2 C81.3324975,1.95246442 81.6654965,1.90659675 82,1.85822722 C81.8575727,1.57551561 81.7422267,1.27362298 81.552658,1.02677154" id="Fill-10" fill="#000000"></path>
                        <path d="M77,3.221 C76.7498014,3.148 76.5003971,3.074 76.2501986,3 C76.166799,3.16 76.0833995,3.322 76,3.482 C76.24861,3.551 76.49722,3.665 76.74583,3.663 C76.8324067,3.663 76.9158062,3.377 77,3.221" id="Fill-12" fill="#000000"></path>
                        <path d="M178.271295,21 C179.653021,20.8916721 180.763141,20.8298851 181.836853,20.7123293 C182.49391,20.640512 183.126118,20.5045003 183.710361,20.3580571 C185.12387,20.0057909 185.422638,19.1796907 184.371463,18.6476805 C183.159635,18.0342238 181.390725,17.8488628 179.387193,18.124497 C177.702655,18.3568001 176.827735,18.8326403 177.028262,19.6362726 C177.132859,20.0615597 177.763911,20.4659837 178.271295,21" id="Fill-14" fill="#000000"></path>
                    </g>
                </g>
                <g id="Group-7" transform="translate(13.000000, 36.000000)" fill="#FFFFFF">
                    <path d="M18.8819524,7.05372241 L23.7214186,7.05372241 L23.7214186,5.79655726 L18.8819524,5.79655726 L18.8819524,7.05372241 Z M18.8819524,4.26319213 L23.7214186,4.26319213 L23.7214186,2.91375797 L18.8819524,2.91375797 L18.8819524,4.26319213 Z M10.4565833,17.6652647 L13.5696401,17.6652647 L13.5696401,16.5610718 L10.4565833,16.5610718 L10.4565833,17.6652647 Z M10.4565833,15.1193687 L13.5696401,15.1193687 L13.5696401,14.1377965 L10.4565833,14.1377965 L10.4565833,15.1193687 Z M10.4565833,12.7580107 L13.5696401,12.7580107 L13.5696401,11.9300178 L10.4565833,11.9300178 L10.4565833,12.7580107 Z M21.28482,10.5805836 L21.28482,11.9300178 L16.4453538,11.9300178 L16.4453538,12.7580107 L20.7770165,12.7580107 L20.7770165,14.1377965 L16.4453538,14.1377965 L16.4453538,15.1193687 L20.6758237,15.1193687 L20.6758237,16.5610718 L16.4453538,16.5610718 L16.4453538,17.6652647 L19.0849511,17.6652647 L19.9987523,16.6533408 L23.0780781,17.4807267 L22.0293533,18.4009886 L21.9275473,22.7558427 C21.8938164,24.4118285 20.8113607,24.5040975 19.2879499,24.8719594 C20.201751,24.9332697 21.1492831,25.0255387 22.0630842,25.0255387 C23.0106163,25.0255387 23.7214186,24.9945801 23.7214186,23.9826562 L23.7214186,8.61804622 L18.8819524,8.61804622 L18.8819524,9.44603911 L15.0243624,9.44603911 L15.0243624,0.613710272 L18.8819524,0.613710272 L18.8819524,1.34943416 L23.6196126,1.34943416 L24.6346064,0.122620648 L29,1.04288254 L27.6121262,2.20838573 L27.6121262,25.1172007 C27.6121262,27.0493865 26.7326693,27.3255864 24.7701434,27.7547587 C24.2286089,27.8773794 23.6533435,28 23.0780781,28 C22.3335448,28 22.130546,27.8773794 22.130546,27.2339245 C22.130546,25.7612626 19.5252929,25.5160213 18.3747621,25.3017387 L18.5434167,24.9332697 C18.2392251,24.9642284 17.9006894,24.9642284 17.5958846,24.9642284 C16.7838895,24.9642284 16.5471598,25.0558904 16.5471598,24.2588562 C16.5471598,24.1052769 16.5134289,23.9213459 16.4122362,23.7987252 C16.0393563,23.3082426 13.9412934,22.9707323 13.3322971,22.8784633 L13.4341031,22.4492911 C14.8888254,22.6028704 16.377892,22.725491 17.8332276,22.725491 C18.7132978,22.725491 19.1192954,22.6945324 19.152413,21.7748775 L19.2204881,19.1373195 L16.377892,19.1373195 C17.0212325,19.6278021 18.2729561,20.3331743 18.2729561,21.1921259 C18.2729561,21.7748775 17.6976906,22.1427395 17.0886943,22.1427395 C16.7838895,22.1427395 16.4453538,22.1117808 16.2766992,21.8361878 C16.1074314,21.5290292 16.0062386,21.1611672 15.9044326,20.824264 C15.7014338,20.2415124 15.3628981,19.6891124 15.0243624,19.1373195 L12.8925686,19.1373195 C13.5021782,19.5974505 14.8557078,20.4861466 14.8557078,21.2837879 C14.8557078,21.8665395 14.3479042,22.2653601 13.705177,22.2653601 C12.2161105,22.2653601 12.520302,21.3760569 12.3516474,20.4248363 C12.2835723,20.0879331 12.0805735,19.4438711 11.8775748,19.1373195 L10.4565833,19.1373195 L10.4565833,19.6278021 C10.9300427,20.2105537 11.57277,20.8546156 11.57277,21.6212982 C11.57277,22.2653601 10.9300427,22.633222 10.2535846,22.633222 C9.64458825,22.633222 9.23797741,22.4492911 9.23797741,21.8361878 C9.23797741,21.4064085 9.33978345,21.1921259 9.33978345,20.7629536 C9.33978345,20.4861466 9.37351436,19.9956641 9.33978345,19.7200711 L8.45971323,19.7200711 C8.29105866,20.7629536 8.12117752,22.2957117 7.07245273,22.909422 C6.66645519,23.1243117 6.19299581,23.3082426 5.71892315,23.3082426 C5.21111957,23.3082426 4.43346868,23.2159736 4.43346868,22.6945324 C4.43346868,22.2957117 4.77139111,21.9588085 5.2785814,21.6826085 C6.22611344,21.1611672 7.00499091,20.5784156 7.61398723,19.7200711 L7.34352663,19.7200711 L7.34352663,9.90617006 L10.4565833,9.90617006 L10.4565833,10.5805836 L21.28482,10.5805836 Z M3.89193419,4.14057148 L8.76451804,4.14057148 L8.76451804,2.91375797 L3.89193419,2.91375797 L3.89193419,4.14057148 Z M3.85758998,6.96206044 L8.76451804,6.96206044 L8.76451804,5.61262628 L3.85758998,5.61262628 L3.85758998,6.96206044 Z M3.89193419,0.582751593 L3.89193419,1.34943416 L8.62898109,1.34943416 L9.67770587,0 L13.9081758,0.981572215 L12.6558389,2.1470754 L12.6558389,9.35377011 L8.76451804,9.35377011 L8.76451804,8.58708754 L3.89193419,8.58708754 L3.89193419,27.2946278 L0,27.2946278 L0,0.582751593 L3.89193419,0.582751593 Z" id="Fill-1"></path>
                    <path d="M54.5280226,6.67563848 L58.9554941,6.67563848 L58.9554941,5.59412754 L54.5280226,5.59412754 L54.5280226,6.67563848 Z M54.5280226,4.04893715 L58.9554941,4.04893715 L58.9554941,2.9668145 L54.5280226,2.9668145 L54.5280226,4.04893715 Z M55.1805118,14.9582505 C54.8713725,14.3710047 54.5622332,13.8149564 54.1504622,13.2894938 C53.0177809,13.9691084 51.8166785,14.6181373 50.5813654,15.1435999 C52.1251957,15.1124025 53.6354374,15.0200336 55.1805118,14.9582505 Z M46.4630333,14.9888362 C46.153894,14.4633736 45.8789653,13.9691084 45.5362375,13.4748432 C44.1292495,14.2780242 43.1334105,14.7729011 41.5895803,15.3289494 C43.2366643,15.2671662 44.8495378,15.1435999 46.4630333,14.9888362 Z M40.9719237,20.3358312 L40.9719237,18.079217 L43.8201102,18.079217 L43.8201102,20.3970026 C44.4377668,20.3046337 45.0902559,20.2122649 45.6730798,20.0575011 C45.742123,19.0995565 45.7763336,18.1410002 45.7763336,17.1830555 L48.5909315,17.1830555 C48.5225103,18.7900291 48.6593527,20.4899832 48.1101173,22.066371 C47.2523647,24.5383086 42.6532184,25.8675638 40.1819703,26.5783759 L39.9760848,26.2694602 C41.7606332,25.3421012 44.8843704,23.6733445 45.4671943,21.7568436 L45.6394912,21.2007952 C44.3693456,21.7568436 43.0649894,22.2517204 41.7606332,22.7153999 L40.2510134,20.7995106 C40.5253201,20.7371158 40.9719237,20.6447469 40.9719237,20.3358312 Z M44.7126955,11.4971708 C44.9870021,11.1258602 45.2277202,10.7239639 45.4336057,10.3226793 L48.9342814,10.6003976 C48.1101173,11.434776 47.2181541,12.2385686 46.2913583,12.9799664 C47.2865753,13.5672121 47.973275,14.1232604 48.8310276,14.8964673 C50.3406473,14.3398073 51.0621796,13.7219758 52.4001244,12.7946169 C51.2332325,13.0729469 50.0663406,13.2277107 48.9342814,13.4436458 L48.1443279,11.6201254 C49.8262446,11.3112097 50.4096905,10.2608962 50.9931364,8.96222664 L50.5813654,8.96222664 L50.5813654,0.525462609 L54.5280226,0.525462609 L54.5280226,1.32864352 L58.8870729,1.32864352 L59.950711,0.123566295 L64,1.0203395 L62.9363619,2.13243615 L62.9363619,25.3115155 C62.9363619,25.7439976 62.8679407,26.2694602 62.593634,26.640159 C61.8036806,27.6293011 59.2988439,28 58.0286983,28 C57.8912339,28 57.4110418,28 57.30841,27.9382169 C57.2045342,27.8764337 57.2045342,27.4745374 57.2045342,27.3815568 C57.1709457,26.9802722 56.9650602,26.6713565 56.6901315,26.3930265 C56.1751067,25.929347 54.6312764,25.6204313 53.9787873,25.496865 L54.0472085,25.0637712 C55.3173541,25.1567518 56.5868777,25.2491207 57.8570234,25.2491207 C58.7838191,25.2491207 58.9554941,25.1873375 58.9554941,24.3223735 L58.9554941,8.12784829 L54.5280226,8.12784829 L54.5280226,9.0246215 L54.664865,9.08640465 C53.6018489,10.0443493 52.3317032,10.7551613 51.1648114,11.5583423 L53.67027,11.4659734 C54.2195054,10.9717082 54.6312764,10.353265 55.0430474,9.73543355 L58.4746799,10.1679156 C57.4110418,11.0946628 56.2783605,11.9602386 55.0430474,12.6404649 C56.2441499,13.3200795 58.2345838,14.216241 58.2345838,15.6996483 C58.2345838,16.5034409 57.5142955,17.0282918 56.6901315,17.0282918 C55.5922828,17.0282918 55.6607039,16.7817709 55.3863973,15.9467809 C53.8077344,16.3180915 52.2626601,16.6270072 50.6839972,16.9053372 L52.846728,16.9053372 L52.846728,20.4282 L54.7687408,20.4282 L54.7687408,17.7397156 L57.5827167,17.7397156 L57.5827167,23.3644288 L54.7687408,23.3644288 L54.7687408,22.1281542 L52.846728,22.1281542 L52.846728,25.3115155 L50.0663406,25.3115155 L50.0663406,17.0594892 L49.6203591,17.2142529 L49.0711237,16.1633277 C48.796817,16.5340266 48.3502134,16.9359229 47.8009781,16.9359229 C47.1833215,16.9359229 46.7373399,16.5034409 46.6340862,15.9779783 C44.6436523,16.4416577 42.6190078,16.7817709 40.5937413,17.0594892 L40.0451279,15.1741857 C41.7606332,14.8652699 42.6190078,13.8767396 43.7516891,12.7640312 C42.6532184,13.0111638 41.5211591,13.2894938 40.3878558,13.4436458 L39.6327349,11.434776 C39.9076636,11.3729928 40.1819703,11.2806239 40.4226884,11.1564459 C41.1429766,10.7857471 41.7270446,9.64245297 41.9665187,8.96222664 L45.8453767,9.27175409 C44.6094417,10.2608962 43.4767604,10.8787276 41.9665187,11.5583423 C42.8939365,11.5583423 43.8201102,11.5277565 44.7126955,11.4971708 Z M38.9124466,6.67563848 L43.9917852,6.67563848 L43.9917852,5.59412754 L38.9124466,5.59412754 L38.9124466,6.67563848 Z M38.9124466,4.04893715 L43.9917852,4.04893715 L43.9917852,2.9668145 L38.9124466,2.9668145 L38.9124466,4.04893715 Z M38.9124466,1.29805781 L43.8885314,1.29805781 L44.8495378,0 L49.0711237,0.927358923 L47.9384424,2.07065301 L47.9384424,9.08640465 L43.9917852,9.08640465 L43.9917852,8.09726258 L38.9124466,8.09726258 L38.9124466,27.6293011 L35,27.6293011 L35,0.710812051 L38.9124466,0.710812051 L38.9124466,1.29805781 Z" id="Fill-3"></path>
                    <path d="M80.6184352,6.77370523 C80.6524305,6.24295518 80.7204211,5.71220513 80.7204211,5.18145508 C80.7204211,3.46501313 80.6524305,1.74795331 80.6184352,0 L86.1429796,0 C86.0403756,2.27870336 85.9043945,4.52589536 85.8357858,6.77370523 L97.9770507,6.77370523 L97.9770507,8.89608756 L86.2115883,8.89608756 C87.5411134,13.3910894 90.7131834,17.5740671 94.2258245,20.8827592 C95.5559676,22.1629852 97.2612952,23.1305691 99,23.8485337 L98.8300235,24.2853675 C97.6024843,24.4416885 96.5449216,24.6919258 96.0671332,25.8776177 C95.9991426,26.0648322 95.9651473,26.2520467 95.9651473,26.4398791 C95.9651473,26.9076064 96.2037325,27.3759516 96.3743271,27.781892 L95.9651473,28 C95.3513778,27.7509985 94.7376082,27.4698678 94.1572158,27.1578436 C93.4068469,26.7519033 92.7250867,26.1896419 92.0427085,25.6904032 C88.700662,23.0996756 86.5527774,19.3850431 85.5978187,15.4825783 L84.7108506,11.8303506 C84.3356661,12.8918507 83.9264864,13.9218395 83.5166886,14.9833396 C81.9825737,18.9475914 78.5379232,22.1629852 74.8546876,24.5356047 C72.8767795,25.7843194 70.5916776,26.6894984 68.4091797,27.5631661 L68,27.2202485 C71.8878255,24.6289031 74.6500977,21.8818545 76.9005862,17.9484961 C78.6405272,14.9209347 79.5954859,12.2678024 80.1412649,8.89608756 L68.8183595,8.89608756 L68.8183595,6.77370523 L80.6184352,6.77370523 Z" id="Fill-4"></path>
                    <path d="M127.431918,1 L127.431918,9.85201376 C128.17441,8.21979363 128.612933,6.61863974 128.849014,4.86091202 L132.696031,4.86091202 C132.493588,5.55182514 132.291146,6.2110507 132.055065,6.90134251 C131.37985,8.87901919 129.220261,10.8566959 127.431918,12.0807056 L127.431918,14.1528237 C128.579295,14.5610341 130.367638,15.0630645 131.582292,16.0043715 C132.426311,16.663597 133,17.417264 133,18.358571 C133,19.4576944 132.088704,20.430689 130.941326,20.430689 C128.849014,20.430689 128.98418,19.1122379 128.68021,17.5117053 C128.44413,16.3815156 128.14016,15.6906025 127.431918,14.7486741 L127.431918,24.5432375 C127.431918,24.9825141 127.735276,25.1397093 128.208049,25.1397093 C128.71446,25.1397093 129.119345,24.8563852 129.456953,24.51155 C130.266722,23.6323755 130.839799,22.5966271 131.582292,21.6553201 L132.088704,21.7802064 C131.683819,22.5966271 131.278934,23.4441141 131.278934,24.3543548 C131.278934,25.7355597 132.966362,25.452857 132.966362,25.9555087 C132.966362,26.1120825 132.898473,26.2382115 132.796946,26.3947853 C132.45995,26.9285033 131.95415,27.431155 131.481377,27.9014978 C130.705246,28.7179186 128.781737,28.7806724 127.701637,28.7806724 C126.520621,28.7806724 125.440521,28.6551648 124.361032,28.2780206 C123.247294,27.8704316 122.977574,26.8657495 122.977574,25.8610673 L122.977574,1 L127.431918,1 Z M121.121343,1.03168756 L121.121343,16.3815156 C121.121343,17.9509819 121.053455,19.6459558 120.64857,21.1526684 C120.412489,22.0001553 119.636358,23.0986575 119.130558,23.7895706 C117.443131,26.0810163 114.77713,27.4622212 112.212045,28.7806724 L111.874437,28.5607234 C112.988787,27.524975 113.832195,26.5202929 114.676215,25.2962831 C116.700638,22.4394319 116.734277,19.4887607 116.734277,16.1932542 C115.958146,17.5117053 115.081099,19.0184178 113.966749,20.1479862 L112.651179,21.4981249 L111.503802,17.197315 C113.460949,16.256008 115.081099,14.9375569 116.734277,13.5874182 L116.700638,1.03168756 L121.121343,1.03168756 Z M111.436525,13.7446133 C111.26711,13.9018085 111.064667,14.0583823 110.896475,14.2466437 C110.727671,14.4038389 110.727671,16.9462998 110.727671,17.2600688 C110.727671,19.7714634 110.829198,22.3139243 110.829198,24.8563852 C110.829198,25.1707755 110.829198,27.2739598 110.694033,27.4939088 C110.558867,27.838744 110.289148,28.0903806 109.985179,28.2780206 C109.242686,28.6868523 107.217651,29 106.340605,29 C106.171801,29 105.93572,29 105.800555,28.90618 C105.497197,28.7179186 105.800555,27.0856984 104.31557,26.5519805 C103.910685,26.3947853 103.438523,26.3009653 103,26.1754577 L103.067277,25.7983135 C103.775519,25.8610673 104.552262,25.8610673 105.260504,25.8610673 C105.867831,25.8610673 106.407882,25.9238211 106.407882,25.2335293 L106.407882,17.0718074 C105.530224,17.5427716 104.5859,17.9192944 103.640966,18.2647509 L103.067277,14.7176079 C104.214654,14.5293465 105.327781,14.2155775 106.407882,13.8073671 L106.407882,6.55588594 L103.202442,6.55588594 L103.202442,4.60989682 L106.407882,4.60989682 L106.407882,1.09382004 L110.896475,1.09382004 L110.896475,4.60989682 L113.326395,4.60989682 L113.326395,6.55588594 L110.896475,6.55588594 L110.896475,12.3634084 C111.571079,12.0496394 112.279933,11.7669366 112.988787,11.4531676 C112.819372,10.8250083 113.224868,10.1974703 113.460949,9.60099856 C113.798557,8.84733163 113.865834,8.25085987 113.865834,7.40399423 C113.865834,7.02685011 113.798557,6.68201487 113.69703,6.30487074 L114.203441,6.17936314 C114.844407,6.80752247 115.451734,7.43506047 115.856619,8.15703983 C116.295753,8.87901919 116.565473,9.69543992 116.565473,10.6684345 C116.565473,11.7980029 115.586899,12.5833574 114.439522,12.5833574 C113.933722,12.5833574 113.494587,12.4261622 113.123341,12.0807056 C112.583902,12.6461112 112.043852,13.2108954 111.436525,13.7446133 Z" id="Fill-5"></path>
                    <path d="M151.751674,5.59363803 L153.534805,5.59363803 L153.534805,2.87389671 L151.751674,2.87389671 L151.751674,5.59363803 Z M150.002105,16.8738967 L152.813846,16.8738967 L152.813846,15.0197501 L150.002105,15.0197501 L150.002105,16.8738967 Z M150.002105,13.1961898 L152.813846,13.1961898 L152.813846,11.3108451 L150.002105,11.3108451 L150.002105,13.1961898 Z M156.106019,20.5828017 L156.106019,22.2515949 C157.169433,21.3554138 158.129676,20.4904308 159.089919,19.5012672 C158.437949,16.4726033 158.404387,13.3509569 158.335398,10.2598969 L156.792173,10.4764485 L156.654818,10.0133706 L156.243374,10.4458621 L156.243374,19.5012672 L152.813846,19.5012672 L152.813846,18.6668706 L150.002105,18.6668706 L150.002105,20.5828017 L156.106019,20.5828017 Z M153.39745,1.14331906 L154.357693,0.0305863847 L157.752416,0.895569344 L156.689623,1.91593114 L156.689623,8.03504326 L153.534805,8.03504326 L153.534805,7.41719829 L151.751674,7.41719829 L151.751674,8.03504326 L148.630418,8.03504326 L148.630418,0.370095255 L151.751674,0.370095255 L151.751674,1.14331906 L153.39745,1.14331906 Z M143.521553,16.8738967 L146.333293,16.8738967 L146.333293,15.0197501 L143.521553,15.0197501 L143.521553,16.8738967 Z M143.521553,13.1961898 L146.333293,13.1961898 L146.333293,11.3108451 L143.521553,11.3108451 L143.521553,13.1961898 Z M142.594871,5.59363803 L144.103914,5.59363803 L144.103914,2.87389671 L142.594871,2.87389671 L142.594871,5.59363803 Z M142.594871,0.246526261 L142.594871,1.14331906 L143.932375,1.14331906 L145.064157,0 L148.493063,0.926767456 L147.327098,1.88473302 L147.327098,8.03504326 L144.103914,8.03504326 L144.103914,7.41719829 L142.594871,7.41719829 L142.594871,8.06624137 L139.302699,8.06624137 L139.302699,0.246526261 L142.594871,0.246526261 Z M146.333293,18.6668706 L143.520931,18.6668706 L143.520931,19.5012672 L140.023036,19.5012672 L140.023036,8.86943983 L143.520931,8.86943983 L143.520931,9.58026741 L152.642929,9.58026741 L153.774089,8.40575024 L156.414912,9.30254304 L156.243374,8.62230184 L158.301215,8.40575024 C158.267032,5.65542253 158.232227,2.87389671 158.198665,0.123568994 L162.244737,0.123568994 L162.313725,1.20510356 C163.513252,1.54461243 164.714022,1.91593114 165.845182,2.44140523 C166.599703,2.7809141 167.320041,3.2758018 167.320041,4.11019837 C167.320041,5.25351743 166.531336,5.87197413 165.296383,5.87197413 C163.47969,5.87197413 163.47969,4.97518133 163.273968,3.6159224 C163.170797,2.90509482 162.725169,2.44140523 162.313725,1.82294853 C162.313725,3.86244866 162.347287,5.87197413 162.382092,7.88027615 L166.94278,7.29301757 L167.457396,9.05479332 L162.382092,9.7656209 C162.382092,11.7439483 162.450459,13.6904658 162.519447,15.6687931 C163.47969,14.0311981 164.096856,12.3617932 164.645655,10.5694311 L168.794278,11.3108451 C168.006195,12.9490518 167.285857,14.5560605 166.256626,16.0706982 C165.365372,17.3687844 164.302578,18.4191209 163.239164,19.5630516 C163.410702,20.087914 164.542484,22.9006379 164.953928,22.9006379 C165.193833,22.9006379 165.228016,22.7152845 165.296383,22.5605173 C165.914171,20.9847068 166.393981,19.1299484 166.737058,17.4923534 L167.422591,17.5847243 C167.251674,18.8828105 167.183307,20.2426811 167.183307,21.5407673 C167.183307,23.302543 169,22.3751639 169,23.5184829 C169,24.4458621 168.006195,28 166.737058,28 C166.154076,28 165.433738,27.629293 164.953928,27.3509569 C162.278921,25.8369309 161.387044,24.4458621 159.84444,22.035655 C158.643671,22.7464826 157.409339,23.5184829 156.140824,24.1057415 C154.70077,24.7859827 153.225911,25.4038277 151.751674,26.0222844 L151.373792,25.6821638 C153.225911,24.5076466 154.220338,23.7662326 155.935102,22.3751639 L150.002105,22.3751639 L150.002105,27.5980949 L146.333293,27.5980949 L146.333293,22.3751639 L138,22.3751639 L138,20.5828017 L146.333293,20.5828017 L146.333293,18.6668706 Z" id="Fill-6"></path>
                </g>
            </g>
        </g>
    </g>
</svg>